\relax 
\providecommand\hyper@newdestlabel[2]{}
\@writefile{toc}{\contentsline {chapter}{\numberline {4}Aplica\IeC {\c c}\IeC {\~o}es e resultados}{33}{chapter.4}}
\@writefile{lof}{\addvspace {10\p@ }}
\@writefile{lot}{\addvspace {10\p@ }}
\@writefile{toc}{\contentsline {section}{\numberline {4.1}Hierarquia de curr\IeC {\'\i }culos}{33}{section.4.1}}
\@writefile{lof}{\contentsline {figure}{\numberline {4.1}{\ignorespaces Processo para construir hierarquia de curr\IeC {\'\i }culos\relax }}{33}{figure.caption.15}}
\newlabel{fig:scripthierarquico}{{4.1}{33}{Processo para construir hierarquia de currículos\relax }{figure.caption.15}{}}
\@writefile{toc}{\contentsline {subsection}{\numberline {4.1.1}Parametriza\IeC {\c c}\IeC {\~a}o da hierarquia}{34}{subsection.4.1.1}}
\newlabel{tab:config.txt}{{\caption@xref {tab:config.txt}{ on input line 82}}{35}{Parametrização da hierarquia}{figure.caption.16}{}}
\@writefile{lof}{\contentsline {figure}{\numberline {4.2}{\ignorespaces Processo para construir hierarquia de curr\IeC {\'\i }culos\relax }}{35}{figure.caption.16}}
\@writefile{lot}{\contentsline {table}{\numberline {4.1}{\ignorespaces Estrutura do arquivo \emph  {curriculos.csv}\relax }}{36}{table.caption.17}}
\newlabel{tab:curriculo.csv}{{4.1}{36}{Estrutura do arquivo \emph {curriculos.csv}\relax }{table.caption.17}{}}
\@writefile{toc}{\contentsline {subsection}{\numberline {4.1.2}Gera\IeC {\c c}\IeC {\~a}o de Scripts}{36}{subsection.4.1.2}}
\@writefile{loa}{\contentsline {algorithm}{\numberline {1}{\ignorespaces Algoritmo para gera\IeC {\c c}\IeC {\~a}o dos arquivos de entrada do ScriptLattes, para cada curr\IeC {\'\i }culos dos grupos\relax }}{37}{algorithm.1}}
\newlabel{alg:algorithm-gerarEntradaScriptLattes}{{1}{37}{Algoritmo para geração dos arquivos de entrada do ScriptLattes, para cada currículos dos grupos\relax }{algorithm.1}{}}
\@writefile{toc}{\contentsline {subsection}{\numberline {4.1.3}Gera\IeC {\c c}\IeC {\~a}o de relat\IeC {\'o}rios}{38}{subsection.4.1.3}}
\@writefile{toc}{\contentsline {section}{\numberline {4.2}Aplica\IeC {\c c}\IeC {\~a}o para cadastro da plataforma Sucupira}{38}{section.4.2}}
\@writefile{lof}{\contentsline {figure}{\numberline {4.3}{\ignorespaces Processo para construir hierarquia de curr\IeC {\'\i }culos\relax }}{39}{figure.caption.18}}
\newlabel{fig:hierarquiaScriptSucupira}{{4.3}{39}{Processo para construir hierarquia de currículos\relax }{figure.caption.18}{}}
\@writefile{toc}{\contentsline {subsection}{\numberline {4.2.1}Adapta\IeC {\c c}\IeC {\~a}o na parametriza\IeC {\c c}\IeC {\~a}o da hierarquia para o ScriptSucupira}{39}{subsection.4.2.1}}
\@writefile{lof}{\contentsline {figure}{\numberline {4.4}{\ignorespaces Processo de execu\IeC {\c c}\IeC {\~a}o ScriptSucupira\relax }}{40}{figure.caption.19}}
\newlabel{fig:ScriptSucupira}{{4.4}{40}{Processo de execução ScriptSucupira\relax }{figure.caption.19}{}}
\newlabel{tab:parametros}{{\caption@xref {tab:parametros}{ on input line 280}}{42}{Adaptação na parametrização da hierarquia para o ScriptSucupira}{figure.caption.20}{}}
\@writefile{lof}{\contentsline {figure}{\numberline {4.5}{\ignorespaces Processo para construir hierarquia de curr\IeC {\'\i }culos do ScriptSucupira\relax }}{42}{figure.caption.20}}
\citation{nigro2015uso}
\citation{nigro2017prestaccao}
\citation{ferraz2014use}
\citation{catani2002educaccao}
\@writefile{toc}{\contentsline {subsection}{\numberline {4.2.2}Resultados utilizando aplica\IeC {\c c}\IeC {\~a}o ScriptSucupira}{43}{subsection.4.2.2}}
\@writefile{brf}{\backcite{nigro2015uso}{{43}{4.2.2}{subsection.4.2.2}}}
\@writefile{brf}{\backcite{nigro2017prestaccao}{{43}{4.2.2}{subsection.4.2.2}}}
\@writefile{brf}{\backcite{ferraz2014use}{{43}{4.2.2}{subsection.4.2.2}}}
\@writefile{toc}{\contentsline {section}{\numberline {4.3}Aplica\IeC {\c c}\IeC {\~a}o para cadastro da plataforma e-Mec}{43}{section.4.3}}
\@writefile{brf}{\backcite{catani2002educaccao}{{43}{4.3}{section.4.3}}}
\citation{juliano2017}
\@writefile{lof}{\contentsline {figure}{\numberline {4.6}{\ignorespaces Exemplo da \IeC {\'a}rvore de hierarquias\relax }}{44}{figure.caption.21}}
\newlabel{fig:hierarquiaScriptEMEC}{{4.6}{44}{Exemplo da árvore de hierarquias\relax }{figure.caption.21}{}}
\citation{marcos2017}
\citation{maccari2009gestao}
\@writefile{toc}{\contentsline {subsection}{\numberline {4.3.1}Resultados utilizando as ferramentas ScriptSucupira e ScriptEMec}{45}{subsection.4.3.1}}
\@writefile{brf}{\backcite{juliano2017}{{45}{4.3.1}{subsection.4.3.1}}}
\@writefile{brf}{\backcite{marcos2017}{{45}{4.3.1}{subsection.4.3.1}}}
\@writefile{toc}{\contentsline {section}{\numberline {4.4}ScriptComp}{45}{section.4.4}}
\@writefile{brf}{\backcite{maccari2009gestao}{{45}{4.4}{section.4.4}}}
\@writefile{lot}{\contentsline {table}{\numberline {4.2}{\ignorespaces Exemplo de c\IeC {\'a}lculo dos programas para o indicador IndProdOrient\relax }}{48}{table.caption.22}}
\newlabel{tab:scriptCompEx}{{4.2}{48}{Exemplo de cálculo dos programas para o indicador IndProdOrient\relax }{table.caption.22}{}}
\@writefile{lof}{\contentsline {figure}{\numberline {4.7}{\ignorespaces Processo de execu\IeC {\c c}\IeC {\~a}o ScriptComp\relax }}{49}{figure.caption.23}}
\newlabel{fig:ScriptCompExDend}{{4.7}{49}{Processo de execução ScriptComp\relax }{figure.caption.23}{}}
\@writefile{lof}{\contentsline {figure}{\numberline {4.8}{\ignorespaces Processo de execu\IeC {\c c}\IeC {\~a}o ScriptComp\relax }}{49}{figure.caption.24}}
\newlabel{fig:ScriptComp}{{4.8}{49}{Processo de execução ScriptComp\relax }{figure.caption.24}{}}
\@writefile{toc}{\contentsline {subsection}{\numberline {4.4.1}Resultados utilizando a ferramenta ScriptComp}{50}{subsection.4.4.1}}
\@writefile{lof}{\contentsline {figure}{\numberline {4.9}{\ignorespaces Quantidades de Programas por nota Capes\relax }}{50}{figure.caption.25}}
\newlabel{fig:cursosQualis}{{4.9}{50}{Quantidades de Programas por nota Capes\relax }{figure.caption.25}{}}
\@writefile{lot}{\contentsline {table}{\numberline {4.3}{\ignorespaces Programas n\IeC {\~a}o extra\IeC {\'\i }dos\relax }}{51}{table.caption.26}}
\newlabel{tab:registrosnaoencontrados}{{4.3}{51}{Programas não extraídos\relax }{table.caption.26}{}}
\@writefile{lof}{\contentsline {figure}{\numberline {4.10}{\ignorespaces Resultado da execu\IeC {\c c}\IeC {\~a}o do ScriptComp, utilizando o indicador IndProdArt para o ano de 2016.\relax }}{52}{figure.caption.27}}
\newlabel{fig:indProdArt2016}{{4.10}{52}{Resultado da execução do ScriptComp, utilizando o indicador IndProdArt para o ano de 2016.\relax }{figure.caption.27}{}}
\@writefile{lof}{\contentsline {figure}{\numberline {4.11}{\ignorespaces Resultado da execu\IeC {\c c}\IeC {\~a}o do ScriptComp com corte na hierarquia\relax }}{53}{figure.caption.28}}
\newlabel{fig:indProdArt2016_TS}{{4.11}{53}{Resultado da execução do ScriptComp com corte na hierarquia\relax }{figure.caption.28}{}}
\@writefile{lof}{\contentsline {figure}{\numberline {4.12}{\ignorespaces C\IeC {\'a}lculo da m\IeC {\'e}dia pelas notas CAPES dos agrupamentos\relax }}{54}{figure.caption.29}}
\newlabel{fig:mediaAgrupamento}{{4.12}{54}{Cálculo da média pelas notas CAPES dos agrupamentos\relax }{figure.caption.29}{}}
\@setckpt{aplicacao}{
\setcounter{page}{55}
\setcounter{equation}{8}
\setcounter{enumi}{4}
\setcounter{enumii}{3}
\setcounter{enumiii}{0}
\setcounter{enumiv}{0}
\setcounter{footnote}{0}
\setcounter{mpfootnote}{0}
\setcounter{part}{0}
\setcounter{chapter}{4}
\setcounter{section}{4}
\setcounter{subsection}{1}
\setcounter{subsubsection}{0}
\setcounter{paragraph}{0}
\setcounter{subparagraph}{0}
\setcounter{figure}{12}
\setcounter{table}{3}
\setcounter{lstnumber}{1}
\setcounter{btxromaniannumeral}{0}
\setcounter{ContinuedFloat}{0}
\setcounter{Item}{24}
\setcounter{Hfootnote}{1}
\setcounter{bookmark@seq@number}{35}
\setcounter{ABCIaux}{0}
\setcounter{ABCImax}{0}
\setcounter{parentequation}{0}
\setcounter{lofdepth}{1}
\setcounter{lotdepth}{1}
\setcounter{definition}{0}
\setcounter{proposition}{0}
\setcounter{theorem}{0}
\setcounter{float@type}{16}
\setcounter{subfigure}{0}
\setcounter{subtable}{0}
\setcounter{algorithm}{1}
\setcounter{ALG@line}{23}
\setcounter{ALG@rem}{0}
\setcounter{ALG@nested}{0}
\setcounter{ALG@Lnr}{2}
\setcounter{ALG@blocknr}{10}
\setcounter{ALG@storecount}{0}
\setcounter{ALG@tmpcounter}{0}
\setcounter{lstlisting}{0}
\setcounter{section@level}{0}
}
