\relax 
\providecommand\hyper@newdestlabel[2]{}
\citation{lane2010let}
\citation{kadriu2013discovering}
\citation{lynch2003institutional}
\citation{fernandez2012semantic}
\citation{burns2013institutional}
\citation{edgar2010survey}
\citation{bras2003organizaccao1}
\citation{aboutPlataform:2017}
\citation{aboutPlataform:2017}
\citation{aboutPlataform:2017}
\@writefile{toc}{\contentsline {chapter}{\numberline {1}Introdu\IeC {\c c}\IeC {\~a}o}{12}{chapter.1}}
\@writefile{lof}{\addvspace {10\p@ }}
\@writefile{lot}{\addvspace {10\p@ }}
\@writefile{toc}{\contentsline {section}{\numberline {1.1}Contextualiza\IeC {\c c}\IeC {\~a}o do tema}{12}{section.1.1}}
\@writefile{brf}{\backcite{lane2010let}{{12}{1.1}{section.1.1}}}
\@writefile{brf}{\backcite{kadriu2013discovering}{{12}{1.1}{section.1.1}}}
\@writefile{brf}{\backcite{lynch2003institutional}{{12}{1.1}{section.1.1}}}
\@writefile{brf}{\backcite{fernandez2012semantic}{{12}{1.1}{section.1.1}}}
\@writefile{brf}{\backcite{burns2013institutional, edgar2010survey}{{12}{1.1}{section.1.1}}}
\@writefile{brf}{\backcite{burns2013institutional, edgar2010survey}{{12}{1.1}{section.1.1}}}
\@writefile{brf}{\backcite{bras2003organizaccao1}{{12}{1.1}{section.1.1}}}
\@writefile{brf}{\backcite{aboutPlataform:2017}{{12}{1.1}{section.1.1}}}
\@writefile{lof}{\contentsline {figure}{\numberline {1.1}{\ignorespaces Distribui\IeC {\c c}\IeC {\~a}o dos curr\IeC {\'\i }culos cadastrados na plataforma Lattes.\relax }}{12}{figure.caption.5}}
\providecommand*\caption@xref[2]{\@setref\relax\@undefined{#1}}
\newlabel{fig:quantidadeDeCurriculosPorNiveis}{{1.1}{12}{Distribuição dos currículos cadastrados na plataforma Lattes.\relax }{figure.caption.5}{}}
\@writefile{brf}{\backcite{aboutPlataform:2017}{{12}{1.1}{figure.caption.5}}}
\citation{silva2007organizaccao}
\citation{bonifacio2002ontologias}
\citation{da2009semantic}
\citation{Mena-Chalco2009}
\citation{aboutPgScriptLattes:2017}
\citation{mena2013prospecccao}
\citation{fernandez2012semantic}
\citation{ferraz2014use}
\citation{nigro2015uso}
\citation{giordano2015uso}
\citation{nigro2016uso}
\citation{nigro2015uso}
\@writefile{brf}{\backcite{aboutPlataform:2017}{{13}{1.1}{figure.caption.5}}}
\@writefile{brf}{\backcite{silva2007organizaccao}{{13}{1.1}{figure.caption.5}}}
\@writefile{brf}{\backcite{bonifacio2002ontologias}{{13}{1.1}{figure.caption.5}}}
\@writefile{brf}{\backcite{da2009semantic}{{13}{1.1}{figure.caption.5}}}
\@writefile{brf}{\backcite{Mena-Chalco2009}{{13}{1.1}{figure.caption.5}}}
\@writefile{brf}{\backcite{aboutPgScriptLattes:2017,mena2013prospecccao,fernandez2012semantic,ferraz2014use,nigro2015uso}{{13}{1.1}{figure.caption.5}}}
\@writefile{brf}{\backcite{aboutPgScriptLattes:2017,mena2013prospecccao,fernandez2012semantic,ferraz2014use,nigro2015uso}{{13}{1.1}{figure.caption.5}}}
\@writefile{brf}{\backcite{aboutPgScriptLattes:2017,mena2013prospecccao,fernandez2012semantic,ferraz2014use,nigro2015uso}{{13}{1.1}{figure.caption.5}}}
\@writefile{brf}{\backcite{aboutPgScriptLattes:2017,mena2013prospecccao,fernandez2012semantic,ferraz2014use,nigro2015uso}{{13}{1.1}{figure.caption.5}}}
\@writefile{brf}{\backcite{aboutPgScriptLattes:2017,mena2013prospecccao,fernandez2012semantic,ferraz2014use,nigro2015uso}{{13}{1.1}{figure.caption.5}}}
\@writefile{brf}{\backcite{giordano2015uso}{{13}{1.1}{figure.caption.5}}}
\@writefile{brf}{\backcite{nigro2016uso}{{13}{1.1}{figure.caption.5}}}
\@writefile{brf}{\backcite{nigro2015uso}{{13}{1.1}{figure.caption.5}}}
\@writefile{toc}{\contentsline {section}{\numberline {1.2}Problema de pesquisa}{13}{section.1.2}}
\@writefile{toc}{\contentsline {section}{\numberline {1.3}Objetivos}{14}{section.1.3}}
\@writefile{toc}{\contentsline {section}{\numberline {1.4}Estrutura do trabalho}{15}{section.1.4}}
\@setckpt{introducao}{
\setcounter{page}{16}
\setcounter{equation}{0}
\setcounter{enumi}{0}
\setcounter{enumii}{0}
\setcounter{enumiii}{0}
\setcounter{enumiv}{0}
\setcounter{footnote}{1}
\setcounter{mpfootnote}{0}
\setcounter{part}{0}
\setcounter{chapter}{1}
\setcounter{section}{4}
\setcounter{subsection}{0}
\setcounter{subsubsection}{0}
\setcounter{paragraph}{0}
\setcounter{subparagraph}{0}
\setcounter{figure}{1}
\setcounter{table}{0}
\setcounter{lstnumber}{1}
\setcounter{btxromaniannumeral}{0}
\setcounter{ContinuedFloat}{0}
\setcounter{Item}{0}
\setcounter{Hfootnote}{1}
\setcounter{bookmark@seq@number}{8}
\setcounter{ABCIaux}{0}
\setcounter{ABCImax}{0}
\setcounter{parentequation}{0}
\setcounter{lofdepth}{1}
\setcounter{lotdepth}{1}
\setcounter{definition}{0}
\setcounter{proposition}{0}
\setcounter{theorem}{0}
\setcounter{float@type}{16}
\setcounter{subfigure}{0}
\setcounter{subtable}{0}
\setcounter{algorithm}{0}
\setcounter{ALG@line}{0}
\setcounter{ALG@rem}{0}
\setcounter{ALG@nested}{0}
\setcounter{ALG@Lnr}{2}
\setcounter{ALG@blocknr}{10}
\setcounter{ALG@storecount}{0}
\setcounter{ALG@tmpcounter}{0}
\setcounter{lstlisting}{0}
\setcounter{section@level}{0}
}
