\select@language {brazil}
\contentsline {chapter}{Lista de Figuras}{6}{chapter*.4}
\contentsline {chapter}{\numberline {1}Exemplo de cap\IeC {\'\i }tulo}{8}{chapter.1}
\contentsline {section}{\numberline {1.1}Exemplo de se\IeC {\c c}\IeC {\~a}o}{8}{section.1.1}
\contentsline {subsection}{\numberline {1.1.1}Exemplo de subse\IeC {\c c}\IeC {\~a}o}{8}{subsection.1.1.1}
\contentsline {subsubsection}{\numberline {1.1.1.1}Exemplo de subsubse\IeC {\c c}\IeC {\~a}o}{8}{subsubsection.1.1.1.1}
\contentsline {chapter}{Refer\^encias Bibliogr\'aficas}{10}{chapter*.7}
\contentsfinish 
