\relax 
\providecommand\hyper@newdestlabel[2]{}
\citation{Duda:2000}
\citation{friedman}
\citation{Duda:2000}
\citation{friedman}
\@writefile{toc}{\contentsline {section}{\numberline {3}Agrupamentos hier\IeC {\'a}rquicos a partir de relat\IeC {\'o}rios gerados pelo ScriptLattes}{25}{section.3}}
\@writefile{toc}{\contentsline {subsubsection}{\numberline {3.0.1}Agrupamento Hier\IeC {\'a}rquico}{25}{subsubsection.3.0.1}}
\@writefile{brf}{\backcite{Duda:2000,friedman}{{25}{3.0.1}{subsubsection.3.0.1}}}
\@writefile{brf}{\backcite{Duda:2000,friedman}{{25}{3.0.1}{subsubsection.3.0.1}}}
\@writefile{brf}{\backcite{Duda:2000,friedman}{{25}{3.0.1}{subsubsection.3.0.1}}}
\@writefile{brf}{\backcite{Duda:2000,friedman}{{25}{3.0.1}{subsubsection.3.0.1}}}
\@writefile{toc}{\contentsline {subsubsection}{\numberline {3.0.2}Agrupamento Hier\IeC {\'a}rquico de curr\IeC {\'\i }culos Lattes}{26}{subsubsection.3.0.2}}
\citation{brualdi2012introductory}
\citation{newman1992elements}
\@writefile{brf}{\backcite{brualdi2012introductory,newman1992elements}{{27}{3.0.2}{equation.3.7}}}
\@writefile{brf}{\backcite{brualdi2012introductory,newman1992elements}{{27}{3.0.2}{equation.3.7}}}
\newlabel{sec:proposedMethod}{{3.0.2}{27}{Agrupamento Hierárquico de currículos Lattes}{figure.8}{}}
\@writefile{lof}{\contentsline {figure}{\numberline {8}{\ignorespaces Exemplo: ramifica\IeC {\c c}\IeC {\~o}es de um diagrama Hasse $(\mathcal  {T}, \preceq )$.}}{28}{figure.8}}
\newlabel{fig:hasse}{{8}{28}{Exemplo: ramificações de um diagrama Hasse $(\mathcal {T}, \preceq )$}{figure.8}{}}
\@writefile{lot}{\contentsline {table}{\numberline {1}{\ignorespaces Estrutura do conjunto de dados}}{28}{table.1}}
\newlabel{tab:dataset}{{1}{28}{Estrutura do conjunto de dados}{table.1}{}}
\@writefile{lof}{\contentsline {figure}{\numberline {9}{\ignorespaces Dendrograma do Agrupamento Hier\IeC {\'a}rquico}}{29}{figure.9}}
\newlabel{fig:dendrogram}{{9}{29}{Dendrograma do Agrupamento Hierárquico}{figure.9}{}}
\@setckpt{agrupamentoHierarquico}{
\setcounter{page}{30}
\setcounter{equation}{9}
\setcounter{enumi}{3}
\setcounter{enumii}{0}
\setcounter{enumiii}{0}
\setcounter{enumiv}{0}
\setcounter{footnote}{0}
\setcounter{mpfootnote}{0}
\setcounter{part}{0}
\setcounter{section}{3}
\setcounter{subsection}{0}
\setcounter{subsubsection}{2}
\setcounter{paragraph}{0}
\setcounter{subparagraph}{0}
\setcounter{figure}{9}
\setcounter{table}{1}
\setcounter{parentequation}{0}
\setcounter{Item}{12}
\setcounter{Hfootnote}{0}
\setcounter{bookmark@seq@number}{19}
\setcounter{ABCIaux}{0}
\setcounter{ABCImax}{0}
\setcounter{float@type}{4}
\setcounter{lofdepth}{1}
\setcounter{lotdepth}{1}
\setcounter{section@level}{3}
}
