\relax 
\providecommand\hyper@newdestlabel[2]{}
\citation{shafranovich2005common}
\@writefile{toc}{\contentsline {section}{\numberline {4}Aplica\IeC {\c c}\IeC {\~o}es}{30}{section.4}}
\@writefile{toc}{\contentsline {subsection}{\numberline {4.1}ScriptSucupira}{30}{subsection.4.1}}
\@writefile{brf}{\backcite{shafranovich2005common}{{30}{1}{Item.13}}}
\@writefile{lot}{\contentsline {table}{\numberline {2}{\ignorespaces Estrutura do Arquivo *.csv}}{31}{table.2}}
\newlabel{tab:dataset}{{2}{31}{Estrutura do Arquivo *.csv}{table.2}{}}
\@writefile{toc}{\contentsline {subsection}{\numberline {4.2}ScriptEmec}{31}{subsection.4.2}}
\@writefile{toc}{\contentsline {subsection}{\numberline {4.3}Classifica\IeC {\c c}\IeC {\~a}o do conceito CAPES}{31}{subsection.4.3}}
\@setckpt{aplicacao}{
\setcounter{page}{33}
\setcounter{equation}{9}
\setcounter{enumi}{5}
\setcounter{enumii}{0}
\setcounter{enumiii}{0}
\setcounter{enumiv}{0}
\setcounter{footnote}{0}
\setcounter{mpfootnote}{0}
\setcounter{part}{0}
\setcounter{section}{4}
\setcounter{subsection}{3}
\setcounter{subsubsection}{0}
\setcounter{paragraph}{0}
\setcounter{subparagraph}{0}
\setcounter{figure}{9}
\setcounter{table}{2}
\setcounter{parentequation}{0}
\setcounter{Item}{17}
\setcounter{Hfootnote}{0}
\setcounter{bookmark@seq@number}{23}
\setcounter{ABCIaux}{0}
\setcounter{ABCImax}{0}
\setcounter{float@type}{4}
\setcounter{lofdepth}{1}
\setcounter{lotdepth}{1}
\setcounter{section@level}{2}
}
