\relax 
\providecommand\hyper@newdestlabel[2]{}
\citation{mirtaheri2013brief}
\citation{genvlandwwww}
\citation{mirtaheri2013brief}
\citation{kausar2013web}
\citation{Infoseek:2017}
\citation{Lycos:2017}
\citation{altavista:2017}
\citation{excite:2017}
\citation{dogpile:2017}
\citation{ask:2017}
\citation{google:2017}
\citation{brin2006pagerank}
\citation{santos2014mineraccao}
\citation{rocha2012ferramenta}
\citation{machado2016web}
\citation{rodrigues2010ferramenta}
\citation{elishar2012organizational}
\citation{santos2010prototipo}
\citation{Mena-Chalco2009}
\citation{alves2016hierarchical}
\@writefile{toc}{\contentsline {section}{\numberline {2}Web-Crawlers para extra\IeC {\c c}\IeC {\~a}o de dados na plataforma Lattes}{14}{section.2}}
\@writefile{toc}{\contentsline {subsection}{\numberline {2.1}Web-Crawlers}{14}{subsection.2.1}}
\@writefile{brf}{\backcite{mirtaheri2013brief}{{14}{2.1}{subsection.2.1}}}
\@writefile{brf}{\backcite{genvlandwwww}{{14}{2.1}{subsection.2.1}}}
\@writefile{brf}{\backcite{mirtaheri2013brief}{{14}{2.1}{subsection.2.1}}}
\@writefile{brf}{\backcite{kausar2013web}{{14}{2.1}{subsection.2.1}}}
\@writefile{brf}{\backcite{Infoseek:2017}{{14}{2.1}{subsection.2.1}}}
\@writefile{brf}{\backcite{Lycos:2017}{{14}{2.1}{subsection.2.1}}}
\@writefile{brf}{\backcite{altavista:2017}{{14}{2.1}{subsection.2.1}}}
\@writefile{brf}{\backcite{excite:2017}{{14}{2.1}{subsection.2.1}}}
\@writefile{brf}{\backcite{dogpile:2017}{{14}{2.1}{subsection.2.1}}}
\@writefile{brf}{\backcite{ask:2017}{{14}{2.1}{subsection.2.1}}}
\@writefile{brf}{\backcite{google:2017}{{14}{2.1}{subsection.2.1}}}
\@writefile{brf}{\backcite{brin2006pagerank}{{14}{2.1}{subsection.2.1}}}
\@writefile{brf}{\backcite{santos2014mineraccao}{{14}{2.1}{subsection.2.1}}}
\@writefile{brf}{\backcite{rocha2012ferramenta, machado2016web}{{14}{2.1}{subsection.2.1}}}
\@writefile{brf}{\backcite{rocha2012ferramenta, machado2016web}{{14}{2.1}{subsection.2.1}}}
\@writefile{brf}{\backcite{rodrigues2010ferramenta}{{14}{2.1}{subsection.2.1}}}
\@writefile{brf}{\backcite{elishar2012organizational,santos2010prototipo,Mena-Chalco2009, alves2016hierarchical}{{14}{2.1}{subsection.2.1}}}
\@writefile{brf}{\backcite{elishar2012organizational,santos2010prototipo,Mena-Chalco2009, alves2016hierarchical}{{14}{2.1}{subsection.2.1}}}
\@writefile{brf}{\backcite{elishar2012organizational,santos2010prototipo,Mena-Chalco2009, alves2016hierarchical}{{14}{2.1}{subsection.2.1}}}
\citation{lane2010let}
\citation{bonifacio2002ontologias}
\citation{horrocks2002daml+oil}
\citation{bonifacio2002ontologias}
\@writefile{brf}{\backcite{elishar2012organizational,santos2010prototipo,Mena-Chalco2009, alves2016hierarchical}{{15}{2.1}{subsection.2.1}}}
\@writefile{toc}{\contentsline {subsection}{\numberline {2.2}Ferramentas de extra\IeC {\c c}\IeC {\~o}es da Plataforma Lattes e Web-Crawlers}{15}{subsection.2.2}}
\@writefile{brf}{\backcite{lane2010let}{{15}{2.2}{subsection.2.2}}}
\@writefile{toc}{\contentsline {subsubsection}{\numberline {2.2.1}OntoLattes}{15}{subsubsection.2.2.1}}
\@writefile{brf}{\backcite{bonifacio2002ontologias}{{15}{2.2.1}{subsubsection.2.2.1}}}
\@writefile{brf}{\backcite{horrocks2002daml+oil}{{15}{2.2.1}{subsubsection.2.2.1}}}
\@writefile{brf}{\backcite{bonifacio2002ontologias}{{15}{2.2.1}{subsubsection.2.2.1}}}
\citation{oliveira2004geralattes}
\citation{da2009semantic}
\citation{bechhofer2009owl}
\@writefile{lof}{\contentsline {figure}{\numberline {3}{\ignorespaces Processo da ferramenta OntoLattes}}{16}{figure.3}}
\newlabel{fig:ontolates}{{3}{16}{Processo da ferramenta OntoLattes}{figure.3}{}}
\@writefile{toc}{\contentsline {subsubsection}{\numberline {2.2.2}GeraLattes}{16}{subsubsection.2.2.2}}
\@writefile{brf}{\backcite{oliveira2004geralattes}{{16}{2.2.2}{subsubsection.2.2.2}}}
\@writefile{toc}{\contentsline {subsubsection}{\numberline {2.2.3}SemanticLattes}{16}{subsubsection.2.2.3}}
\@writefile{brf}{\backcite{da2009semantic}{{16}{2.2.3}{subsubsection.2.2.3}}}
\@writefile{brf}{\backcite{bechhofer2009owl}{{16}{2.2.3}{subsubsection.2.2.3}}}
\@writefile{lof}{\contentsline {figure}{\numberline {4}{\ignorespaces Passos para utiliza\IeC {\c c}\IeC {\~a}o da ferramenta SemanticLattes}}{17}{figure.4}}
\newlabel{fig:SemanticLattes}{{4}{17}{Passos para utilização da ferramenta SemanticLattes}{figure.4}{}}
\@writefile{toc}{\contentsline {subsubsection}{\numberline {2.2.4}ScriptLattes}{17}{subsubsection.2.2.4}}
\citation{aboutPgScriptLattes:2016}
\citation{mena2012caracterizando}
\@writefile{brf}{\backcite{aboutPgScriptLattes:2016}{{19}{2}{Item.2}}}
\@writefile{brf}{\backcite{mena2012caracterizando}{{19}{3}{Item.3}}}
\citation{statisticsScriptlattes:2016}
\@writefile{lof}{\contentsline {figure}{\numberline {5}{\ignorespaces Grafo de colabora\IeC {\c c}\IeC {\~a}o do ScriptLattes}}{20}{figure.5}}
\newlabel{fig:grafoDeColaboracoes}{{5}{20}{Grafo de colaboração do ScriptLattes}{figure.5}{}}
\@writefile{brf}{\backcite{statisticsScriptlattes:2016}{{21}{2.2.4}{Item.6}}}
\@writefile{lof}{\contentsline {figure}{\numberline {6}{\ignorespaces Utiliza\IeC {\c c}\IeC {\~a}o do Scritlattes por regi\IeC {\~a}o.}}{21}{figure.6}}
\newlabel{fig:scriptlattesNumeros}{{6}{21}{Utilização do Scritlattes por região}{figure.6}{}}
\@writefile{toc}{\contentsline {subsection}{\numberline {2.3}Utilizando ScriptLattes para extra\IeC {\c c}\IeC {\~a}o dos curr\IeC {\'\i }culos e minera\IeC {\c c}\IeC {\~a}o das informa\IeC {\c c}\IeC {\~o}es da Plataforma Lattes}{21}{subsection.2.3}}
\citation{fernandez2012semantic}
\@writefile{lof}{\contentsline {figure}{\numberline {7}{\ignorespaces Processo de execu\IeC {\c c}\IeC {\~a}o ScriptLattes}}{22}{figure.7}}
\newlabel{fig:ScriptLattes}{{7}{22}{Processo de execução ScriptLattes}{figure.7}{}}
\@writefile{toc}{\contentsline {subsubsection}{\numberline {2.3.1}Trabalhos que utilizam o ScriptLattes}{22}{subsubsection.2.3.1}}
\@writefile{brf}{\backcite{fernandez2012semantic}{{22}{2.3.1}{subsubsection.2.3.1}}}
\citation{ferraz2014use}
\citation{giordano2015uso}
\citation{nigro2015uso}
\citation{nigroprestaccao}
\citation{mena2013prospecccao}
\@writefile{brf}{\backcite{ferraz2014use}{{23}{2.3.1}{subsubsection.2.3.1}}}
\@writefile{brf}{\backcite{giordano2015uso}{{23}{2.3.1}{subsubsection.2.3.1}}}
\@writefile{brf}{\backcite{nigro2015uso}{{23}{2.3.1}{subsubsection.2.3.1}}}
\@writefile{brf}{\backcite{nigroprestaccao}{{23}{2.3.1}{subsubsection.2.3.1}}}
\citation{nigro2016uso}
\@writefile{brf}{\backcite{mena2013prospecccao}{{24}{2.3.1}{subsubsection.2.3.1}}}
\@writefile{brf}{\backcite{nigro2016uso}{{24}{2.3.1}{subsubsection.2.3.1}}}
\@setckpt{conceitos}{
\setcounter{page}{25}
\setcounter{equation}{0}
\setcounter{enumi}{6}
\setcounter{enumii}{0}
\setcounter{enumiii}{0}
\setcounter{enumiv}{0}
\setcounter{footnote}{0}
\setcounter{mpfootnote}{0}
\setcounter{part}{0}
\setcounter{section}{2}
\setcounter{subsection}{3}
\setcounter{subsubsection}{1}
\setcounter{paragraph}{0}
\setcounter{subparagraph}{0}
\setcounter{figure}{7}
\setcounter{table}{0}
\setcounter{parentequation}{0}
\setcounter{Item}{6}
\setcounter{Hfootnote}{0}
\setcounter{bookmark@seq@number}{16}
\setcounter{ABCIaux}{0}
\setcounter{ABCImax}{0}
\setcounter{float@type}{4}
\setcounter{lofdepth}{1}
\setcounter{lotdepth}{1}
\setcounter{section@level}{3}
}
