\relax 
\providecommand\hyper@newdestlabel[2]{}
\@writefile{toc}{\contentsline {section}{\numberline {5}Conclus\IeC {\~a}o}{33}{section.5}}
\@writefile{toc}{\contentsline {subsection}{\numberline {5.1}Resultados}{33}{subsection.5.1}}
\@writefile{toc}{\contentsline {subsection}{\numberline {5.2}Trabalhos relacionados}{33}{subsection.5.2}}
\@setckpt{conclusao}{
\setcounter{page}{34}
\setcounter{equation}{9}
\setcounter{enumi}{5}
\setcounter{enumii}{0}
\setcounter{enumiii}{0}
\setcounter{enumiv}{0}
\setcounter{footnote}{0}
\setcounter{mpfootnote}{0}
\setcounter{part}{0}
\setcounter{section}{5}
\setcounter{subsection}{2}
\setcounter{subsubsection}{0}
\setcounter{paragraph}{0}
\setcounter{subparagraph}{0}
\setcounter{figure}{9}
\setcounter{table}{2}
\setcounter{parentequation}{0}
\setcounter{Item}{17}
\setcounter{Hfootnote}{0}
\setcounter{bookmark@seq@number}{26}
\setcounter{ABCIaux}{0}
\setcounter{ABCImax}{0}
\setcounter{float@type}{4}
\setcounter{lofdepth}{1}
\setcounter{lotdepth}{1}
\setcounter{section@level}{2}
}
