\relax 
\providecommand\hyper@newdestlabel[2]{}
\citation{lane2010let}
\citation{kadriu2013discovering}
\citation{lynch2003institutional}
\citation{fernandez2012semantic}
\citation{burns2013institutional}
\citation{edgar2010survey}
\citation{bras2003organizaccao1}
\citation{Statistics:2016}
\citation{aboutPlataform:2016}
\@writefile{toc}{\contentsline {section}{\numberline {1}Introdu\IeC {\c c}\IeC {\~a}o}{9}{section.1}}
\@writefile{toc}{\contentsline {subsection}{\numberline {1.1}Contextualiza\IeC {\c c}\IeC {\~a}o do tema}{9}{subsection.1.1}}
\@writefile{brf}{\backcite{lane2010let}{{9}{1.1}{subsection.1.1}}}
\@writefile{brf}{\backcite{kadriu2013discovering}{{9}{1.1}{subsection.1.1}}}
\@writefile{brf}{\backcite{lynch2003institutional}{{9}{1.1}{subsection.1.1}}}
\@writefile{brf}{\backcite{fernandez2012semantic}{{9}{1.1}{subsection.1.1}}}
\@writefile{brf}{\backcite{burns2013institutional}{{9}{1.1}{subsection.1.1}}}
\@writefile{brf}{\backcite{edgar2010survey}{{9}{1.1}{subsection.1.1}}}
\@writefile{brf}{\backcite{bras2003organizaccao1}{{9}{1.1}{subsection.1.1}}}
\@writefile{brf}{\backcite{Statistics:2016}{{9}{1.1}{subsection.1.1}}}
\@writefile{brf}{\backcite{aboutPlataform:2016}{{9}{1.1}{figure.2}}}
\citation{silva2007organizaccao}
\citation{bonifacio2002ontologias}
\citation{da2009semantic}
\citation{Mena-Chalco2009}
\citation{aboutPgScriptLattes:2016}
\citation{mena2013prospecccao}
\citation{fernandez2012semantic}
\citation{ferraz2014use}
\citation{nigro2015uso}
\@writefile{lof}{\contentsline {figure}{\numberline {1}{\ignorespaces Quantidade de curr\IeC {\'\i }culos cadastrados, por n\IeC {\'\i }vel de forma\IeC {\c c}\IeC {\~a}o}}{10}{figure.1}}
\newlabel{fig:quantidadeDeCurriculosPorNiveis}{{1}{10}{Quantidade de currículos cadastrados, por nível de formação}{figure.1}{}}
\@writefile{brf}{\backcite{silva2007organizaccao}{{10}{1.1}{figure.2}}}
\@writefile{brf}{\backcite{bonifacio2002ontologias}{{10}{1.1}{figure.2}}}
\@writefile{brf}{\backcite{da2009semantic}{{10}{1.1}{figure.2}}}
\@writefile{brf}{\backcite{Mena-Chalco2009}{{10}{1.1}{figure.2}}}
\@writefile{brf}{\backcite{aboutPgScriptLattes:2016,mena2013prospecccao,fernandez2012semantic,ferraz2014use,nigro2015uso}{{10}{1.1}{figure.2}}}
\@writefile{brf}{\backcite{aboutPgScriptLattes:2016,mena2013prospecccao,fernandez2012semantic,ferraz2014use,nigro2015uso}{{10}{1.1}{figure.2}}}
\@writefile{brf}{\backcite{aboutPgScriptLattes:2016,mena2013prospecccao,fernandez2012semantic,ferraz2014use,nigro2015uso}{{10}{1.1}{figure.2}}}
\@writefile{brf}{\backcite{aboutPgScriptLattes:2016,mena2013prospecccao,fernandez2012semantic,ferraz2014use,nigro2015uso}{{10}{1.1}{figure.2}}}
\@writefile{brf}{\backcite{aboutPgScriptLattes:2016,mena2013prospecccao,fernandez2012semantic,ferraz2014use,nigro2015uso}{{10}{1.1}{figure.2}}}
\@writefile{lof}{\contentsline {figure}{\numberline {2}{\ignorespaces Quantidade estudantes }}{11}{figure.2}}
\newlabel{fig:quantidadeEstudantes}{{2}{11}{Quantidade estudantes}{figure.2}{}}
\@writefile{toc}{\contentsline {subsection}{\numberline {1.2}Problema de pesquisa}{11}{subsection.1.2}}
\@writefile{toc}{\contentsline {subsection}{\numberline {1.3}Objetivos}{12}{subsection.1.3}}
\@writefile{toc}{\contentsline {subsubsection}{\numberline {1.3.1}Objetivo geral}{12}{subsubsection.1.3.1}}
\@writefile{toc}{\contentsline {subsubsection}{\numberline {1.3.2}Objetivos espec\IeC {\'\i }ficos}{12}{subsubsection.1.3.2}}
\@writefile{toc}{\contentsline {subsection}{\numberline {1.4}Estrutura do trabalho}{13}{subsection.1.4}}
\@setckpt{introducao}{
\setcounter{page}{14}
\setcounter{equation}{0}
\setcounter{enumi}{0}
\setcounter{enumii}{0}
\setcounter{enumiii}{0}
\setcounter{enumiv}{0}
\setcounter{footnote}{0}
\setcounter{mpfootnote}{0}
\setcounter{part}{0}
\setcounter{section}{1}
\setcounter{subsection}{4}
\setcounter{subsubsection}{0}
\setcounter{paragraph}{0}
\setcounter{subparagraph}{0}
\setcounter{figure}{2}
\setcounter{table}{0}
\setcounter{parentequation}{0}
\setcounter{Item}{0}
\setcounter{Hfootnote}{0}
\setcounter{bookmark@seq@number}{7}
\setcounter{ABCIaux}{0}
\setcounter{ABCImax}{0}
\setcounter{float@type}{4}
\setcounter{lofdepth}{1}
\setcounter{lotdepth}{1}
\setcounter{section@level}{2}
}
