\relax 
\providecommand\hyper@newdestlabel[2]{}
\catcode `"\active 
\providecommand\HyperFirstAtBeginDocument{\AtBeginDocument}
\HyperFirstAtBeginDocument{\ifx\hyper@anchor\@undefined
\global\let\oldcontentsline\contentsline
\gdef\contentsline#1#2#3#4{\oldcontentsline{#1}{#2}{#3}}
\global\let\oldnewlabel\newlabel
\gdef\newlabel#1#2{\newlabelxx{#1}#2}
\gdef\newlabelxx#1#2#3#4#5#6{\oldnewlabel{#1}{{#2}{#3}}}
\AtEndDocument{\ifx\hyper@anchor\@undefined
\let\contentsline\oldcontentsline
\let\newlabel\oldnewlabel
\fi}
\fi}
\global\let\hyper@last\relax 
\gdef\HyperFirstAtBeginDocument#1{#1}
\providecommand\HyField@AuxAddToFields[1]{}
\providecommand\HyField@AuxAddToCoFields[2]{}
\citation{abnt-url-package=url}
\select@language{brazil}
\@writefile{toc}{\select@language{brazil}}
\@writefile{lof}{\select@language{brazil}}
\@writefile{lot}{\select@language{brazil}}
\@input{resumo.aux}
\@input{introducao.aux}
\@input{conceitos.aux}
\@input{agrupamentoHierarquico.aux}
\@input{aplicacao.aux}
\@input{conclusao.aux}
\bibdata{abntex2-options,refs-bib}
\bibcite{altavista:2017}{altavista 2017}
\bibciteEXPL{altavista:2017}{altavista}
\bibciteIMPL{altavista:2017}{ALTAVISTA}
\bibciteYEAR{altavista:2017}{2017}
\bibcite{alves2016hierarchical}{Alves, Santos e Schimit 2016}
\bibciteEXPL{alves2016hierarchical}{Alves, Santos e Schimit}
\bibciteIMPL{alves2016hierarchical}{ALVES; SANTOS; SCHIMIT}
\bibciteYEAR{alves2016hierarchical}{2016}
\bibcite{ask:2017}{ask 2017}
\bibciteEXPL{ask:2017}{ask}
\bibciteIMPL{ask:2017}{ASK}
\bibciteYEAR{ask:2017}{2017}
\bibcite{bechhofer2009owl}{Bechhofer 2009}
\bibciteEXPL{bechhofer2009owl}{Bechhofer}
\bibciteIMPL{bechhofer2009owl}{BECHHOFER}
\bibciteYEAR{bechhofer2009owl}{2009}
\bibcite{bonifacio2002ontologias}{Bonifacio 2002}
\bibciteEXPL{bonifacio2002ontologias}{Bonifacio}
\bibciteIMPL{bonifacio2002ontologias}{BONIFACIO}
\bibciteYEAR{bonifacio2002ontologias}{2002}
\bibcite{bras2003organizaccao1}{Bras 2003}
\bibciteEXPL{bras2003organizaccao1}{Bras}
\bibciteIMPL{bras2003organizaccao1}{BRAS}
\bibciteYEAR{bras2003organizaccao1}{2003}
\bibcite{brin2006pagerank}{Brin e Page 2006}
\bibciteEXPL{brin2006pagerank}{Brin e Page}
\bibciteIMPL{brin2006pagerank}{BRIN; PAGE}
\bibciteYEAR{brin2006pagerank}{2006}
\bibcite{brualdi2012introductory}{Brualdi 2012}
\bibciteEXPL{brualdi2012introductory}{Brualdi}
\bibciteIMPL{brualdi2012introductory}{BRUALDI}
\bibciteYEAR{brualdi2012introductory}{2012}
\bibcite{burns2013institutional}{Burns, Lana e Budd 2013}
\bibciteEXPL{burns2013institutional}{Burns, Lana e Budd}
\bibciteIMPL{burns2013institutional}{BURNS; LANA; BUDD}
\bibciteYEAR{burns2013institutional}{2013}
\bibcite{aboutPlataform:2016}{CNPq 2016}
\bibciteEXPL{aboutPlataform:2016}{CNPq}
\bibciteIMPL{aboutPlataform:2016}{CNPQ}
\bibciteYEAR{aboutPlataform:2016}{2016a}
\bibcite{Statistics:2016}{CNPq 2016}
\bibciteEXPL{Statistics:2016}{CNPq}
\bibciteIMPL{Statistics:2016}{CNPQ}
\bibciteYEAR{Statistics:2016}{2016b}
\bibcite{da2009semantic}{Costa e Yamate 2009}
\bibciteEXPL{da2009semantic}{Costa e Yamate}
\bibciteIMPL{da2009semantic}{COSTA; YAMATE}
\bibciteYEAR{da2009semantic}{2009}
\bibcite{dogpile:2017}{dogpile 2017}
\bibciteEXPL{dogpile:2017}{dogpile}
\bibciteIMPL{dogpile:2017}{DOGPILE}
\bibciteYEAR{dogpile:2017}{2017}
\bibcite{Duda:2000}{Duda, Hart e Stork 2000}
\bibciteEXPL{Duda:2000}{Duda, Hart e Stork}
\bibciteIMPL{Duda:2000}{DUDA; HART; STORK}
\bibciteYEAR{Duda:2000}{2000}
\bibcite{edgar2010survey}{Edgar e Willinsky 2010}
\bibciteEXPL{edgar2010survey}{Edgar e Willinsky}
\bibciteIMPL{edgar2010survey}{EDGAR; WILLINSKY}
\bibciteYEAR{edgar2010survey}{2010}
\bibcite{elishar2012organizational}{Elishar et al. 2012}
\bibciteEXPL{elishar2012organizational}{Elishar et al.}
\bibciteIMPL{elishar2012organizational}{ELISHAR et al.}
\bibciteYEAR{elishar2012organizational}{2012}
\bibcite{excite:2017}{excite 2017}
\bibciteEXPL{excite:2017}{excite}
\bibciteIMPL{excite:2017}{EXCITE}
\bibciteYEAR{excite:2017}{2017}
\bibcite{fernandez2012semantic}{Fern{\'a}ndez-Breis et al. 2012}
\bibciteEXPL{fernandez2012semantic}{Fern{\'a}ndez-Breis et al.}
\bibciteIMPL{fernandez2012semantic}{FERN{\'A}NDEZ-BREIS et al.}
\bibciteYEAR{fernandez2012semantic}{2012}
\@writefile{toc}{\contentsline {section}{REFER\IeC {\^E}NCIAS BIBLIOGR\IeC {\'A}FICAS}{34}{subsection.5.2}}
\bibcite{ferraz2014use}{Ferraz, Quoniam e Maccari 2014}
\bibciteEXPL{ferraz2014use}{Ferraz, Quoniam e Maccari}
\bibciteIMPL{ferraz2014use}{FERRAZ; QUONIAM; MACCARI}
\bibciteYEAR{ferraz2014use}{2014}
\bibcite{friedman}{Friedman, Hastie e Tibshirani 2001}
\bibciteEXPL{friedman}{Friedman, Hastie e Tibshirani}
\bibciteIMPL{friedman}{FRIEDMAN; HASTIE; TIBSHIRANI}
\bibciteYEAR{friedman}{2001}
\bibcite{giordano2015uso}{Giordano, Bruning e Bordin 2015}
\bibciteEXPL{giordano2015uso}{Giordano, Bruning e Bordin}
\bibciteIMPL{giordano2015uso}{GIORDANO; BRUNING; BORDIN}
\bibciteYEAR{giordano2015uso}{2015}
\bibcite{google:2017}{google 2017}
\bibciteEXPL{google:2017}{google}
\bibciteIMPL{google:2017}{GOOGLE}
\bibciteYEAR{google:2017}{2017}
\bibcite{horrocks2002daml+oil}{Horrocks et al. 2002}
\bibciteEXPL{horrocks2002daml+oil}{Horrocks et al.}
\bibciteIMPL{horrocks2002daml+oil}{HORROCKS et al.}
\bibciteYEAR{horrocks2002daml+oil}{2002}
\bibcite{Infoseek:2017}{Infoseek 2017}
\bibciteEXPL{Infoseek:2017}{Infoseek}
\bibciteIMPL{Infoseek:2017}{INFOSEEK}
\bibciteYEAR{Infoseek:2017}{2017}
\bibcite{kadriu2013discovering}{Kadriu 2013}
\bibciteEXPL{kadriu2013discovering}{Kadriu}
\bibciteIMPL{kadriu2013discovering}{KADRIU}
\bibciteYEAR{kadriu2013discovering}{2013}
\bibcite{kausar2013web}{Kausar, Dhaka e Singh 2013}
\bibciteEXPL{kausar2013web}{Kausar, Dhaka e Singh}
\bibciteIMPL{kausar2013web}{KAUSAR; DHAKA; SINGH}
\bibciteYEAR{kausar2013web}{2013}
\bibcite{lane2010let}{Lane 2010}
\bibciteEXPL{lane2010let}{Lane}
\bibciteIMPL{lane2010let}{LANE}
\bibciteYEAR{lane2010let}{2010}
\bibcite{Lycos:2017}{Lycos 2017}
\bibciteEXPL{Lycos:2017}{Lycos}
\bibciteIMPL{Lycos:2017}{LYCOS}
\bibciteYEAR{Lycos:2017}{2017}
\bibcite{lynch2003institutional}{Lynch 2003}
\bibciteEXPL{lynch2003institutional}{Lynch}
\bibciteIMPL{lynch2003institutional}{LYNCH}
\bibciteYEAR{lynch2003institutional}{2003}
\bibcite{machado2016web}{Machado et al. 2016}
\bibciteEXPL{machado2016web}{Machado et al.}
\bibciteIMPL{machado2016web}{MACHADO et al.}
\bibciteYEAR{machado2016web}{2016}
\bibcite{statisticsScriptlattes:2016}{Mena-Chalco 2016}
\bibciteEXPL{statisticsScriptlattes:2016}{Mena-Chalco}
\bibciteIMPL{statisticsScriptlattes:2016}{MENA-CHALCO}
\bibciteYEAR{statisticsScriptlattes:2016}{2016}
\bibcite{mena2012caracterizando}{Mena-Chalco, Digiampietri e Cesar-Jr 2012}
\bibciteEXPL{mena2012caracterizando}{Mena-Chalco, Digiampietri e Cesar-Jr}
\bibciteIMPL{mena2012caracterizando}{MENA-CHALCO; DIGIAMPIETRI; CESAR-JR}
\bibciteYEAR{mena2012caracterizando}{2012}
\bibcite{mena2013prospecccao}{Mena-Chalco e JUNIOR 2013}
\bibciteEXPL{mena2013prospecccao}{Mena-Chalco e JUNIOR}
\bibciteIMPL{mena2013prospecccao}{MENA-CHALCO; JUNIOR}
\bibciteYEAR{mena2013prospecccao}{2013}
\bibcite{Mena-Chalco2009}{Mena-Chalco e Junior 2009}
\bibciteEXPL{Mena-Chalco2009}{Mena-Chalco e Junior}
\bibciteIMPL{Mena-Chalco2009}{MENA-CHALCO; JUNIOR}
\bibciteYEAR{Mena-Chalco2009}{2009}
\bibcite{aboutPgScriptLattes:2016}{Mena-Chalco;Junior 2017}
\bibciteEXPL{aboutPgScriptLattes:2016}{Mena-Chalco;Junior}
\bibciteIMPL{aboutPgScriptLattes:2016}{MENA-CHALCO;JUNIOR}
\bibciteYEAR{aboutPgScriptLattes:2016}{2017}
\bibcite{mirtaheri2013brief}{Mirtaheri et al. 2013}
\bibciteEXPL{mirtaheri2013brief}{Mirtaheri et al.}
\bibciteIMPL{mirtaheri2013brief}{MIRTAHERI et al.}
\bibciteYEAR{mirtaheri2013brief}{2013}
\bibcite{newman1992elements}{Newman 1992}
\bibciteEXPL{newman1992elements}{Newman}
\bibciteIMPL{newman1992elements}{NEWMAN}
\bibciteYEAR{newman1992elements}{1992}
\bibcite{nigroprestaccao}{NIGRO et al.}
\bibciteEXPL{nigroprestaccao}{NIGRO et al.}
\bibciteIMPL{nigroprestaccao}{NIGRO et al.}
\bibciteYEAR{nigroprestaccao}{}
\bibcite{nigro2015uso}{NIGRO et al. 2015}
\bibciteEXPL{nigro2015uso}{NIGRO et al.}
\bibciteIMPL{nigro2015uso}{NIGRO et al.}
\bibciteYEAR{nigro2015uso}{2015}
\bibcite{genvlandwwww}{O.A 1994}
\bibciteEXPL{genvlandwwww}{O.A}
\bibciteIMPL{genvlandwwww}{O.A}
\bibciteYEAR{genvlandwwww}{1994}
\bibcite{oliveira2004geralattes}{OLIVEIRA, BERMEJO e Kern 2004}
\bibciteEXPL{oliveira2004geralattes}{OLIVEIRA, BERMEJO e Kern}
\bibciteIMPL{oliveira2004geralattes}{OLIVEIRA; BERMEJO; KERN}
\bibciteYEAR{oliveira2004geralattes}{2004}
\bibcite{rocha2012ferramenta}{Rocha, Kreutz e Turchetti 2012}
\bibciteEXPL{rocha2012ferramenta}{Rocha, Kreutz e Turchetti}
\bibciteIMPL{rocha2012ferramenta}{ROCHA; KREUTZ; TURCHETTI}
\bibciteYEAR{rocha2012ferramenta}{2012}
\bibcite{rodrigues2010ferramenta}{Rodrigues et al. 2010}
\bibciteEXPL{rodrigues2010ferramenta}{Rodrigues et al.}
\bibciteIMPL{rodrigues2010ferramenta}{RODRIGUES et al.}
\bibciteYEAR{rodrigues2010ferramenta}{2010}
\bibcite{santos2014mineraccao}{Santos 2014}
\bibciteEXPL{santos2014mineraccao}{Santos}
\bibciteIMPL{santos2014mineraccao}{SANTOS}
\bibciteYEAR{santos2014mineraccao}{2014}
\bibcite{santos2010prototipo}{Santos 2010}
\bibciteEXPL{santos2010prototipo}{Santos}
\bibciteIMPL{santos2010prototipo}{SANTOS}
\bibciteYEAR{santos2010prototipo}{2010}
\bibcite{shafranovich2005common}{Shafranovich 2005}
\bibciteEXPL{shafranovich2005common}{Shafranovich}
\bibciteIMPL{shafranovich2005common}{SHAFRANOVICH}
\bibciteYEAR{shafranovich2005common}{2005}
\bibcite{silva2007organizaccao}{SILVA 2007}
\bibciteEXPL{silva2007organizaccao}{SILVA}
\bibciteIMPL{silva2007organizaccao}{SILVA}
\bibciteYEAR{silva2007organizaccao}{2007}
\bibstyle{abntex2-alf}
