\providecommand{\abntreprintinfo}[1]{%
 \citeonline{#1}}
\setlength{\labelsep}{0pt}\begin{thebibliography}{}
\providecommand{\abntrefinfo}[3]{}
\providecommand{\abntbstabout}[1]{}
\abntbstabout{v-1.9.5 }

\bibitem[altavista 2017]{altavista:2017}
\abntrefinfo{altavista}{ALTAVISTA}{2017}
{ALTAVISTA. 2017. \url{http://www.altavista.com}.
Accessed: 2017-04-09.}

\bibitem[Alves, Santos e Schimit 2016]{alves2016hierarchical}
\abntrefinfo{Alves, Santos e Schimit}{ALVES; SANTOS; SCHIMIT}{2016}
{ALVES, W.~A.; SANTOS, S.~D.; SCHIMIT, P.~H. Hierarchical clustering based on
  reports generated by scriptlattes. In:  SPRINGER. \emph{IFIP International
  Conference on Advances in Production Management Systems}. [S.l.], 2016. p.
  28--35.}

\bibitem[ask 2017]{ask:2017}
\abntrefinfo{ask}{ASK}{2017}
{ASK. 2017. \url{http://www.ask.com}.
Accessed: 2017-04-09.}

\bibitem[Bechhofer 2009]{bechhofer2009owl}
\abntrefinfo{Bechhofer}{BECHHOFER}{2009}
{BECHHOFER, S. Owl: Web ontology language. In:  \emph{Encyclopedia of Database
  Systems}. [S.l.]: Springer, 2009. p. 2008--2009.}

\bibitem[Bonifacio 2002]{bonifacio2002ontologias}
\abntrefinfo{Bonifacio}{BONIFACIO}{2002}
{BONIFACIO, A.~S.
\emph{Ontologias e consulta sem{\^a}ntica: Uma aplica{\c{c}}ao ao caso Lattes}.
Tese (Doutorado) --- UNIVERSIDADE FEDERAL DO RIO GRANDE DO SUL, 2002.}

\bibitem[Bras 2003]{bras2003organizaccao1}
\abntrefinfo{Bras}{BRAS}{2003}
{BRAS, P.~O. Organiza{\c{c}}{\~a}o do curr{\'\i}culo--plataforma lattes
  curriculum vitae organization--the lattes software platform.
\emph{Pesqui Odontol Bras}, SciELO Brasil, v.~17, n. Supl 1, p. 18--22, 2003.}

\bibitem[Brin e Page 2006]{brin2006pagerank}
\abntrefinfo{Brin e Page}{BRIN; PAGE}{2006}
{BRIN, S.; PAGE, L. The pagerank citation ranking: bringing order to the web.
2006.}

\bibitem[Brualdi 2012]{brualdi2012introductory}
\abntrefinfo{Brualdi}{BRUALDI}{2012}
{BRUALDI, R. \emph{Introductory Combinatorics}. Pearson Education
  International, 2012.  (Pearson Education).
ISBN 9780132791717. Dispon{\'\i}vel em:
  \url{https://books.google.ca/books?id=7aeWuQAACAAJ}.}

\bibitem[Burns, Lana e Budd 2013]{burns2013institutional}
\abntrefinfo{Burns, Lana e Budd}{BURNS; LANA; BUDD}{2013}
{BURNS, C.~S.; LANA, A.; BUDD, J. Institutional repositories: exploration of
  costs and value.
\emph{D-Lib Magazine}, Corporation for National Research Initiatives, v.~19,
  n.~1, p.~1, 2013.}

\bibitem[CNPq 2016]{aboutPlataform:2016}
\abntrefinfo{CNPq}{CNPQ}{2016a}
{CNPQ. \emph{Lattes Platform}. 2016. \url{http://lattes.cnpq.br/}.
Accessed: 2016-05-19.}

\bibitem[CNPq 2016]{Statistics:2016}
\abntrefinfo{CNPq}{CNPQ}{2016b}
{CNPQ. \emph{Statistics - Lattes Platform}. 2016.
  \url{http://estatico.cnpq.br/painelLattes/}.
Accessed: 2016-05-29.}

\bibitem[Costa e Yamate 2009]{da2009semantic}
\abntrefinfo{Costa e Yamate}{COSTA; YAMATE}{2009}
{COSTA, A.~P. da; YAMATE, F.~S. Semantic lattes: uma ferramenta de consulta de
  informa{\c{c}}oes acad{\^e}micas da base lattes baseada em ontologias.
\emph{Trabalho de Conclusao de Curso, Escola Polit{\'e}cnica da Universidade de
  Sao Paulo, Sao Paulo, SP}, 2009.}

\bibitem[dogpile 2017]{dogpile:2017}
\abntrefinfo{dogpile}{DOGPILE}{2017}
{DOGPILE. 2017. \url{http://www.dogpile.com}.
Accessed: 2017-04-09.}

\bibitem[Duda, Hart e Stork 2000]{Duda:2000}
\abntrefinfo{Duda, Hart e Stork}{DUDA; HART; STORK}{2000}
{DUDA, R.~O.; HART, P.~E.; STORK, D.~G. \emph{Pattern Classification (2Nd
  Edition)}. [S.l.]: Wiley-Interscience, 2000.
ISBN 0471056693.}

\bibitem[Edgar e Willinsky 2010]{edgar2010survey}
\abntrefinfo{Edgar e Willinsky}{EDGAR; WILLINSKY}{2010}
{EDGAR, B.~D.; WILLINSKY, J. A survey of scholarly journals using open journal
  systems.
\emph{Scholarly and Research Communication}, v.~1, n.~2, 2010.}

\bibitem[Elishar et al. 2012]{elishar2012organizational}
\abntrefinfo{Elishar et al.}{ELISHAR et al.}{2012}
{ELISHAR, A. et al. Organizational intrusion: Organization mining using
  socialbots. In:  IEEE. \emph{Social Informatics (SocialInformatics), 2012
  International Conference on}. [S.l.], 2012. p. 7--12.}

\bibitem[excite 2017]{excite:2017}
\abntrefinfo{excite}{EXCITE}{2017}
{EXCITE. 2017. \url{http://www.excite.com}.
Accessed: 2017-04-09.}

\bibitem[Fern{\'a}ndez-Breis et al. 2012]{fernandez2012semantic}
\abntrefinfo{Fern{\'a}ndez-Breis et al.}{FERN{\'A}NDEZ-BREIS et al.}{2012}
{FERN{\'A}NDEZ-BREIS, J.~T. et al. A semantic platform for the management of
  the educative curriculum.
\emph{Expert Systems with Applications}, Elsevier, v.~39, n.~5, p. 6011--6019,
  2012.}

\bibitem[Ferraz, Quoniam e Maccari 2014]{ferraz2014use}
\abntrefinfo{Ferraz, Quoniam e Maccari}{FERRAZ; QUONIAM; MACCARI}{2014}
{FERRAZ, R. R.~N.; QUONIAM, L.~M.; MACCARI, E.~A. The use of scriptlattes tool
  for extraction and on line availability of academic production from a
  department of stricto sensu in management. In:  \emph{11th International
  Conference on Information Systems and Technology Management--CONTECSI}.
  [S.l.: s.n.], 2014. v.~17.}

\bibitem[Friedman, Hastie e Tibshirani 2001]{friedman}
\abntrefinfo{Friedman, Hastie e Tibshirani}{FRIEDMAN; HASTIE; TIBSHIRANI}{2001}
{FRIEDMAN, J.; HASTIE, T.; TIBSHIRANI, R. \emph{The elements of statistical
  learning}. [S.l.]: Springer series in statistics Springer, Berlin, 2001.
  v.~1.}

\bibitem[Giordano, Bruning e Bordin 2015]{giordano2015uso}
\abntrefinfo{Giordano, Bruning e Bordin}{GIORDANO; BRUNING; BORDIN}{2015}
{GIORDANO, D.~M.; BRUNING, E.; BORDIN, A.~S. Uso do scriptlattes e gephi na
  an{\'a}lise da colabora{\c{c}}{\~a}o cient{\'\i}fica.
\emph{Anais do Computer on the Beach}, p. 239--248, 2015.}

\bibitem[google 2017]{google:2017}
\abntrefinfo{google}{GOOGLE}{2017}
{GOOGLE. 2017. \url{https://www.google.com/intl/en/about/our-story/}.
Accessed: 2017-04-09.}

\bibitem[Horrocks et al. 2002]{horrocks2002daml+oil}
\abntrefinfo{Horrocks et al.}{HORROCKS et al.}{2002}
{HORROCKS, I. et al. Daml+oil: A description logic for the semantic web.
\emph{IEEE Data Eng. Bull.}, v.~25, n.~1, p.~4--9, 2002.}

\bibitem[Infoseek 2017]{Infoseek:2017}
\abntrefinfo{Infoseek}{INFOSEEK}{2017}
{INFOSEEK. 2017. \url{http://www.infoseek.co.jp}.
Accessed: 2017-04-09.}

\bibitem[Kadriu 2013]{kadriu2013discovering}
\abntrefinfo{Kadriu}{KADRIU}{2013}
{KADRIU, A. Discovering value in academic social networks: A case study in
  researchgate. In:  IEEE. \emph{Information Technology Interfaces (ITI),
  Proceedings of the ITI 2013 35th International Conference on}. [S.l.], 2013.
  p. 57--62.}

\bibitem[Kausar, Dhaka e Singh 2013]{kausar2013web}
\abntrefinfo{Kausar, Dhaka e Singh}{KAUSAR; DHAKA; SINGH}{2013}
{KAUSAR, M.~A.; DHAKA, V.; SINGH, S.~K. Web crawler: a review.
\emph{International Journal of Computer Applications}, Foundation of Computer
  Science, v.~63, n.~2, 2013.}

\bibitem[Lane 2010]{lane2010let}
\abntrefinfo{Lane}{LANE}{2010}
{LANE, J. Let's make science metrics more scientific.
\emph{Nature}, Nature Publishing Group, v.~464, n.~7288, p. 488--489, 2010.}

\bibitem[Lycos 2017]{Lycos:2017}
\abntrefinfo{Lycos}{LYCOS}{2017}
{LYCOS. 2017. \url{http://www.lycos.com}.
Accessed: 2017-04-09.}

\bibitem[Lynch 2003]{lynch2003institutional}
\abntrefinfo{Lynch}{LYNCH}{2003}
{LYNCH, C.~A. Institutional repositories: essential infrastructure for
  scholarship in the digital age.
\emph{portal: Libraries and the Academy}, The Johns Hopkins University Press,
  v.~3, n.~2, p. 327--336, 2003.}

\bibitem[Machado et al. 2016]{machado2016web}
\abntrefinfo{Machado et al.}{MACHADO et al.}{2016}
{MACHADO, C.~C. et al. Um web crawler para proje{\c{c}}{\~o}es e an{\'a}lise de
  vulnerabilidades de seguran{\c{c}}a e consist{\^e}ncia estrutural de
  p{\'a}ginas web.
\emph{Revista de Empreendedorismo, Inova{\c{c}}{\~a}o e Tecnologia}, v.~2,
  n.~2, p. 3--12, 2016.}

\bibitem[Mena-Chalco 2016]{statisticsScriptlattes:2016}
\abntrefinfo{Mena-Chalco}{MENA-CHALCO}{2016}
{MENA-CHALCO, J.~P. \emph{Statistics - Scriptlattes}. 2016.
  \url{http://scriptlattes.sourceforge.net/links.html}.
Accessed: 2016-11-21.}

\bibitem[Mena-Chalco, Digiampietri e Cesar-Jr 2012]{mena2012caracterizando}
\abntrefinfo{Mena-Chalco, Digiampietri e Cesar-Jr}{MENA-CHALCO; DIGIAMPIETRI;
  CESAR-JR}{2012}
{MENA-CHALCO, J.~P.; DIGIAMPIETRI, L.~A.; CESAR-JR, R.~M. Caracterizando as
  redes de coautoria de curr{\'\i}culos lattes. In:  \emph{Brazilian Workshop
  on Social Network Analysis and Mining (BraSNAM)}. [S.l.: s.n.], 2012. p.
  1--12.}

\bibitem[Mena-Chalco e JUNIOR 2013]{mena2013prospecccao}
\abntrefinfo{Mena-Chalco e JUNIOR}{MENA-CHALCO; JUNIOR}{2013}
{MENA-CHALCO, J.~P.; JUNIOR, C. Prospec{\c{c}}{\~a}o de dados acad{\^e}micos de
  curr{\'\i}culos lattes atrav{\'e}s de scriptlattes.
\emph{Bibliometria e Cientometria: reflex{\~o}es te{\'o}ricas e interfaces.
  S{\~a}o Carlos: Pedro \& Jo{\~a}o}, 2013.}

\bibitem[Mena-Chalco e Junior 2009]{Mena-Chalco2009}
\abntrefinfo{Mena-Chalco e Junior}{MENA-CHALCO; JUNIOR}{2009}
{MENA-CHALCO, J.~P.; JUNIOR, R. M.~C. {scriptLattes: an open-source knowledge
  extraction system from the Lattes platform}.
\emph{Journal of the Brazilian Computer Society}, v.~15, n.~4, p. 31--39, 2009.
ISSN 0104-6500.
Dispon{\'\i}vel em: \url{http://link.springer.com/10.1007/BF03194511}.}

\bibitem[Mena-Chalco;Junior 2017]{aboutPgScriptLattes:2016}
\abntrefinfo{Mena-Chalco;Junior}{MENA-CHALCO;JUNIOR}{2017}
{MENA-CHALCO;JUNIOR. \emph{scriptlattes}. 2017.
  \url{http://scriptlattes.sourceforge.net/}.
Accessed: 2017-05-07.}

\bibitem[Mirtaheri et al. 2013]{mirtaheri2013brief}
\abntrefinfo{Mirtaheri et al.}{MIRTAHERI et al.}{2013}
{MIRTAHERI, S.~M. et al. A brief history of web crawlers. In:  IBM CORP.
  \emph{Proceedings of the 2013 Conference of the Center for Advanced Studies
  on Collaborative Research}. [S.l.], 2013. p. 40--54.}

\bibitem[Newman 1992]{newman1992elements}
\abntrefinfo{Newman}{NEWMAN}{1992}
{NEWMAN, M. H.~A. \emph{Elements of the topology of plane sets of points}.
  [S.l.]: Dover Publications, 1992.}

\bibitem[NIGRO et al.]{nigroprestaccao}
\abntrefinfo{NIGRO et al.}{NIGRO et al.}{}
{NIGRO, C.~A. et al. Presta{\c{c}}{\~a}o de contas anual e quadrienal {\`a}
  capes por um programa de p{\'o}s-gradua{\c{c}}{\~a}o stricto sensu em
  engenharia de produ{\c{c}}{\~a}o: Utiliza{\c{c}}{\~a}o da ferramenta
  computacional scriptlattes-scriptsucupira.}

\bibitem[NIGRO et al. 2015]{nigro2015uso}
\abntrefinfo{NIGRO et al.}{NIGRO et al.}{2015}
{NIGRO, C.~A. et al. Uso da ferramenta computacional
  scriptlattes-scriptsucupira na presta{\c{c}}{\~a}o de contas anual e
  quadrienal a capes por um programa de p{\'o}s-gradua{\c{c}}{\~a}o stricto
  sensu em direito.
2015.}

\bibitem[O.A 1994]{genvlandwwww}
\abntrefinfo{O.A}{O.A}{1994}
{O.A, M. Genvl and wwww:toolsfortam- ing the web.
\emph{In Proceedings of the First Interna- tional World Wide Web Conference},
  p. pp. 79– 90, 1994.}

\bibitem[OLIVEIRA, BERMEJO e Kern 2004]{oliveira2004geralattes}
\abntrefinfo{OLIVEIRA, BERMEJO e Kern}{OLIVEIRA; BERMEJO; KERN}{2004}
{OLIVEIRA, E.; BERMEJO, P. d.~S.; KERN, V.~M. Geralattes: extra{\c{c}}{\~a}o de
  informa{\c{c}}{\~a}o gerencial de curr{\'\i}culos de pesquisadores usando
  xml. In:  \emph{Workshop de Computa{\c{c}}{\~a}o da Regi{\~a}o Sul
  (WorkCompSul 2004)}. [S.l.: s.n.], 2004. v.~1.}

\bibitem[Rocha, Kreutz e Turchetti 2012]{rocha2012ferramenta}
\abntrefinfo{Rocha, Kreutz e Turchetti}{ROCHA; KREUTZ; TURCHETTI}{2012}
{ROCHA, D.; KREUTZ, D.; TURCHETTI, R. Uma ferramenta livre e extens{\'\i}vel
  para detec{\c{c}}{\~a}o de vulnerabilidades em sistemas web.
\emph{Acesso em}, v.~21, 2012.}

\bibitem[Rodrigues et al. 2010]{rodrigues2010ferramenta}
\abntrefinfo{Rodrigues et al.}{RODRIGUES et al.}{2010}
{RODRIGUES, T.~G. et al. Uma ferramenta de suporte a recupera{\c{c}}{\~a}o de
  informa{\c{c}}{\~a}o na web focada em vulnerabilidades e anomalias internet.
\emph{X Simp{\'o}sio Brasileiro em Seguran{\c{c}}a da Informa{\c{c}}{\~a}o e de
  Sistemas Computacionais (SBSeg)}, p. 227--240, 2010.}

\bibitem[Santos 2014]{santos2014mineraccao}
\abntrefinfo{Santos}{SANTOS}{2014}
{SANTOS, F. L.~d. Minera{\c{c}}{\~a}o de opini{\~a}o em textos opinativos
  utilizando algoritmos de classifica{\c{c}}{\~a}o.
2014.}

\bibitem[Santos 2010]{santos2010prototipo}
\abntrefinfo{Santos}{SANTOS}{2010}
{SANTOS, L.~M. Prot{\'o}tipo para minera{\c{c}}{\~a}o de opini{\~a}o em redes
  sociais: estudo de casos selecionados usando o twitter.
2010.}

\bibitem[Shafranovich 2005]{shafranovich2005common}
\abntrefinfo{Shafranovich}{SHAFRANOVICH}{2005}
{SHAFRANOVICH, Y. Common format and mime type for comma-separated values (csv)
  files.
2005.}

\bibitem[SILVA 2007]{silva2007organizaccao}
\abntrefinfo{SILVA}{SILVA}{2007}
{SILVA, F.~M.
\emph{Organiza{\c{c}}{\~a}o da Informa{\c{c}}{\~a}o em sistemas eletr{\^o}nicos
  abertos de Informa{\c{c}}{\~a}o Cient{\'\i}fica \& Tecnol{\'o}gica:
  An{\'a}lise da Plataforma Lattes. 2007 163 f}.
Tese (Doutorado) --- Tese (Doutorado em Ci{\^e}ncia da
  Informa{\c{c}}{\~a}o)--Departamento de Biblioteconomia e
  Documenta{\c{c}}{\~a}o, Universidade de S{\~a}o Paulo, S{\~a}o Paulo, 2007.}

\end{thebibliography}
