\relax 
\providecommand\hyper@newdestlabel[2]{}
\citation{lane2010let}
\citation{kadriu2013discovering}
\citation{lynch2003institutional}
\citation{fernandez2012semantic}
\citation{burns2013institutional}
\citation{edgar2010survey}
\citation{bras2003organizaccao1}
\citation{Statistics:2016}
\citation{aboutPlataform:2016}
\citation{silva2007organizaccao}
\citation{bonifacio2002ontologias}
\citation{da2009semantic}
\citation{Mena-Chalco2009}
\citation{aboutPgScriptLattes:2016}
\citation{mena2013prospecccao}
\citation{fernandez2012semantic}
\citation{ferraz2014use}
\citation{nigro2015uso}
\@writefile{toc}{\contentsline {section}{\numberline {1}Introdu\IeC {\c c}\IeC {\~a}o}{6}{section.1}}
\@writefile{toc}{\contentsline {subsection}{\numberline {1.1}Contextualiza\IeC {\c c}\IeC {\~a}o do tema}{6}{subsection.1.1}}
\@writefile{brf}{\backcite{lane2010let}{{6}{1.1}{subsection.1.1}}}
\@writefile{brf}{\backcite{kadriu2013discovering}{{6}{1.1}{subsection.1.1}}}
\@writefile{brf}{\backcite{lynch2003institutional}{{6}{1.1}{subsection.1.1}}}
\@writefile{brf}{\backcite{fernandez2012semantic}{{6}{1.1}{subsection.1.1}}}
\@writefile{brf}{\backcite{burns2013institutional}{{6}{1.1}{subsection.1.1}}}
\@writefile{brf}{\backcite{edgar2010survey}{{6}{1.1}{subsection.1.1}}}
\@writefile{brf}{\backcite{bras2003organizaccao1}{{6}{1.1}{subsection.1.1}}}
\@writefile{brf}{\backcite{Statistics:2016}{{6}{1.1}{subsection.1.1}}}
\@writefile{brf}{\backcite{aboutPlataform:2016}{{6}{1.1}{subsection.1.1}}}
\citation{Mena-Chalco2009}
\citation{campos2006software}
\citation{mena2013bibliometria}
\citation{statisticsScriptlattes:2016}
\citation{Mena-Chalco2009}
\citation{menaredes}
\citation{martins2012influencia}
\@writefile{brf}{\backcite{silva2007organizaccao}{{7}{1.1}{subsection.1.1}}}
\@writefile{brf}{\backcite{bonifacio2002ontologias}{{7}{1.1}{subsection.1.1}}}
\@writefile{brf}{\backcite{da2009semantic}{{7}{1.1}{subsection.1.1}}}
\@writefile{brf}{\backcite{Mena-Chalco2009}{{7}{1.1}{subsection.1.1}}}
\@writefile{brf}{\backcite{aboutPgScriptLattes:2016,mena2013prospecccao,fernandez2012semantic,ferraz2014use,nigro2015uso}{{7}{1.1}{subsection.1.1}}}
\@writefile{brf}{\backcite{aboutPgScriptLattes:2016,mena2013prospecccao,fernandez2012semantic,ferraz2014use,nigro2015uso}{{7}{1.1}{subsection.1.1}}}
\@writefile{brf}{\backcite{aboutPgScriptLattes:2016,mena2013prospecccao,fernandez2012semantic,ferraz2014use,nigro2015uso}{{7}{1.1}{subsection.1.1}}}
\@writefile{brf}{\backcite{aboutPgScriptLattes:2016,mena2013prospecccao,fernandez2012semantic,ferraz2014use,nigro2015uso}{{7}{1.1}{subsection.1.1}}}
\@writefile{brf}{\backcite{aboutPgScriptLattes:2016,mena2013prospecccao,fernandez2012semantic,ferraz2014use,nigro2015uso}{{7}{1.1}{subsection.1.1}}}
\@writefile{brf}{\backcite{Mena-Chalco2009}{{7}{1.1}{subsection.1.1}}}
\@writefile{brf}{\backcite{campos2006software}{{7}{1.1}{subsection.1.1}}}
\@writefile{brf}{\backcite{mena2013bibliometria}{{7}{1.1}{subsection.1.1}}}
\@writefile{brf}{\backcite{statisticsScriptlattes:2016}{{7}{1.1}{subsection.1.1}}}
\@writefile{toc}{\contentsline {subsection}{\numberline {1.2}Identifica\IeC {\c c}\IeC {\~a}o de lacunas ou quest\IeC {\~o}es de pesquisa }{7}{subsection.1.2}}
\@writefile{brf}{\backcite{Mena-Chalco2009}{{7}{1.2}{subsection.1.2}}}
\citation{capes:2016}
\@writefile{lof}{\contentsline {figure}{\numberline {1}{\ignorespaces Utiliza\IeC {\c c}\IeC {\~a}o do Scritlattes por regi\IeC {\~a}o.}}{8}{figure.1}}
\newlabel{fig:scriptlattesNumeros}{{1}{8}{Utilização do Scritlattes por região}{figure.1}{}}
\@writefile{brf}{\backcite{menaredes, martins2012influencia}{{8}{1.2}{subsection.1.2}}}
\@writefile{brf}{\backcite{menaredes, martins2012influencia}{{8}{1.2}{subsection.1.2}}}
\@writefile{brf}{\backcite{capes:2016}{{8}{1.2}{subsection.1.2}}}
\@writefile{toc}{\contentsline {subsection}{\numberline {1.3}Delimita\IeC {\c c}\IeC {\~a}o do tema }{8}{subsection.1.3}}
\@setckpt{introduction}{
\setcounter{page}{10}
\setcounter{equation}{0}
\setcounter{enumi}{0}
\setcounter{enumii}{0}
\setcounter{enumiii}{0}
\setcounter{enumiv}{0}
\setcounter{footnote}{0}
\setcounter{mpfootnote}{0}
\setcounter{part}{0}
\setcounter{section}{1}
\setcounter{subsection}{3}
\setcounter{subsubsection}{0}
\setcounter{paragraph}{0}
\setcounter{subparagraph}{0}
\setcounter{figure}{1}
\setcounter{table}{0}
\setcounter{parentequation}{0}
\setcounter{Item}{0}
\setcounter{Hfootnote}{0}
\setcounter{bookmark@seq@number}{4}
\setcounter{ABCIaux}{0}
\setcounter{ABCImax}{0}
\setcounter{section@level}{2}
}
