\relax 
\providecommand\hyper@newdestlabel[2]{}
\catcode `"\active 
\providecommand\HyperFirstAtBeginDocument{\AtBeginDocument}
\HyperFirstAtBeginDocument{\ifx\hyper@anchor\@undefined
\global\let\oldcontentsline\contentsline
\gdef\contentsline#1#2#3#4{\oldcontentsline{#1}{#2}{#3}}
\global\let\oldnewlabel\newlabel
\gdef\newlabel#1#2{\newlabelxx{#1}#2}
\gdef\newlabelxx#1#2#3#4#5#6{\oldnewlabel{#1}{{#2}{#3}}}
\AtEndDocument{\ifx\hyper@anchor\@undefined
\let\contentsline\oldcontentsline
\let\newlabel\oldnewlabel
\fi}
\fi}
\global\let\hyper@last\relax 
\gdef\HyperFirstAtBeginDocument#1{#1}
\providecommand\HyField@AuxAddToFields[1]{}
\providecommand\HyField@AuxAddToCoFields[2]{}
\citation{abnt-url-package=url}
\select@language{brazil}
\@writefile{toc}{\select@language{brazil}}
\@writefile{lof}{\select@language{brazil}}
\@writefile{lot}{\select@language{brazil}}
\@input{abstract.aux}
\@input{introduction.aux}
\@input{problemDefinition.aux}
\@input{theoretical.aux}
\@input{methodology.aux}
\@input{results.aux}
\@input{schedule.aux}
\bibdata{abntex2-options,refs-bib}
\bibcite{bonifacio2002ontologias}{Bonifacio 2002}
\bibciteEXPL{bonifacio2002ontologias}{Bonifacio}
\bibciteIMPL{bonifacio2002ontologias}{BONIFACIO}
\bibciteYEAR{bonifacio2002ontologias}{2002}
\bibcite{bras2003organizaccao1}{Bras 2003}
\bibciteEXPL{bras2003organizaccao1}{Bras}
\bibciteIMPL{bras2003organizaccao1}{BRAS}
\bibciteYEAR{bras2003organizaccao1}{2003}
\bibcite{brualdi2012introductory}{Brualdi 2012}
\bibciteEXPL{brualdi2012introductory}{Brualdi}
\bibciteIMPL{brualdi2012introductory}{BRUALDI}
\bibciteYEAR{brualdi2012introductory}{2012}
\bibcite{burns2013institutional}{Burns, Lana e Budd 2013}
\bibciteEXPL{burns2013institutional}{Burns, Lana e Budd}
\bibciteIMPL{burns2013institutional}{BURNS; LANA; BUDD}
\bibciteYEAR{burns2013institutional}{2013}
\bibcite{campos2006software}{Campos 2006}
\bibciteEXPL{campos2006software}{Campos}
\bibciteIMPL{campos2006software}{CAMPOS}
\bibciteYEAR{campos2006software}{2006}
\bibcite{capes:2016}{CAPES 2016}
\bibciteEXPL{capes:2016}{CAPES}
\bibciteIMPL{capes:2016}{CAPES}
\bibciteYEAR{capes:2016}{2016}
\bibcite{aboutPlataform:2016}{CNPq 2016}
\bibciteEXPL{aboutPlataform:2016}{CNPq}
\bibciteIMPL{aboutPlataform:2016}{CNPQ}
\bibciteYEAR{aboutPlataform:2016}{2016a}
\bibcite{Statistics:2016}{CNPq 2016}
\bibciteEXPL{Statistics:2016}{CNPq}
\bibciteIMPL{Statistics:2016}{CNPQ}
\bibciteYEAR{Statistics:2016}{2016b}
\bibcite{da2009semantic}{Costa e Yamate 2009}
\bibciteEXPL{da2009semantic}{Costa e Yamate}
\bibciteIMPL{da2009semantic}{COSTA; YAMATE}
\bibciteYEAR{da2009semantic}{2009}
\bibcite{Duda:2000}{Duda, Hart e Stork 2000}
\bibciteEXPL{Duda:2000}{Duda, Hart e Stork}
\bibciteIMPL{Duda:2000}{DUDA; HART; STORK}
\bibciteYEAR{Duda:2000}{2000}
\bibcite{edgar2010survey}{Edgar e Willinsky 2010}
\bibciteEXPL{edgar2010survey}{Edgar e Willinsky}
\bibciteIMPL{edgar2010survey}{EDGAR; WILLINSKY}
\bibciteYEAR{edgar2010survey}{2010}
\bibcite{fernandez2012semantic}{Fern{\'a}ndez-Breis et al. 2012}
\bibciteEXPL{fernandez2012semantic}{Fern{\'a}ndez-Breis et al.}
\bibciteIMPL{fernandez2012semantic}{FERN{\'A}NDEZ-BREIS et al.}
\bibciteYEAR{fernandez2012semantic}{2012}
\bibcite{ferraz2014use}{Ferraz, Quoniam e Maccari 2014}
\bibciteEXPL{ferraz2014use}{Ferraz, Quoniam e Maccari}
\bibciteIMPL{ferraz2014use}{FERRAZ; QUONIAM; MACCARI}
\bibciteYEAR{ferraz2014use}{2014}
\bibcite{friedman}{Friedman, Hastie e Tibshirani 2001}
\bibciteEXPL{friedman}{Friedman, Hastie e Tibshirani}
\bibciteIMPL{friedman}{FRIEDMAN; HASTIE; TIBSHIRANI}
\bibciteYEAR{friedman}{2001}
\bibcite{giordano2015uso}{Giordano, Bruning e Bordin 2015}
\bibciteEXPL{giordano2015uso}{Giordano, Bruning e Bordin}
\bibciteIMPL{giordano2015uso}{GIORDANO; BRUNING; BORDIN}
\bibciteYEAR{giordano2015uso}{2015}
\bibcite{kadriu2013discovering}{Kadriu 2013}
\bibciteEXPL{kadriu2013discovering}{Kadriu}
\bibciteIMPL{kadriu2013discovering}{KADRIU}
\bibciteYEAR{kadriu2013discovering}{2013}
\@writefile{toc}{\contentsline {section}{REFER\IeC {\^E}NCIAS BIBLIOGR\IeC {\'A}FICAS}{28}{table.2}}
\bibcite{lane2010let}{Lane 2010}
\bibciteEXPL{lane2010let}{Lane}
\bibciteIMPL{lane2010let}{LANE}
\bibciteYEAR{lane2010let}{2010}
\bibcite{lynch2003institutional}{Lynch 2003}
\bibciteEXPL{lynch2003institutional}{Lynch}
\bibciteIMPL{lynch2003institutional}{LYNCH}
\bibciteYEAR{lynch2003institutional}{2003}
\bibcite{martins2012influencia}{Martins et al. 2012}
\bibciteEXPL{martins2012influencia}{Martins et al.}
\bibciteIMPL{martins2012influencia}{MARTINS et al.}
\bibciteYEAR{martins2012influencia}{2012}
\bibcite{mena2013bibliometria}{Mena-Chalco e Cesar-Jr 2013}
\bibciteEXPL{mena2013bibliometria}{Mena-Chalco e Cesar-Jr}
\bibciteIMPL{mena2013bibliometria}{MENA-CHALCO; CESAR-JR}
\bibciteYEAR{mena2013bibliometria}{2013}
\bibcite{statisticsScriptlattes:2016}{Mena-Chalco 2016}
\bibciteEXPL{statisticsScriptlattes:2016}{Mena-Chalco}
\bibciteIMPL{statisticsScriptlattes:2016}{MENA-CHALCO}
\bibciteYEAR{statisticsScriptlattes:2016}{2016}
\bibcite{menaredes}{Mena-Chalco, Dalpian e Capelle}
\bibciteEXPL{menaredes}{Mena-Chalco, Dalpian e Capelle}
\bibciteIMPL{menaredes}{MENA-CHALCO; DALPIAN; CAPELLE}
\bibciteYEAR{menaredes}{}
\bibcite{mena2013prospecccao}{Mena-Chalco e JUNIOR 2013}
\bibciteEXPL{mena2013prospecccao}{Mena-Chalco e JUNIOR}
\bibciteIMPL{mena2013prospecccao}{MENA-CHALCO; JUNIOR}
\bibciteYEAR{mena2013prospecccao}{2013}
\bibcite{Mena-Chalco2009}{Mena-Chalco e Junior 2009}
\bibciteEXPL{Mena-Chalco2009}{Mena-Chalco e Junior}
\bibciteIMPL{Mena-Chalco2009}{MENA-CHALCO; JUNIOR}
\bibciteYEAR{Mena-Chalco2009}{2009}
\bibcite{aboutPgScriptLattes:2016}{Mena-Chalco;Junior 2016}
\bibciteEXPL{aboutPgScriptLattes:2016}{Mena-Chalco;Junior}
\bibciteIMPL{aboutPgScriptLattes:2016}{MENA-CHALCO;JUNIOR}
\bibciteYEAR{aboutPgScriptLattes:2016}{2016}
\bibcite{morabito2012modelagem}{Neto e Pureza 2012}
\bibciteEXPL{morabito2012modelagem}{Neto e Pureza}
\bibciteIMPL{morabito2012modelagem}{NETO; PUREZA}
\bibciteYEAR{morabito2012modelagem}{2012}
\bibcite{newman1992elements}{Newman 1992}
\bibciteEXPL{newman1992elements}{Newman}
\bibciteIMPL{newman1992elements}{NEWMAN}
\bibciteYEAR{newman1992elements}{1992}
\bibcite{nigroprestaccao}{NIGRO et al.}
\bibciteEXPL{nigroprestaccao}{NIGRO et al.}
\bibciteIMPL{nigroprestaccao}{NIGRO et al.}
\bibciteYEAR{nigroprestaccao}{}
\bibcite{nigro2015uso}{NIGRO et al. 2015}
\bibciteEXPL{nigro2015uso}{NIGRO et al.}
\bibciteIMPL{nigro2015uso}{NIGRO et al.}
\bibciteYEAR{nigro2015uso}{2015}
\bibcite{silva2007organizaccao}{SILVA 2007}
\bibciteEXPL{silva2007organizaccao}{SILVA}
\bibciteIMPL{silva2007organizaccao}{SILVA}
\bibciteYEAR{silva2007organizaccao}{2007}
\bibstyle{abntex2-alf}
