\relax 
\providecommand\hyper@newdestlabel[2]{}
\citation{morabito2012modelagem}
\citation{lane2010let}
\@writefile{toc}{\contentsline {section}{\numberline {4}M\IeC {\'e}todos e instrumentos previstos}{20}{section.4}}
\@writefile{toc}{\contentsline {subsection}{\numberline {4.1}Escolha e justificativa da tipologia da pesquisa (natureza, abordagem , objetivo e m\IeC {\'e}todo de pesquisa)}{20}{subsection.4.1}}
\@writefile{brf}{\backcite{morabito2012modelagem}{{20}{4.1}{subsection.4.1}}}
\@writefile{toc}{\contentsline {subsection}{\numberline {4.2}Universo, amostragem, amostra}{20}{subsection.4.2}}
\@writefile{brf}{\backcite{lane2010let}{{20}{4.2}{subsection.4.2}}}
\@writefile{toc}{\contentsline {subsection}{\numberline {4.3}T\IeC {\'e}cnicas de coleta e tratamento de dados previstas}{20}{subsection.4.3}}
\@writefile{lof}{\contentsline {figure}{\numberline {4}{\ignorespaces Quantidade de curr\IeC {\'\i }culos cadastrados, por n\IeC {\'\i }vel de forma\IeC {\c c}\IeC {\~a}o}}{21}{figure.4}}
\newlabel{fig:quantidadeDeCurriculosPorNiveis}{{4}{21}{Quantidade de currículos cadastrados, por nível de formação}{figure.4}{}}
\@writefile{toc}{\contentsline {subsection}{\numberline {4.4}Limita\IeC {\c c}\IeC {\~o}es da pesquisa}{21}{subsection.4.4}}
\@writefile{toc}{\contentsline {subsection}{\numberline {4.5}Modelo te\IeC {\'o}rico-emp\IeC {\'\i }rico previsto (constructo te\IeC {\'o}rico-aplicado previsto)}{21}{subsection.4.5}}
\@writefile{lof}{\contentsline {figure}{\numberline {5}{\ignorespaces Quantidade estudantes }}{22}{figure.5}}
\newlabel{fig:quantidadeEstudantes}{{5}{22}{Quantidade estudantes}{figure.5}{}}
\@writefile{lof}{\contentsline {figure}{\numberline {6}{\ignorespaces Agrupamento hier\IeC {\'a}rquico dos dados e extra\IeC {\c c}\IeC {\~a}o utilizando o Scriptlattes}}{23}{figure.6}}
\newlabel{fig:agrupamentoHierarquico}{{6}{23}{Agrupamento hierárquico dos dados e extração utilizando o Scriptlattes}{figure.6}{}}
\@writefile{lof}{\contentsline {figure}{\numberline {7}{\ignorespaces Compara\IeC {\c c}\IeC {\~a}o dos dados pelos indicadores CAPES }}{23}{figure.7}}
\newlabel{fig:conparacao}{{7}{23}{Comparação dos dados pelos indicadores CAPES}{figure.7}{}}
\@writefile{lof}{\contentsline {figure}{\numberline {8}{\ignorespaces Predi\IeC {\c c}\IeC {\~a}o dos programas de p\IeC {\'o}s gradua\IeC {\c c}\IeC {\~a}o utilizando redes neurais artificiais }}{24}{figure.8}}
\newlabel{fig:redesNeurais}{{8}{24}{Predição dos programas de pós graduação utilizando redes neurais artificiais}{figure.8}{}}
\@setckpt{methodology}{
\setcounter{page}{25}
\setcounter{equation}{9}
\setcounter{enumi}{3}
\setcounter{enumii}{0}
\setcounter{enumiii}{0}
\setcounter{enumiv}{0}
\setcounter{footnote}{0}
\setcounter{mpfootnote}{0}
\setcounter{part}{0}
\setcounter{section}{4}
\setcounter{subsection}{5}
\setcounter{subsubsection}{0}
\setcounter{paragraph}{0}
\setcounter{subparagraph}{0}
\setcounter{figure}{8}
\setcounter{table}{1}
\setcounter{parentequation}{0}
\setcounter{Item}{6}
\setcounter{Hfootnote}{0}
\setcounter{bookmark@seq@number}{24}
\setcounter{ABCIaux}{0}
\setcounter{ABCImax}{0}
\setcounter{section@level}{2}
}
