\relax 
\providecommand\hyper@newdestlabel[2]{}
\@writefile{toc}{\contentsline {section}{\numberline {2}Problema de pesquisa}{10}{section.2}}
\@writefile{toc}{\contentsline {subsection}{\numberline {2.1}Situa\IeC {\c c}\IeC {\~a}o problema (conceitos centrais estudados e o problema de pesquisa)}{10}{subsection.2.1}}
\@writefile{toc}{\contentsline {subsection}{\numberline {2.2}Proposi\IeC {\c c}\IeC {\~o}es / hip\IeC {\'o}teses de resolu\IeC {\c c}\IeC {\~a}o do problema}{10}{subsection.2.2}}
\@writefile{toc}{\contentsline {subsection}{\numberline {2.3}Objetivos geral e espec\IeC {\'\i }ficos}{11}{subsection.2.3}}
\@writefile{toc}{\contentsline {subsubsection}{\numberline {2.3.1}Objetivo geral}{11}{subsubsection.2.3.1}}
\@writefile{toc}{\contentsline {subsubsection}{\numberline {2.3.2}Objetivos espec\IeC {\'\i }ficos}{11}{subsubsection.2.3.2}}
\@writefile{toc}{\contentsline {subsection}{\numberline {2.4}Justificativa da pesquisa (relev\IeC {\^a}ncia, import\IeC {\^a}ncia e atualidade)}{11}{subsection.2.4}}
\citation{brualdi2012introductory}
\citation{newman1992elements}
\@writefile{toc}{\contentsline {subsection}{\numberline {2.5}Modelo te\IeC {\'o}rico (constructo te\IeC {\'o}rico previsto)}{12}{subsection.2.5}}
\@writefile{toc}{\contentsline {subsubsection}{\numberline {2.5.1}Agrupamento Hier\IeC {\'a}rquico dos dados}{12}{subsubsection.2.5.1}}
\@writefile{brf}{\backcite{brualdi2012introductory,newman1992elements}{{12}{2.5.1}{equation.2.4}}}
\citation{Duda:2000}
\citation{friedman}
\@writefile{brf}{\backcite{brualdi2012introductory,newman1992elements}{{13}{2.5.1}{equation.2.4}}}
\@writefile{lof}{\contentsline {figure}{\numberline {2}{\ignorespaces Exemplo: ramifica\IeC {\c c}\IeC {\~o}es de um diagrama Hasse $(\mathcal  {T}, \preceq )$.}}{13}{figure.2}}
\newlabel{fig:hasse}{{2}{13}{Exemplo: ramificações de um diagrama Hasse $(\mathcal {T}, \preceq )$}{figure.2}{}}
\@writefile{brf}{\backcite{Duda:2000,friedman}{{13}{2.5.1}{figure.2}}}
\@writefile{brf}{\backcite{Duda:2000,friedman}{{13}{2.5.1}{figure.2}}}
\citation{Duda:2000}
\citation{friedman}
\@writefile{brf}{\backcite{Duda:2000,friedman}{{14}{2.5.1}{figure.2}}}
\@writefile{brf}{\backcite{Duda:2000,friedman}{{14}{2.5.1}{figure.2}}}
\newlabel{sec:proposedMethod}{{2.5.1}{15}{Agrupamento Hierárquico dos dados}{equation.2.7}{}}
\@writefile{lot}{\contentsline {table}{\numberline {1}{\ignorespaces Estrutura do conjunto de dados}}{15}{table.1}}
\newlabel{tab:dataset}{{1}{15}{Estrutura do conjunto de dados}{table.1}{}}
\@writefile{lof}{\contentsline {figure}{\numberline {3}{\ignorespaces Dendrograma do Agrupamento Hier\IeC {\'a}rquico}}{16}{figure.3}}
\newlabel{fig:dendrogram}{{3}{16}{Dendrograma do Agrupamento Hierárquico}{figure.3}{}}
\@writefile{toc}{\contentsline {subsubsection}{\numberline {2.5.2}Compara\IeC {\c c}\IeC {\~a}o e Predi\IeC {\c c}\IeC {\~a}o}{16}{subsubsection.2.5.2}}
\@writefile{toc}{\contentsline {subsection}{\numberline {2.6}Delimita\IeC {\c c}\IeC {\~a}o da pesquisa}{16}{subsection.2.6}}
\@setckpt{problemDefinition}{
\setcounter{page}{17}
\setcounter{equation}{9}
\setcounter{enumi}{3}
\setcounter{enumii}{0}
\setcounter{enumiii}{0}
\setcounter{enumiv}{0}
\setcounter{footnote}{0}
\setcounter{mpfootnote}{0}
\setcounter{part}{0}
\setcounter{section}{2}
\setcounter{subsection}{6}
\setcounter{subsubsection}{0}
\setcounter{paragraph}{0}
\setcounter{subparagraph}{0}
\setcounter{figure}{3}
\setcounter{table}{1}
\setcounter{parentequation}{0}
\setcounter{Item}{6}
\setcounter{Hfootnote}{0}
\setcounter{bookmark@seq@number}{15}
\setcounter{ABCIaux}{0}
\setcounter{ABCImax}{0}
\setcounter{section@level}{2}
}
