\relax 
\providecommand\hyper@newdestlabel[2]{}
\@writefile{toc}{\contentsline {section}{\numberline {5}Apresenta\IeC {\c c}\IeC {\~a}o, an\IeC {\'a}lise e discuss\IeC {\~a}o dos resultados}{25}{section.5}}
\@writefile{toc}{\contentsline {subsection}{\numberline {5.1}Resultados preliminares}{25}{subsection.5.1}}
\@setckpt{results}{
\setcounter{page}{26}
\setcounter{equation}{9}
\setcounter{enumi}{3}
\setcounter{enumii}{0}
\setcounter{enumiii}{0}
\setcounter{enumiv}{0}
\setcounter{footnote}{0}
\setcounter{mpfootnote}{0}
\setcounter{part}{0}
\setcounter{section}{5}
\setcounter{subsection}{1}
\setcounter{subsubsection}{0}
\setcounter{paragraph}{0}
\setcounter{subparagraph}{0}
\setcounter{figure}{8}
\setcounter{table}{1}
\setcounter{parentequation}{0}
\setcounter{Item}{6}
\setcounter{Hfootnote}{0}
\setcounter{bookmark@seq@number}{26}
\setcounter{ABCIaux}{0}
\setcounter{ABCImax}{0}
\setcounter{section@level}{2}
}
