\relax 
\providecommand\hyper@newdestlabel[2]{}
\@writefile{toc}{\contentsline {section}{\numberline {6}CRONOGRAMA}{26}{section.6}}
\@writefile{lot}{\contentsline {table}{\numberline {2}{\ignorespaces Cronograma}}{27}{table.2}}
\@setckpt{schedule}{
\setcounter{page}{28}
\setcounter{equation}{9}
\setcounter{enumi}{4}
\setcounter{enumii}{0}
\setcounter{enumiii}{0}
\setcounter{enumiv}{0}
\setcounter{footnote}{0}
\setcounter{mpfootnote}{0}
\setcounter{part}{0}
\setcounter{section}{6}
\setcounter{subsection}{0}
\setcounter{subsubsection}{0}
\setcounter{paragraph}{0}
\setcounter{subparagraph}{0}
\setcounter{figure}{8}
\setcounter{table}{2}
\setcounter{parentequation}{0}
\setcounter{Item}{10}
\setcounter{Hfootnote}{0}
\setcounter{bookmark@seq@number}{27}
\setcounter{ABCIaux}{0}
\setcounter{ABCImax}{0}
\setcounter{section@level}{1}
}
