\relax 
\providecommand\hyper@newdestlabel[2]{}
\citation{Mena-Chalco2009}
\citation{fernandez2012semantic}
\@writefile{toc}{\contentsline {section}{\numberline {3}Plataforma te\IeC {\'o}rica prevista}{17}{section.3}}
\@writefile{toc}{\contentsline {subsection}{\numberline {3.1}Principais t\IeC {\'o}picos a serem desenvolvidos}{17}{subsection.3.1}}
\@writefile{toc}{\contentsline {subsection}{\numberline {3.2}Principais autores (seminais, estado da arte e autor-base de cada t\IeC {\'o}pico)}{17}{subsection.3.2}}
\@writefile{brf}{\backcite{Mena-Chalco2009}{{17}{3.2}{subsection.3.2}}}
\@writefile{brf}{\backcite{fernandez2012semantic}{{17}{3.2}{subsection.3.2}}}
\citation{ferraz2014use}
\citation{giordano2015uso}
\citation{nigro2015uso}
\citation{nigroprestaccao}
\@writefile{brf}{\backcite{ferraz2014use}{{18}{3.2}{subsection.3.2}}}
\@writefile{brf}{\backcite{giordano2015uso}{{18}{3.2}{subsection.3.2}}}
\@writefile{brf}{\backcite{nigro2015uso}{{18}{3.2}{subsection.3.2}}}
\@writefile{brf}{\backcite{nigroprestaccao}{{18}{3.2}{subsection.3.2}}}
\citation{mena2013prospecccao}
\@writefile{brf}{\backcite{mena2013prospecccao}{{19}{3.2}{subsection.3.2}}}
\@setckpt{theoretical}{
\setcounter{page}{20}
\setcounter{equation}{9}
\setcounter{enumi}{3}
\setcounter{enumii}{0}
\setcounter{enumiii}{0}
\setcounter{enumiv}{0}
\setcounter{footnote}{0}
\setcounter{mpfootnote}{0}
\setcounter{part}{0}
\setcounter{section}{3}
\setcounter{subsection}{2}
\setcounter{subsubsection}{0}
\setcounter{paragraph}{0}
\setcounter{subparagraph}{0}
\setcounter{figure}{3}
\setcounter{table}{1}
\setcounter{parentequation}{0}
\setcounter{Item}{6}
\setcounter{Hfootnote}{0}
\setcounter{bookmark@seq@number}{18}
\setcounter{ABCIaux}{0}
\setcounter{ABCImax}{0}
\setcounter{section@level}{2}
}
