\relax 
\providecommand\hyper@newdestlabel[2]{}
\citation{kadriu2013discovering}
\citation{lynch2003institutional}
\citation{fernandez2012semantic}
\citation{burns2013institutional}
\citation{edgar2010survey}
\citation{aboutPlataform:2016}
\citation{silva2007organizaccao}
\citation{bonifacio2002ontologias}
\citation{da2009semantic}
\citation{Mena-Chalco2009}
\citation{aboutPgScriptLattes:2016}
\citation{mena2013prospecccao}
\citation{fernandez2012semantic}
\citation{ferraz2014use}
\citation{nigro2015uso}
\@writefile{toc}{\contentsline {section}{\numberline {1}INTRODU\IeC {\c C}\IeC {\~A}O}{5}{section.1}}
\@writefile{toc}{\contentsline {subsection}{\numberline {1.1}Plataforma Lattes}{5}{subsection.1.1}}
\@writefile{brf}{\backcite{kadriu2013discovering}{{5}{1.1}{subsection.1.1}}}
\@writefile{brf}{\backcite{lynch2003institutional}{{5}{1.1}{subsection.1.1}}}
\@writefile{brf}{\backcite{fernandez2012semantic}{{5}{1.1}{subsection.1.1}}}
\@writefile{brf}{\backcite{burns2013institutional,edgar2010survey}{{5}{1.1}{subsection.1.1}}}
\@writefile{brf}{\backcite{burns2013institutional,edgar2010survey}{{5}{1.1}{subsection.1.1}}}
\@writefile{brf}{\backcite{aboutPlataform:2016}{{5}{1.1}{subsection.1.1}}}
\citation{Mena-Chalco2009}
\citation{(campos2006software)}
\citation{mena2013bibliometria}
\citation{Mena-Chalco2009}
\citation{fernandez2012semantic}
\@writefile{brf}{\backcite{silva2007organizaccao}{{6}{1.1}{subsection.1.1}}}
\@writefile{brf}{\backcite{bonifacio2002ontologias}{{6}{1.1}{subsection.1.1}}}
\@writefile{brf}{\backcite{da2009semantic}{{6}{1.1}{subsection.1.1}}}
\@writefile{brf}{\backcite{Mena-Chalco2009}{{6}{1.1}{subsection.1.1}}}
\@writefile{brf}{\backcite{aboutPgScriptLattes:2016,mena2013prospecccao,fernandez2012semantic,ferraz2014use,nigro2015uso}{{6}{1.1}{subsection.1.1}}}
\@writefile{brf}{\backcite{aboutPgScriptLattes:2016,mena2013prospecccao,fernandez2012semantic,ferraz2014use,nigro2015uso}{{6}{1.1}{subsection.1.1}}}
\@writefile{brf}{\backcite{aboutPgScriptLattes:2016,mena2013prospecccao,fernandez2012semantic,ferraz2014use,nigro2015uso}{{6}{1.1}{subsection.1.1}}}
\@writefile{brf}{\backcite{aboutPgScriptLattes:2016,mena2013prospecccao,fernandez2012semantic,ferraz2014use,nigro2015uso}{{6}{1.1}{subsection.1.1}}}
\@writefile{brf}{\backcite{aboutPgScriptLattes:2016,mena2013prospecccao,fernandez2012semantic,ferraz2014use,nigro2015uso}{{6}{1.1}{subsection.1.1}}}
\@writefile{toc}{\contentsline {subsection}{\numberline {1.2}Extra\IeC {\c c}\IeC {\~a}o de informa\IeC {\c c}\IeC {\~o}es utilizando a ferramenta ScriptLattes}{6}{subsection.1.2}}
\@writefile{brf}{\backcite{Mena-Chalco2009}{{6}{1.2}{subsection.1.2}}}
\@writefile{brf}{\backcite{(campos2006software)}{{6}{1.2}{subsection.1.2}}}
\@writefile{brf}{\backcite{mena2013bibliometria}{{6}{1.2}{subsection.1.2}}}
\@writefile{brf}{\backcite{Mena-Chalco2009}{{6}{1.2}{subsection.1.2}}}
\citation{ferraz2014use}
\citation{giordano2015uso}
\citation{nigro2015uso}
\@writefile{brf}{\backcite{fernandez2012semantic}{{7}{1.2}{subsection.1.2}}}
\@writefile{brf}{\backcite{ferraz2014use}{{7}{1.2}{subsection.1.2}}}
\@writefile{brf}{\backcite{giordano2015uso}{{7}{1.2}{subsection.1.2}}}
\@writefile{brf}{\backcite{nigro2015uso}{{7}{1.2}{subsection.1.2}}}
\citation{mena2013prospecccao}
\@writefile{brf}{\backcite{mena2013prospecccao}{{8}{1.2}{subsection.1.2}}}
\@setckpt{introduction}{
\setcounter{page}{9}
\setcounter{equation}{0}
\setcounter{enumi}{0}
\setcounter{enumii}{0}
\setcounter{enumiii}{0}
\setcounter{enumiv}{0}
\setcounter{footnote}{0}
\setcounter{mpfootnote}{0}
\setcounter{part}{0}
\setcounter{section}{1}
\setcounter{subsection}{2}
\setcounter{subsubsection}{0}
\setcounter{paragraph}{0}
\setcounter{subparagraph}{0}
\setcounter{figure}{0}
\setcounter{table}{0}
\setcounter{parentequation}{0}
\setcounter{Item}{0}
\setcounter{Hfootnote}{0}
\setcounter{bookmark@seq@number}{3}
\setcounter{ABCIaux}{0}
\setcounter{ABCImax}{0}
\setcounter{section@level}{2}
}
