\relax 
\providecommand\hyper@newdestlabel[2]{}
\citation{morabito2012modelagem}
\citation{chung2003simulation}
\citation{robinson2008conceptual}
\citation{sargent2013verification}
\@writefile{toc}{\contentsline {section}{\numberline {3}METODOLOGIA E PROCEDIMENTOS DE PESQUISA}{12}{section.3}}
\@writefile{toc}{\contentsline {subsection}{\numberline {3.1}Escolha do m\IeC {\'e}todo a ser utilizado}{12}{subsection.3.1}}
\@writefile{brf}{\backcite{morabito2012modelagem}{{12}{3.1}{subsection.3.1}}}
\@writefile{brf}{\backcite{chung2003simulation}{{12}{3.1}{subsection.3.1}}}
\@writefile{brf}{\backcite{robinson2008conceptual}{{12}{3.1}{subsection.3.1}}}
\@writefile{brf}{\backcite{sargent2013verification}{{12}{3.1}{subsection.3.1}}}
\citation{morabito2012modelagem}
\@writefile{toc}{\contentsline {subsection}{\numberline {3.2}Constru\IeC {\c c}\IeC {\~a}o do modelo matem\IeC {\'a}tico}{13}{subsection.3.2}}
\@writefile{brf}{\backcite{morabito2012modelagem}{{13}{3.2}{subsection.3.2}}}
\citation{brualdi2012introductory}
\citation{newman1992elements}
\citation{Duda:2000}
\citation{friedman}
\@writefile{brf}{\backcite{brualdi2012introductory,newman1992elements}{{14}{3.2}{equation.3.4}}}
\@writefile{brf}{\backcite{brualdi2012introductory,newman1992elements}{{14}{3.2}{equation.3.4}}}
\@writefile{brf}{\backcite{Duda:2000,friedman}{{14}{3.2}{figure.1}}}
\citation{Duda:2000}
\citation{friedman}
\@writefile{lof}{\contentsline {figure}{\numberline {1}{\ignorespaces Exemplo: ramifica\IeC {\c c}\IeC {\~o}es de um diagrama Hasse. $(\mathcal  {T}, \preceq )$.}}{15}{figure.1}}
\newlabel{fig:hasse}{{1}{15}{Exemplo: ramificações de um diagrama Hasse. $(\mathcal {T}, \preceq )$}{figure.1}{}}
\@writefile{brf}{\backcite{Duda:2000,friedman}{{15}{3.2}{figure.1}}}
\@writefile{brf}{\backcite{Duda:2000,friedman}{{15}{3.2}{figure.1}}}
\@writefile{brf}{\backcite{Duda:2000,friedman}{{15}{3.2}{figure.1}}}
\newlabel{sec:proposedMethod}{{3.2}{16}{Construção do modelo matemático}{equation.3.7}{}}
\@writefile{lot}{\contentsline {table}{\numberline {1}{\ignorespaces Estrutura do conjunto de dados}}{17}{table.1}}
\newlabel{tab:dataset}{{1}{17}{Estrutura do conjunto de dados}{table.1}{}}
\@writefile{toc}{\contentsline {subsection}{\numberline {3.3}Conclus\IeC {\~o}es, limita\IeC {\c c}\IeC {\~o}es e estudos futuros}{17}{subsection.3.3}}
\@setckpt{methodology}{
\setcounter{page}{18}
\setcounter{equation}{8}
\setcounter{enumi}{3}
\setcounter{enumii}{0}
\setcounter{enumiii}{0}
\setcounter{enumiv}{0}
\setcounter{footnote}{0}
\setcounter{mpfootnote}{0}
\setcounter{part}{0}
\setcounter{section}{3}
\setcounter{subsection}{3}
\setcounter{subsubsection}{0}
\setcounter{paragraph}{0}
\setcounter{subparagraph}{0}
\setcounter{figure}{1}
\setcounter{table}{1}
\setcounter{parentequation}{0}
\setcounter{Item}{3}
\setcounter{Hfootnote}{0}
\setcounter{bookmark@seq@number}{12}
\setcounter{ABCIaux}{0}
\setcounter{ABCImax}{0}
\setcounter{section@level}{2}
}
