\relax 
\providecommand\hyper@newdestlabel[2]{}
\@writefile{toc}{\contentsline {section}{\numberline {2}FORMULA\IeC {\c C}\IeC {\~A}O DO PROBLEMA}{9}{section.2}}
\@writefile{toc}{\contentsline {subsection}{\numberline {2.1}Formula\IeC {\c c}\IeC {\~a}o do Problema}{9}{subsection.2.1}}
\citation{monard2003conceitos}
\citation{Duda:2000}
\citation{friedman}
\citation{aboutPgScriptLattes:2016}
\@writefile{toc}{\contentsline {subsection}{\numberline {2.2}Objetivos}{10}{subsection.2.2}}
\@writefile{brf}{\backcite{monard2003conceitos}{{10}{2.2}{subsection.2.2}}}
\@writefile{brf}{\backcite{Duda:2000,friedman}{{10}{2.2}{subsection.2.2}}}
\@writefile{brf}{\backcite{Duda:2000,friedman}{{10}{2.2}{subsection.2.2}}}
\citation{Statistics:2016}
\@writefile{toc}{\contentsline {subsection}{\numberline {2.3}Delimita\IeC {\c c}\IeC {\~a}o do estudo}{11}{subsection.2.3}}
\@writefile{brf}{\backcite{aboutPgScriptLattes:2016}{{11}{2.3}{subsection.2.3}}}
\@writefile{toc}{\contentsline {subsection}{\numberline {2.4}Justificativas e contribui\IeC {\c c}\IeC {\~o}es da pesquisa}{11}{subsection.2.4}}
\@writefile{brf}{\backcite{Statistics:2016}{{11}{2.4}{subsection.2.4}}}
\@setckpt{problemDefinition}{
\setcounter{page}{12}
\setcounter{equation}{0}
\setcounter{enumi}{0}
\setcounter{enumii}{0}
\setcounter{enumiii}{0}
\setcounter{enumiv}{0}
\setcounter{footnote}{0}
\setcounter{mpfootnote}{0}
\setcounter{part}{0}
\setcounter{section}{2}
\setcounter{subsection}{4}
\setcounter{subsubsection}{0}
\setcounter{paragraph}{0}
\setcounter{subparagraph}{0}
\setcounter{figure}{0}
\setcounter{table}{0}
\setcounter{parentequation}{0}
\setcounter{Item}{0}
\setcounter{Hfootnote}{0}
\setcounter{bookmark@seq@number}{8}
\setcounter{ABCIaux}{0}
\setcounter{ABCImax}{0}
\setcounter{section@level}{2}
}
