\relax 
\providecommand\hyper@newdestlabel[2]{}
\@writefile{toc}{\contentsline {section}{\numberline {4}CRONOGRAMA}{18}{section.4}}
\@writefile{lot}{\contentsline {table}{\numberline {2}{\ignorespaces Atividades previstas}}{18}{table.2}}
\@writefile{lot}{\contentsline {table}{\numberline {3}{\ignorespaces Cronograma}}{19}{table.3}}
\@setckpt{schedule}{
\setcounter{page}{20}
\setcounter{equation}{8}
\setcounter{enumi}{3}
\setcounter{enumii}{0}
\setcounter{enumiii}{0}
\setcounter{enumiv}{0}
\setcounter{footnote}{0}
\setcounter{mpfootnote}{0}
\setcounter{part}{0}
\setcounter{section}{4}
\setcounter{subsection}{0}
\setcounter{subsubsection}{0}
\setcounter{paragraph}{0}
\setcounter{subparagraph}{0}
\setcounter{figure}{1}
\setcounter{table}{3}
\setcounter{parentequation}{0}
\setcounter{Item}{3}
\setcounter{Hfootnote}{0}
\setcounter{bookmark@seq@number}{13}
\setcounter{ABCIaux}{0}
\setcounter{ABCImax}{0}
\setcounter{section@level}{1}
}
