\relax 
\providecommand\hyper@newdestlabel[2]{}
\catcode `"\active 
\providecommand\HyperFirstAtBeginDocument{\AtBeginDocument}
\HyperFirstAtBeginDocument{\ifx\hyper@anchor\@undefined
\global\let\oldcontentsline\contentsline
\gdef\contentsline#1#2#3#4{\oldcontentsline{#1}{#2}{#3}}
\global\let\oldnewlabel\newlabel
\gdef\newlabel#1#2{\newlabelxx{#1}#2}
\gdef\newlabelxx#1#2#3#4#5#6{\oldnewlabel{#1}{{#2}{#3}}}
\AtEndDocument{\ifx\hyper@anchor\@undefined
\let\contentsline\oldcontentsline
\let\newlabel\oldnewlabel
\fi}
\fi}
\global\let\hyper@last\relax 
\gdef\HyperFirstAtBeginDocument#1{#1}
\providecommand\HyField@AuxAddToFields[1]{}
\providecommand\HyField@AuxAddToCoFields[2]{}
\citation{abnt-url-package=url}
\select@language{brazil}
\@writefile{toc}{\select@language{brazil}}
\@writefile{lof}{\select@language{brazil}}
\@writefile{lot}{\select@language{brazil}}
\@writefile{toc}{\contentsline {chapter}{Lista de Figuras}{6}{chapter*.4}}
\citation{alves:article:2017}
\citation{seymor:book:1971}
\citation{seymor:book:1971}
\@writefile{toc}{\contentsline {chapter}{\numberline {1}Exemplo de cap\IeC {\'\i }tulo}{8}{chapter.1}}
\@writefile{lof}{\addvspace {10\p@ }}
\@writefile{lot}{\addvspace {10\p@ }}
\@writefile{toc}{\contentsline {section}{\numberline {1.1}Exemplo de se\IeC {\c c}\IeC {\~a}o}{8}{section.1.1}}
\@writefile{toc}{\contentsline {subsection}{\numberline {1.1.1}Exemplo de subse\IeC {\c c}\IeC {\~a}o}{8}{subsection.1.1.1}}
\@writefile{toc}{\contentsline {subsubsection}{\numberline {1.1.1.1}Exemplo de subsubse\IeC {\c c}\IeC {\~a}o}{8}{subsubsection.1.1.1.1}}
\bibdata{abntex2-options,refs}
\@writefile{lof}{\contentsline {figure}{\numberline {1.1}{\ignorespaces Uma imagem.\relax }}{9}{figure.caption.6}}
\@writefile{brf}{\backcite{alves:article:2017}{{9}{1.1}{figure.caption.6}}}
\@writefile{brf}{\backcite{seymor:book:1971}{{9}{1.1.1.1}{figure.caption.6}}}
\@writefile{brf}{\backcite{seymor:book:1971}{{9}{1.1.1.1}{figure.caption.6}}}
\bibcite{alves:article:2017}{Alves, Hashimoto e Marcotegui 2017}
\bibciteEXPL{alves:article:2017}{Alves, Hashimoto e Marcotegui}
\bibciteIMPL{alves:article:2017}{ALVES; HASHIMOTO; MARCOTEGUI}
\bibciteYEAR{alves:article:2017}{2017}
\bibcite{seymor:book:1971}{Lipschutz 1971}
\bibciteEXPL{seymor:book:1971}{Lipschutz}
\bibciteIMPL{seymor:book:1971}{LIPSCHUTZ}
\bibciteYEAR{seymor:book:1971}{1971}
\bibstyle{abntex2-alf}
\@writefile{toc}{\contentsline {chapter}{Refer\^encias Bibliogr\'aficas}{10}{chapter*.7}}
\ttl@finishall
