\relax 
\providecommand\hyper@newdestlabel[2]{}
\citation{brualdi2012introductory}
\citation{newman1992elements}
\@writefile{toc}{\contentsline {chapter}{\numberline {3}Agrupamentos hier\IeC {\'a}rquicos a partir de relat\IeC {\'o}rios gerados pelo ScriptLattes}{27}{chapter.3}}
\@writefile{lof}{\addvspace {10\p@ }}
\@writefile{lot}{\addvspace {10\p@ }}
\@writefile{brf}{\backcite{brualdi2012introductory}{{27}{3}{chapter.3}}}
\@writefile{brf}{\backcite{newman1992elements}{{27}{3}{chapter.3}}}
\@writefile{toc}{\contentsline {section}{\numberline {3.1}Agrupamento de Curr\IeC {\'\i }culo Lattes}{27}{section.3.1}}
\@writefile{toc}{\contentsline {section}{\numberline {3.2}Hierarquia de Curr\IeC {\'\i }culos}{27}{section.3.2}}
\citation{brualdi2012introductory}
\citation{newman1992elements}
\citation{Duda:2000}
\citation{friedman}
\citation{Duda:2000}
\citation{friedman}
\@writefile{brf}{\backcite{brualdi2012introductory}{{28}{3.2}{equation.3.2.4}}}
\@writefile{brf}{\backcite{newman1992elements}{{28}{3.2}{equation.3.2.4}}}
\@writefile{toc}{\contentsline {section}{\numberline {3.3}Agrupamento Hier\IeC {\'a}rquico}{28}{section.3.3}}
\@writefile{brf}{\backcite{Duda:2000,friedman}{{28}{3.3}{section.3.3}}}
\citation{Duda:2000}
\citation{friedman}
\@writefile{lof}{\contentsline {figure}{\numberline {3.1}{\ignorespaces Exemplo: ramifica\IeC {\c c}\IeC {\~o}es do diagrama Hasse $(\mathcal  {T}, \preceq )$.\relax }}{29}{figure.caption.13}}
\newlabel{fig:hasse}{{3.1}{29}{Exemplo: ramificações do diagrama Hasse $(\mathcal {T}, \preceq )$.\relax }{figure.caption.13}{}}
\@writefile{brf}{\backcite{Duda:2000,friedman}{{29}{3.3}{section.3.3}}}
\@writefile{brf}{\backcite{Duda:2000,friedman}{{29}{3.3}{section.3.3}}}
\@writefile{brf}{\backcite{Duda:2000,friedman}{{29}{3.3}{section.3.3}}}
\@writefile{brf}{\backcite{Duda:2000,friedman}{{29}{3.3}{Item.13}}}
\@writefile{brf}{\backcite{Duda:2000,friedman}{{29}{3.3}{Item.13}}}
\@writefile{lof}{\contentsline {figure}{\numberline {3.2}{\ignorespaces Dendrogramas dos agrupamentos hier\IeC {\'a}rquicos dos objetos $\{A=25, B=30, C=80, D=90, E=60, F=56, G=50, H=40\}$\relax }}{31}{figure.caption.14}}
\newlabel{fig:dendogramaEx}{{3.2}{31}{Dendrogramas dos agrupamentos hierárquicos dos objetos $\{A=25, B=30, C=80, D=90, E=60, F=56, G=50, H=40\}$\relax }{figure.caption.14}{}}
\@writefile{lof}{\contentsline {figure}{\numberline {3.3}{\ignorespaces Agrupamentos formados por meio de cortes na hierarquia $ \mathcal  {T} $ constru\IeC {\'\i }da utilizando liga\IeC {\c c}\IeC {\~o}es por m\IeC {\'e}dia.\relax }}{32}{figure.caption.15}}
\newlabel{fig:corteDendogramaEx}{{3.3}{32}{Agrupamentos formados por meio de cortes na hierarquia $ \mathcal {T} $ construída utilizando ligações por média.\relax }{figure.caption.15}{}}
\@setckpt{agrupamentoHierarquico}{
\setcounter{page}{33}
\setcounter{equation}{7}
\setcounter{enumi}{3}
\setcounter{enumii}{0}
\setcounter{enumiii}{0}
\setcounter{enumiv}{0}
\setcounter{footnote}{0}
\setcounter{mpfootnote}{0}
\setcounter{part}{0}
\setcounter{chapter}{3}
\setcounter{section}{3}
\setcounter{subsection}{0}
\setcounter{subsubsection}{0}
\setcounter{paragraph}{0}
\setcounter{subparagraph}{0}
\setcounter{figure}{3}
\setcounter{table}{0}
\setcounter{lstnumber}{1}
\setcounter{btxromaniannumeral}{0}
\setcounter{ContinuedFloat}{0}
\setcounter{Item}{16}
\setcounter{Hfootnote}{1}
\setcounter{bookmark@seq@number}{24}
\setcounter{ABCIaux}{0}
\setcounter{ABCImax}{0}
\setcounter{parentequation}{0}
\setcounter{lofdepth}{1}
\setcounter{lotdepth}{1}
\setcounter{definition}{0}
\setcounter{proposition}{0}
\setcounter{algorithms}{0}
\setcounter{theorem}{0}
\setcounter{float@type}{16}
\setcounter{subfigure}{3}
\setcounter{subtable}{0}
\setcounter{algorithm}{0}
\setcounter{ALG@line}{0}
\setcounter{ALG@rem}{0}
\setcounter{ALG@nested}{0}
\setcounter{ALG@Lnr}{2}
\setcounter{ALG@blocknr}{10}
\setcounter{ALG@storecount}{0}
\setcounter{ALG@tmpcounter}{0}
\setcounter{lstlisting}{0}
\setcounter{section@level}{0}
}
