\relax 
\providecommand\hyper@newdestlabel[2]{}
\@writefile{lot}{\contentsline {table}{\numberline {5.1}{\ignorespaces Agrupamento $3.6$ ap\IeC {\'o}s corte na hierarquia\relax }}{70}{table.caption.38}}
\newlabel{tab:programasagrupados1}{{5.1}{70}{Agrupamento $3.6$ após corte na hierarquia\relax }{table.caption.38}{}}
\@writefile{lot}{\contentsline {table}{\numberline {5.2}{\ignorespaces Agrupamento $2.5$ ap\IeC {\'o}s corte na hierarquia\relax }}{70}{table.caption.39}}
\newlabel{tab:programasagrupados2}{{5.2}{70}{Agrupamento $2.5$ após corte na hierarquia\relax }{table.caption.39}{}}
\@writefile{lot}{\contentsline {table}{\numberline {5.3}{\ignorespaces Agrupamento $1.7$ ap\IeC {\'o}s corte na hierarquia\relax }}{70}{table.caption.40}}
\newlabel{tab:programasagrupados3}{{5.3}{70}{Agrupamento $1.7$ após corte na hierarquia\relax }{table.caption.40}{}}
\@writefile{lot}{\contentsline {table}{\numberline {5.4}{\ignorespaces Agrupamento $0.9$ ap\IeC {\'o}s corte na hierarquia\relax }}{71}{table.caption.41}}
\newlabel{tab:programasagrupados4}{{5.4}{71}{Agrupamento $0.9$ após corte na hierarquia\relax }{table.caption.41}{}}
\@writefile{lot}{\contentsline {table}{\numberline {5.5}{\ignorespaces Programas \IeC {\'a}rea interdisciplinar com conceito CAPES $2$\relax }}{71}{table.caption.42}}
\newlabel{tab:classificacao2}{{5.5}{71}{Programas área interdisciplinar com conceito CAPES $2$\relax }{table.caption.42}{}}
\@writefile{lot}{\contentsline {table}{\numberline {5.6}{\ignorespaces Programas \IeC {\'a}rea interdisciplinar com conceito CAPES $3$\relax }}{72}{table.caption.43}}
\newlabel{tab:classificacao3}{{5.6}{72}{Programas área interdisciplinar com conceito CAPES $3$\relax }{table.caption.43}{}}
\@writefile{lot}{\contentsline {table}{\numberline {5.7}{\ignorespaces Programas \IeC {\'a}rea interdisciplinar com conceito CAPES $4$\relax }}{73}{table.caption.44}}
\newlabel{tab:classificacao4}{{5.7}{73}{Programas área interdisciplinar com conceito CAPES $4$\relax }{table.caption.44}{}}
\@writefile{lot}{\contentsline {table}{\numberline {5.8}{\ignorespaces Programa \IeC {\'a}rea interdisciplinar com conceito CAPES $5$\relax }}{73}{table.caption.45}}
\newlabel{tab:classificacao5}{{5.8}{73}{Programa área interdisciplinar com conceito CAPES $5$\relax }{table.caption.45}{}}
\@writefile{lot}{\contentsline {table}{\numberline {5.9}{\ignorespaces Programa \IeC {\'a}rea interdisciplinar com conceito CAPES $6$\relax }}{74}{table.caption.46}}
\newlabel{tab:classificacao6}{{5.9}{74}{Programa área interdisciplinar com conceito CAPES $6$\relax }{table.caption.46}{}}
\@setckpt{anexo}{
\setcounter{page}{75}
\setcounter{equation}{0}
\setcounter{enumi}{4}
\setcounter{enumii}{0}
\setcounter{enumiii}{0}
\setcounter{enumiv}{0}
\setcounter{footnote}{0}
\setcounter{mpfootnote}{0}
\setcounter{part}{0}
\setcounter{chapter}{5}
\setcounter{section}{2}
\setcounter{subsection}{0}
\setcounter{subsubsection}{0}
\setcounter{paragraph}{0}
\setcounter{subparagraph}{0}
\setcounter{figure}{0}
\setcounter{table}{9}
\setcounter{lstnumber}{1}
\setcounter{btxromaniannumeral}{0}
\setcounter{ContinuedFloat}{0}
\setcounter{Item}{23}
\setcounter{Hfootnote}{1}
\setcounter{bookmark@seq@number}{45}
\setcounter{ABCIaux}{0}
\setcounter{ABCImax}{0}
\setcounter{parentequation}{0}
\setcounter{lofdepth}{1}
\setcounter{lotdepth}{1}
\setcounter{definition}{0}
\setcounter{proposition}{0}
\setcounter{algorithms}{0}
\setcounter{theorem}{0}
\setcounter{float@type}{16}
\setcounter{subfigure}{0}
\setcounter{subtable}{0}
\setcounter{algorithm}{1}
\setcounter{ALG@line}{20}
\setcounter{ALG@rem}{0}
\setcounter{ALG@nested}{0}
\setcounter{ALG@Lnr}{2}
\setcounter{ALG@blocknr}{10}
\setcounter{ALG@storecount}{0}
\setcounter{ALG@tmpcounter}{0}
\setcounter{lstlisting}{0}
\setcounter{section@level}{0}
}
