\relax 
\catcode `"\active 
\providecommand \oddpage@label [2]{}
\select@language{brazil}
\@writefile{toc}{\select@language{brazil}}
\@writefile{lof}{\select@language{brazil}}
\@writefile{lot}{\select@language{brazil}}
\newlabel{alg1}{{7}{1}}
\@writefile{loa}{\contentsline {algocf}{\numberline {1}{\ignorespaces \textsc  {Esperan\IeC {\c c}a}}}{1}}
