\relax 
\providecommand\hyper@newdestlabel[2]{}
\providecommand\HyperFirstAtBeginDocument{\AtBeginDocument}
\HyperFirstAtBeginDocument{\ifx\hyper@anchor\@undefined
\global\let\oldcontentsline\contentsline
\gdef\contentsline#1#2#3#4{\oldcontentsline{#1}{#2}{#3}}
\global\let\oldnewlabel\newlabel
\gdef\newlabel#1#2{\newlabelxx{#1}#2}
\gdef\newlabelxx#1#2#3#4#5#6{\oldnewlabel{#1}{{#2}{#3}}}
\AtEndDocument{\ifx\hyper@anchor\@undefined
\let\contentsline\oldcontentsline
\let\newlabel\oldnewlabel
\fi}
\fi}
\global\let\hyper@last\relax 
\gdef\HyperFirstAtBeginDocument#1{#1}
\providecommand\HyField@AuxAddToFields[1]{}
\providecommand\HyField@AuxAddToCoFields[2]{}
\catcode `"\active 
\@writefile{toc}{\beamer@endinputifotherversion {3.36pt}}
\@writefile{nav}{\beamer@endinputifotherversion {3.36pt}}
\select@language{brazil}
\@writefile{toc}{\select@language{brazil}}
\@writefile{lof}{\select@language{brazil}}
\@writefile{lot}{\select@language{brazil}}
\@writefile{nav}{\headcommand {\slideentry {0}{0}{1}{1/1}{}{0}}}
\@writefile{nav}{\headcommand {\beamer@framepages {1}{1}}}
\@writefile{toc}{\beamer@sectionintoc {1}{sumario}{2}{0}{1}}
\@writefile{nav}{\headcommand {\sectionentry {1}{sumario}{2}{sumario}{0}}}
\@writefile{nav}{\headcommand {\beamer@sectionpages {1}{1}}}
\@writefile{nav}{\headcommand {\beamer@subsectionpages {1}{1}}}
\@writefile{nav}{\headcommand {\slideentry {1}{0}{1}{2/2}{}{0}}}
\@writefile{nav}{\headcommand {\beamer@framepages {2}{2}}}
\citation{lane2010let}
\citation{silva2007organizaccao}
\@writefile{toc}{\beamer@sectionintoc {2}{Introdu\IeC {\c c}\IeC {\~a}o}{3}{0}{2}}
\@writefile{nav}{\headcommand {\sectionentry {2}{Introdu\IeC {\c c}\IeC {\~a}o}{3}{Introdu\IeC {\c c}\IeC {\~a}o}{0}}}
\@writefile{nav}{\headcommand {\beamer@sectionpages {2}{2}}}
\@writefile{nav}{\headcommand {\beamer@subsectionpages {2}{2}}}
\@writefile{toc}{\beamer@subsectionintoc {2}{1}{Contextualiza\IeC {\c c}\IeC {\~a}o do tema}{3}{0}{2}}
\@writefile{nav}{\headcommand {\beamer@subsectionentry {0}{2}{1}{3}{Contextualiza\IeC {\c c}\IeC {\~a}o do tema}}\headcommand {\beamer@subsectionpages {3}{2}}}
\@writefile{nav}{\headcommand {\slideentry {2}{1}{1}{3/3}{Contextualiza\IeC {\c c}\IeC {\~a}o do tema}{0}}}
\@writefile{nav}{\headcommand {\beamer@framepages {3}{3}}}
\@writefile{nav}{\headcommand {\slideentry {2}{1}{2}{4/4}{Contextualiza\IeC {\c c}\IeC {\~a}o do tema}{0}}}
\@writefile{nav}{\headcommand {\beamer@framepages {4}{4}}}
\@writefile{toc}{\beamer@sectionintoc {3}{Problema de pesquisa}{5}{0}{3}}
\@writefile{nav}{\headcommand {\sectionentry {3}{Problema de pesquisa}{5}{Problema de pesquisa}{0}}}
\@writefile{nav}{\headcommand {\beamer@sectionpages {3}{4}}}
\@writefile{nav}{\headcommand {\beamer@subsectionpages {3}{4}}}
\@writefile{toc}{\beamer@subsectionintoc {3}{1}{Problema problema}{5}{0}{3}}
\@writefile{nav}{\headcommand {\beamer@subsectionentry {0}{3}{1}{5}{Problema problema}}\headcommand {\beamer@subsectionpages {5}{4}}}
\@writefile{nav}{\headcommand {\slideentry {3}{1}{1}{5/6}{Problema problema}{0}}}
\@writefile{nav}{\headcommand {\beamer@framepages {5}{6}}}
\@writefile{nav}{\headcommand {\slideentry {3}{1}{2}{7/7}{Problema problema}{0}}}
\@writefile{nav}{\headcommand {\beamer@framepages {7}{7}}}
\@writefile{nav}{\headcommand {\slideentry {3}{1}{3}{8/8}{Problema problema}{0}}}
\@writefile{nav}{\headcommand {\beamer@framepages {8}{8}}}
\@writefile{toc}{\beamer@subsectionintoc {3}{2}{hip\IeC {\'o}teses de resolu\IeC {\c c}\IeC {\~a}o do problema}{9}{0}{3}}
\@writefile{nav}{\headcommand {\beamer@subsectionentry {0}{3}{2}{9}{hip\IeC {\'o}teses de resolu\IeC {\c c}\IeC {\~a}o do problema}}\headcommand {\beamer@subsectionpages {5}{8}}}
\@writefile{nav}{\headcommand {\slideentry {3}{2}{1}{9/9}{hip\IeC {\'o}teses de resolu\IeC {\c c}\IeC {\~a}o do problema}{0}}}
\@writefile{nav}{\headcommand {\beamer@framepages {9}{9}}}
\@writefile{toc}{\beamer@subsectionintoc {3}{3}{Objetivos geral e espec\IeC {\'\i }ficos}{10}{0}{3}}
\@writefile{nav}{\headcommand {\beamer@subsectionentry {0}{3}{3}{10}{Objetivos geral e espec\IeC {\'\i }ficos}}\headcommand {\beamer@subsectionpages {9}{9}}}
\@writefile{nav}{\headcommand {\slideentry {3}{3}{1}{10/10}{Objetivos geral e espec\IeC {\'\i }ficos}{0}}}
\@writefile{nav}{\headcommand {\beamer@framepages {10}{10}}}
\@writefile{nav}{\headcommand {\slideentry {3}{3}{2}{11/11}{Objetivos geral e espec\IeC {\'\i }ficos}{0}}}
\@writefile{nav}{\headcommand {\beamer@framepages {11}{11}}}
\@writefile{toc}{\beamer@sectionintoc {4}{Conceitos}{12}{0}{4}}
\@writefile{nav}{\headcommand {\sectionentry {4}{Conceitos}{12}{Conceitos}{0}}}
\@writefile{nav}{\headcommand {\beamer@sectionpages {5}{11}}}
\@writefile{nav}{\headcommand {\beamer@subsectionpages {10}{11}}}
\@writefile{nav}{\headcommand {\slideentry {4}{0}{1}{12/12}{}{0}}}
\@writefile{nav}{\headcommand {\beamer@framepages {12}{12}}}
\citation{genvlandwwww}
\@writefile{toc}{\beamer@subsubsectionintoc {4}{0}{1}{Web-Crawlers}{13}{0}{4}}
\@writefile{nav}{\headcommand {\beamer@subsubsectionentry {0}{4}{0}{1}{13}{Web-Crawlers}}}
\@writefile{nav}{\headcommand {\slideentry {4}{0}{2}{13/13}{}{0}}}
\@writefile{nav}{\headcommand {\beamer@framepages {13}{13}}}
\citation{santos2014mineraccao}
\citation{rocha2012ferramenta}
\citation{rodrigues2010ferramenta}
\citation{elishar2012organizational}
\citation{santos2010prototipo}
\citation{Mena-Chalco2009}
\citation{alves2016hierarchical}
\@writefile{nav}{\headcommand {\slideentry {4}{0}{3}{14/14}{}{0}}}
\@writefile{nav}{\headcommand {\beamer@framepages {14}{14}}}
\citation{santos2014mineraccao}
\citation{rocha2012ferramenta}
\citation{rodrigues2010ferramenta}
\citation{elishar2012organizational}
\citation{santos2010prototipo}
\citation{Mena-Chalco2009}
\citation{alves2016hierarchical}
\@writefile{nav}{\headcommand {\slideentry {4}{0}{4}{15/15}{}{0}}}
\@writefile{nav}{\headcommand {\beamer@framepages {15}{15}}}
\citation{bonifacio2002ontologias}
\citation{oliveira2004geralattes}
\citation{da2009semantic}
\citation{Mena-Chalco2009}
\@writefile{nav}{\headcommand {\slideentry {4}{0}{5}{16/16}{}{0}}}
\@writefile{nav}{\headcommand {\beamer@framepages {16}{16}}}
\citation{bonifacio2002ontologias}
\citation{oliveira2004geralattes}
\citation{da2009semantic}
\citation{Mena-Chalco2009}
\@writefile{nav}{\headcommand {\slideentry {4}{0}{6}{17/17}{}{0}}}
\@writefile{nav}{\headcommand {\beamer@framepages {17}{17}}}
\@writefile{toc}{\beamer@subsectionintoc {4}{1}{Ferramenta de extra\IeC {\c c}\IeC {\~o}es de dados na plataforma Lattes}{18}{0}{4}}
\@writefile{nav}{\headcommand {\beamer@subsectionentry {0}{4}{1}{18}{Ferramenta de extra\IeC {\c c}\IeC {\~o}es de dados na plataforma Lattes}}\headcommand {\beamer@subsectionpages {12}{17}}}
\newlabel{fig:agrupamentoHierarquico}{{1}{18}{Ferramenta de extrações de dados na plataforma Lattes}{Doc-Start}{}}
\@writefile{snm}{\beamer@slide {fig:agrupamentoHierarquico}{18}}
\@writefile{nav}{\headcommand {\slideentry {4}{1}{1}{18/18}{Ferramenta de extra\IeC {\c c}\IeC {\~o}es de dados na plataforma Lattes}{0}}}
\@writefile{nav}{\headcommand {\beamer@framepages {18}{18}}}
\citation{fernandez2012semantic}
\citation{ferraz2014use}
\citation{giordano2015uso}
\citation{nigro2016uso}
\@writefile{toc}{\beamer@subsectionintoc {4}{2}{Principais trabalhos}{19}{0}{4}}
\@writefile{nav}{\headcommand {\beamer@subsectionentry {0}{4}{2}{19}{Principais trabalhos}}\headcommand {\beamer@subsectionpages {18}{18}}}
\@writefile{nav}{\headcommand {\slideentry {4}{2}{1}{19/19}{Principais trabalhos}{0}}}
\@writefile{nav}{\headcommand {\beamer@framepages {19}{19}}}
\citation{Duda:2000}
\citation{friedman}
\@writefile{toc}{\beamer@sectionintoc {5}{ Agrupamento Hier\IeC {\'a}rquico}{20}{0}{5}}
\@writefile{nav}{\headcommand {\sectionentry {5}{ Agrupamento Hier\IeC {\'a}rquico}{20}{ Agrupamento Hier\IeC {\'a}rquico}{0}}}
\@writefile{nav}{\headcommand {\beamer@sectionpages {12}{19}}}
\@writefile{nav}{\headcommand {\beamer@subsectionpages {19}{19}}}
\@writefile{nav}{\headcommand {\slideentry {5}{0}{1}{20/20}{}{0}}}
\@writefile{nav}{\headcommand {\beamer@framepages {20}{20}}}
\@writefile{nav}{\headcommand {\slideentry {5}{0}{2}{21/21}{}{0}}}
\@writefile{nav}{\headcommand {\beamer@framepages {21}{21}}}
\@writefile{toc}{\beamer@subsectionintoc {5}{1}{Agrupamento Hier\IeC {\'a}rquico de curr\IeC {\'\i }culos Lattes}{22}{0}{5}}
\@writefile{nav}{\headcommand {\beamer@subsectionentry {0}{5}{1}{22}{Agrupamento Hier\IeC {\'a}rquico de curr\IeC {\'\i }culos Lattes}}\headcommand {\beamer@subsectionpages {20}{21}}}
\@writefile{nav}{\headcommand {\slideentry {5}{1}{1}{22/22}{Agrupamento Hier\IeC {\'a}rquico de curr\IeC {\'\i }culos Lattes}{0}}}
\@writefile{nav}{\headcommand {\beamer@framepages {22}{22}}}
\@writefile{nav}{\headcommand {\slideentry {5}{1}{2}{23/23}{Agrupamento Hier\IeC {\'a}rquico de curr\IeC {\'\i }culos Lattes}{0}}}
\@writefile{nav}{\headcommand {\beamer@framepages {23}{23}}}
\@writefile{nav}{\headcommand {\slideentry {5}{1}{3}{24/24}{Agrupamento Hier\IeC {\'a}rquico de curr\IeC {\'\i }culos Lattes}{0}}}
\@writefile{nav}{\headcommand {\beamer@framepages {24}{24}}}
\newlabel{fig:agrupamentoHierarquico}{{2}{25}{Agrupamento Hierárquico de currículos Lattes}{Doc-Start}{}}
\@writefile{snm}{\beamer@slide {fig:agrupamentoHierarquico}{25}}
\@writefile{nav}{\headcommand {\slideentry {5}{1}{4}{25/25}{Agrupamento Hier\IeC {\'a}rquico de curr\IeC {\'\i }culos Lattes}{0}}}
\@writefile{nav}{\headcommand {\beamer@framepages {25}{25}}}
\@writefile{nav}{\headcommand {\slideentry {5}{1}{5}{26/26}{Agrupamento Hier\IeC {\'a}rquico de curr\IeC {\'\i }culos Lattes}{0}}}
\@writefile{nav}{\headcommand {\beamer@framepages {26}{26}}}
\newlabel{tab:dataset}{{1}{27}{Agrupamento Hierárquico de currículos Lattes}{Doc-Start}{}}
\@writefile{snm}{\beamer@slide {tab:dataset}{27}}
\@writefile{nav}{\headcommand {\slideentry {5}{1}{6}{27/27}{Agrupamento Hier\IeC {\'a}rquico de curr\IeC {\'\i }culos Lattes}{0}}}
\@writefile{nav}{\headcommand {\beamer@framepages {27}{27}}}
\@writefile{nav}{\headcommand {\slideentry {5}{1}{7}{28/28}{Agrupamento Hier\IeC {\'a}rquico de curr\IeC {\'\i }culos Lattes}{0}}}
\@writefile{nav}{\headcommand {\beamer@framepages {28}{28}}}
\@writefile{nav}{\headcommand {\slideentry {5}{1}{8}{29/29}{Agrupamento Hier\IeC {\'a}rquico de curr\IeC {\'\i }culos Lattes}{0}}}
\@writefile{nav}{\headcommand {\beamer@framepages {29}{29}}}
\newlabel{fig:dendrogram}{{3}{30}{Agrupamento Hierárquico de currículos Lattes}{Doc-Start}{}}
\@writefile{snm}{\beamer@slide {fig:dendrogram}{30}}
\@writefile{nav}{\headcommand {\slideentry {5}{1}{9}{30/30}{Agrupamento Hier\IeC {\'a}rquico de curr\IeC {\'\i }culos Lattes}{0}}}
\@writefile{nav}{\headcommand {\beamer@framepages {30}{30}}}
\@writefile{toc}{\beamer@subsectionintoc {5}{2}{aplica\IeC {\c c}\IeC {\~o}es}{31}{0}{5}}
\@writefile{nav}{\headcommand {\beamer@subsectionentry {0}{5}{2}{31}{aplica\IeC {\c c}\IeC {\~o}es}}\headcommand {\beamer@subsectionpages {22}{30}}}
\@writefile{nav}{\headcommand {\slideentry {5}{2}{1}{31/31}{aplica\IeC {\c c}\IeC {\~o}es}{0}}}
\@writefile{nav}{\headcommand {\beamer@framepages {31}{31}}}
\newlabel{fig:agrupamentoHierarquico}{{4}{32}{aplicações}{Doc-Start}{}}
\@writefile{snm}{\beamer@slide {fig:agrupamentoHierarquico}{32}}
\@writefile{nav}{\headcommand {\slideentry {5}{2}{2}{32/32}{aplica\IeC {\c c}\IeC {\~o}es}{0}}}
\@writefile{nav}{\headcommand {\beamer@framepages {32}{32}}}
\newlabel{fig:agrupamentoHierarquico}{{5}{33}{aplicações}{Doc-Start}{}}
\@writefile{snm}{\beamer@slide {fig:agrupamentoHierarquico}{33}}
\@writefile{nav}{\headcommand {\slideentry {5}{2}{3}{33/33}{aplica\IeC {\c c}\IeC {\~o}es}{0}}}
\@writefile{nav}{\headcommand {\beamer@framepages {33}{33}}}
\newlabel{fig:dendrogram}{{6}{34}{aplicações}{Doc-Start}{}}
\@writefile{snm}{\beamer@slide {fig:dendrogram}{34}}
\@writefile{nav}{\headcommand {\slideentry {5}{2}{4}{34/34}{aplica\IeC {\c c}\IeC {\~o}es}{0}}}
\@writefile{nav}{\headcommand {\beamer@framepages {34}{34}}}
\@writefile{toc}{\beamer@sectionintoc {6}{Planos para defesa}{35}{0}{6}}
\@writefile{nav}{\headcommand {\sectionentry {6}{Planos para defesa}{35}{Planos para defesa}{0}}}
\@writefile{nav}{\headcommand {\beamer@sectionpages {20}{34}}}
\@writefile{nav}{\headcommand {\beamer@subsectionpages {31}{34}}}
\@writefile{nav}{\headcommand {\slideentry {6}{0}{1}{35/35}{}{0}}}
\@writefile{nav}{\headcommand {\beamer@framepages {35}{35}}}
\@writefile{toc}{\beamer@sectionintoc {7}{Planos para defesa}{36}{0}{7}}
\@writefile{nav}{\headcommand {\sectionentry {7}{Planos para defesa}{36}{Planos para defesa}{0}}}
\@writefile{nav}{\headcommand {\beamer@sectionpages {35}{35}}}
\@writefile{nav}{\headcommand {\beamer@subsectionpages {35}{35}}}
\newlabel{tab:cronograma}{{2}{36}{Planos para defesa}{Doc-Start}{}}
\@writefile{snm}{\beamer@slide {tab:cronograma}{36}}
\@writefile{nav}{\headcommand {\slideentry {7}{0}{1}{36/36}{}{0}}}
\@writefile{nav}{\headcommand {\beamer@framepages {36}{36}}}
\bibstyle{apalike}
\bibdata{refs-bib}
\bibcite{alves2016hierarchical}{\hyperlink {beamerbibalves2016hierarchical}{Alves et~al., 2016}}
\bibcite{bonifacio2002ontologias}{\hyperlink {beamerbibbonifacio2002ontologias}{Bonifacio, 2002}}
\bibcite{da2009semantic}{\hyperlink {beamerbibda2009semantic}{da~Costa and Yamate, 2009}}
\bibcite{Duda:2000}{\hyperlink {beamerbibDuda:2000}{Duda et~al., 2000}}
\bibcite{elishar2012organizational}{\hyperlink {beamerbibelishar2012organizational}{Elishar et~al., 2012}}
\bibcite{fernandez2012semantic}{\hyperlink {beamerbibfernandez2012semantic}{Fern{\'a}ndez-Breis et~al., 2012}}
\bibcite{ferraz2014use}{\hyperlink {beamerbibferraz2014use}{Ferraz et~al., 2014}}
\bibcite{friedman}{\hyperlink {beamerbibfriedman}{Friedman et~al., 2001}}
\bibcite{giordano2015uso}{\hyperlink {beamerbibgiordano2015uso}{Giordano et~al., 2015}}
\bibcite{lane2010let}{\hyperlink {beamerbiblane2010let}{Lane, 2010}}
\bibcite{Mena-Chalco2009}{\hyperlink {beamerbibMena-Chalco2009}{Mena-Chalco and Junior, 2009}}
\bibcite{nigro2016uso}{\hyperlink {beamerbibnigro2016uso}{Nigro et~al., 2016}}
\bibcite{genvlandwwww}{\hyperlink {beamerbibgenvlandwwww}{O.A, 1994}}
\bibcite{oliveira2004geralattes}{\hyperlink {beamerbiboliveira2004geralattes}{OLIVEIRA et~al., 2004}}
\bibcite{rocha2012ferramenta}{\hyperlink {beamerbibrocha2012ferramenta}{Rocha et~al., 2012}}
\bibcite{rodrigues2010ferramenta}{\hyperlink {beamerbibrodrigues2010ferramenta}{Rodrigues et~al., 2010}}
\bibcite{santos2014mineraccao}{\hyperlink {beamerbibsantos2014mineraccao}{Santos, 2014}}
\bibcite{santos2010prototipo}{\hyperlink {beamerbibsantos2010prototipo}{Santos, 2010}}
\bibcite{silva2007organizaccao}{\hyperlink {beamerbibsilva2007organizaccao}{SILVA, 2007}}
\@writefile{nav}{\headcommand {\beamer@partpages {1}{41}}}
\@writefile{nav}{\headcommand {\beamer@subsectionpages {36}{41}}}
\@writefile{nav}{\headcommand {\beamer@sectionpages {36}{41}}}
\@writefile{nav}{\headcommand {\beamer@documentpages {41}}}
\@writefile{nav}{\headcommand {\def \inserttotalframenumber {35}}}
