This is BibTeX, Version 0.99d (TeX Live 2015)
Capacity: max_strings=35307, hash_size=35307, hash_prime=30011
The top-level auxiliary file: ApresentacaoQuali.aux
The style file: apalike.bst
Database file #1: refs-bib.bib
Warning--empty journal in nigro2016uso
Warning--empty journal in santos2014mineraccao
Warning--empty journal in santos2010prototipo
You've used 19 entries,
            1935 wiz_defined-function locations,
            578 strings with 8075 characters,
and the built_in function-call counts, 7451 in all, are:
= -- 735
> -- 291
< -- 17
+ -- 102
- -- 96
* -- 568
:= -- 1276
add.period$ -- 56
call.type$ -- 19
change.case$ -- 138
chr.to.int$ -- 19
cite$ -- 22
duplicate$ -- 328
empty$ -- 510
format.name$ -- 120
if$ -- 1489
int.to.chr$ -- 1
int.to.str$ -- 0
missing$ -- 19
newline$ -- 95
num.names$ -- 57
pop$ -- 149
preamble$ -- 1
purify$ -- 142
quote$ -- 0
skip$ -- 269
stack$ -- 0
substring$ -- 440
swap$ -- 74
text.length$ -- 8
text.prefix$ -- 0
top$ -- 0
type$ -- 110
warning$ -- 3
while$ -- 57
width$ -- 0
write$ -- 240
(There were 3 warnings)
