\relax 
\providecommand\hyper@newdestlabel[2]{}
\@writefile{lot}{\contentsline {table}{\numberline {5.1}{\ignorespaces Programas \IeC {\'a}rea interdisciplinar com conceito CAPES $2$\relax }}{70}{table.caption.38}}
\newlabel{tab:classificacao2}{{5.1}{70}{Programas área interdisciplinar com conceito CAPES $2$\relax }{table.caption.38}{}}
\@writefile{lot}{\contentsline {table}{\numberline {5.2}{\ignorespaces Programas \IeC {\'a}rea interdisciplinar com conceito CAPES $3$\relax }}{71}{table.caption.39}}
\newlabel{tab:classificacao3}{{5.2}{71}{Programas área interdisciplinar com conceito CAPES $3$\relax }{table.caption.39}{}}
\@writefile{lot}{\contentsline {table}{\numberline {5.3}{\ignorespaces Programas \IeC {\'a}rea interdisciplinar com conceito CAPES $4$\relax }}{72}{table.caption.40}}
\newlabel{tab:classificacao4}{{5.3}{72}{Programas área interdisciplinar com conceito CAPES $4$\relax }{table.caption.40}{}}
\@writefile{lot}{\contentsline {table}{\numberline {5.4}{\ignorespaces Programa \IeC {\'a}rea interdisciplinar com conceito CAPES $5$\relax }}{72}{table.caption.41}}
\newlabel{tab:classificacao5}{{5.4}{72}{Programa área interdisciplinar com conceito CAPES $5$\relax }{table.caption.41}{}}
\@writefile{lot}{\contentsline {table}{\numberline {5.5}{\ignorespaces Programa \IeC {\'a}rea interdisciplinar com conceito CAPES $6$\relax }}{73}{table.caption.42}}
\newlabel{tab:classificacao6}{{5.5}{73}{Programa área interdisciplinar com conceito CAPES $6$\relax }{table.caption.42}{}}
\@setckpt{anexo}{
\setcounter{page}{74}
\setcounter{equation}{0}
\setcounter{enumi}{6}
\setcounter{enumii}{4}
\setcounter{enumiii}{0}
\setcounter{enumiv}{0}
\setcounter{footnote}{0}
\setcounter{mpfootnote}{0}
\setcounter{part}{0}
\setcounter{chapter}{5}
\setcounter{section}{2}
\setcounter{subsection}{0}
\setcounter{subsubsection}{0}
\setcounter{paragraph}{0}
\setcounter{subparagraph}{0}
\setcounter{figure}{0}
\setcounter{table}{5}
\setcounter{lstnumber}{1}
\setcounter{btxromaniannumeral}{0}
\setcounter{ContinuedFloat}{0}
\setcounter{Item}{66}
\setcounter{Hfootnote}{2}
\setcounter{bookmark@seq@number}{45}
\setcounter{ABCIaux}{0}
\setcounter{ABCImax}{0}
\setcounter{parentequation}{0}
\setcounter{lofdepth}{1}
\setcounter{lotdepth}{1}
\setcounter{definition}{0}
\setcounter{proposition}{0}
\setcounter{algorithms}{0}
\setcounter{theorem}{0}
\setcounter{float@type}{16}
\setcounter{subfigure}{0}
\setcounter{subtable}{0}
\setcounter{algorithm}{1}
\setcounter{ALG@line}{20}
\setcounter{ALG@rem}{0}
\setcounter{ALG@nested}{0}
\setcounter{ALG@Lnr}{2}
\setcounter{ALG@blocknr}{10}
\setcounter{ALG@storecount}{0}
\setcounter{ALG@tmpcounter}{0}
\setcounter{lstlisting}{0}
\setcounter{section@level}{0}
}
