\relax 
\providecommand\hyper@newdestlabel[2]{}
\@writefile{toc}{\contentsline {chapter}{\numberline {4}Aplica\IeC {\c c}\IeC {\~o}es e resultados}{34}{chapter.4}}
\@writefile{lof}{\addvspace {10\p@ }}
\@writefile{lot}{\addvspace {10\p@ }}
\@writefile{toc}{\contentsline {section}{\numberline {4.1}Hierarquia de curr\IeC {\'\i }culos}{34}{section.4.1}}
\citation{doi:2017}
\@writefile{lof}{\contentsline {figure}{\numberline {4.1}{\ignorespaces Processo para construir hierarquia de curr\IeC {\'\i }culos\relax }}{35}{figure.caption.16}}
\newlabel{fig:scripthierarquico}{{4.1}{35}{Processo para construir hierarquia de currículos\relax }{figure.caption.16}{}}
\@writefile{toc}{\contentsline {subsection}{\numberline {4.1.1}Parametriza\IeC {\c c}\IeC {\~a}o da hierarquia}{35}{subsection.4.1.1}}
\@writefile{brf}{\backcite{doi:2017}{{36}{a}{Item.36}}}
\@writefile{lof}{\contentsline {figure}{\numberline {4.2}{\ignorespaces Exemplo de configura\IeC {\c c}\IeC {\~a}o do arquivo config.txt\relax }}{37}{figure.caption.17}}
\newlabel{fig:config}{{4.2}{37}{Exemplo de configuração do arquivo config.txt\relax }{figure.caption.17}{}}
\@writefile{lof}{\contentsline {figure}{\numberline {4.3}{\ignorespaces Exemplo de associa\IeC {\c c}\IeC {\~a}o de um curr\IeC {\'\i }culo com um grupo da hierarquia\relax }}{38}{figure.caption.18}}
\newlabel{fig:associacaoconfig.txt}{{4.3}{38}{Exemplo de associação de um currículo com um grupo da hierarquia\relax }{figure.caption.18}{}}
\@writefile{lot}{\contentsline {table}{\numberline {4.1}{\ignorespaces Estrutura do arquivo \emph  {curriculos.csv}, para um exemplo de associa\IeC {\c c}\IeC {\~a}o com a hierarquia\relax }}{38}{table.caption.19}}
\newlabel{tab:exemploassociacao}{{4.1}{38}{Estrutura do arquivo \emph {curriculos.csv}, para um exemplo de associação com a hierarquia\relax }{table.caption.19}{}}
\@writefile{lof}{\contentsline {figure}{\numberline {4.4}{\ignorespaces Exemplo de hierarquia com associa\IeC {\c c}\IeC {\~a}o dos curr\IeC {\'\i }culos nos grupos\relax }}{39}{figure.caption.20}}
\newlabel{fig:exhieraquiaassociacao}{{4.4}{39}{Exemplo de hierarquia com associação dos currículos nos grupos\relax }{figure.caption.20}{}}
\@writefile{lot}{\contentsline {table}{\numberline {4.2}{\ignorespaces Estrutura do arquivo \emph  {curriculos.csv}\relax }}{40}{table.caption.21}}
\newlabel{tab:curriculo.csv}{{4.2}{40}{Estrutura do arquivo \emph {curriculos.csv}\relax }{table.caption.21}{}}
\@writefile{toc}{\contentsline {subsection}{\numberline {4.1.2}Gera\IeC {\c c}\IeC {\~a}o de Scripts}{40}{subsection.4.1.2}}
\@writefile{loa}{\contentsline {algorithm}{\numberline {1}{\ignorespaces Algoritmo para gera\IeC {\c c}\IeC {\~a}o dos arquivos de entrada do \emph  {ScriptLattes}, para cada curr\IeC {\'\i }culos dos grupos\relax }}{41}{algorithm.1}}
\newlabel{alg:algorithm-gerarEntradaScriptLattes}{{1}{41}{Algoritmo para geração dos arquivos de entrada do \emph {ScriptLattes}, para cada currículos dos grupos\relax }{algorithm.1}{}}
\@writefile{toc}{\contentsline {subsection}{\numberline {4.1.3}Gera\IeC {\c c}\IeC {\~a}o de relat\IeC {\'o}rios}{42}{subsection.4.1.3}}
\@writefile{toc}{\contentsline {section}{\numberline {4.2}Aplica\IeC {\c c}\IeC {\~a}o para cadastro da plataforma Sucupira}{42}{section.4.2}}
\@writefile{lof}{\contentsline {figure}{\numberline {4.5}{\ignorespaces Processo para construir hierarquia de curr\IeC {\'\i }culos\relax }}{43}{figure.caption.22}}
\newlabel{fig:hierarquiaScriptSucupira}{{4.5}{43}{Processo para construir hierarquia de currículos\relax }{figure.caption.22}{}}
\@writefile{toc}{\contentsline {subsection}{\numberline {4.2.1}Adapta\IeC {\c c}\IeC {\~a}o na parametriza\IeC {\c c}\IeC {\~a}o da hierarquia para o \emph  {ScriptSucupira}}{43}{subsection.4.2.1}}
\@writefile{lof}{\contentsline {figure}{\numberline {4.6}{\ignorespaces Processo de execu\IeC {\c c}\IeC {\~a}o \emph  {ScriptSucupira}\relax }}{44}{figure.caption.23}}
\newlabel{fig:ScriptSucupira}{{4.6}{44}{Processo de execução \emph {ScriptSucupira}\relax }{figure.caption.23}{}}
\@writefile{lof}{\contentsline {figure}{\numberline {4.7}{\ignorespaces Configura\IeC {\c c}\IeC {\~o}es dos par\IeC {\^a}metros do arquivo \emph  {config.txt} para adapta\IeC {\c c}\IeC {\~a}o do \emph  {ScriptSucupira}\relax }}{46}{figure.caption.24}}
\newlabel{fig:parametrosSucupira}{{4.7}{46}{Configurações dos parâmetros do arquivo \emph {config.txt} para adaptação do \emph {ScriptSucupira}\relax }{figure.caption.24}{}}
\citation{nigro2015uso}
\citation{nigro2017prestaccao}
\citation{ferraz2014use}
\citation{catani2002educaccao}
\@writefile{toc}{\contentsline {subsection}{\numberline {4.2.2}Resultados utilizando aplica\IeC {\c c}\IeC {\~a}o \emph  {ScriptSucupira}}{47}{subsection.4.2.2}}
\@writefile{brf}{\backcite{nigro2015uso}{{47}{4.2.2}{subsection.4.2.2}}}
\@writefile{brf}{\backcite{nigro2017prestaccao}{{47}{4.2.2}{subsection.4.2.2}}}
\@writefile{brf}{\backcite{ferraz2014use}{{47}{4.2.2}{subsection.4.2.2}}}
\@writefile{toc}{\contentsline {section}{\numberline {4.3}Aplica\IeC {\c c}\IeC {\~a}o para cadastro da plataforma e-Mec}{47}{section.4.3}}
\@writefile{brf}{\backcite{catani2002educaccao}{{47}{4.3}{section.4.3}}}
\citation{juliano2017}
\@writefile{lof}{\contentsline {figure}{\numberline {4.8}{\ignorespaces Processo para construir hierarquia de curr\IeC {\'\i }culos\relax }}{48}{figure.caption.25}}
\newlabel{fig:hierarquiaEMec}{{4.8}{48}{Processo para construir hierarquia de currículos\relax }{figure.caption.25}{}}
\citation{marcos2017}
\citation{maccari2009gestao}
\@writefile{toc}{\contentsline {subsection}{\numberline {4.3.1}Resultados utilizando aplica\IeC {\c c}\IeC {\~a}o \emph  {ScriptEMec}}{49}{subsection.4.3.1}}
\@writefile{brf}{\backcite{juliano2017}{{49}{4.3.1}{subsection.4.3.1}}}
\@writefile{brf}{\backcite{marcos2017}{{49}{4.3.1}{subsection.4.3.1}}}
\@writefile{toc}{\contentsline {section}{\numberline {4.4}Agrupamentos Hier\IeC {\'a}rquicos aplicados em programas de \penalty -\@M p\IeC {\'o}s-gradua\IeC {\c c}\IeC {\~a}o \emph  {stricto sensu}}{49}{section.4.4}}
\@writefile{brf}{\backcite{maccari2009gestao}{{49}{4.4}{section.4.4}}}
\@writefile{lof}{\contentsline {figure}{\numberline {4.9}{\ignorespaces Quantidades de Programas por nota Capes\relax }}{50}{figure.caption.26}}
\newlabel{fig:cursosQualis}{{4.9}{50}{Quantidades de Programas por nota Capes\relax }{figure.caption.26}{}}
\@writefile{toc}{\contentsline {subsection}{\numberline {4.4.1}Cria\IeC {\c c}\IeC {\~a}o dos dados}{50}{subsection.4.4.1}}
\@writefile{lof}{\contentsline {figure}{\numberline {4.10}{\ignorespaces Hierarquia de curr\IeC {\'\i }culos dos programas c\IeC {\^a}mera tem\IeC {\'a}tica de Engenharia/Tecnologia/Gest\IeC {\~a}o \relax }}{52}{figure.caption.27}}
\newlabel{fig:gerarDados}{{4.10}{52}{Hierarquia de currículos dos programas câmera temática de Engenharia/Tecnologia/Gestão \relax }{figure.caption.27}{}}
\citation{sguissardi2006avaliaccao}
\@writefile{lot}{\contentsline {table}{\numberline {4.3}{\ignorespaces Programas n\IeC {\~a}o extra\IeC {\'\i }dos\relax }}{53}{table.caption.28}}
\newlabel{tab:registrosnaoencontrados}{{4.3}{53}{Programas não extraídos\relax }{table.caption.28}{}}
\@writefile{toc}{\contentsline {subsection}{\numberline {4.4.2}Constru\IeC {\c c}\IeC {\~o}es dos agrupamentos hier\IeC {\'a}rquicos}{53}{subsection.4.4.2}}
\@writefile{brf}{\backcite{sguissardi2006avaliaccao}{{53}{4.4.2}{subsection.4.4.2}}}
\@writefile{toc}{\contentsline {subsubsection}{\numberline {4.4.2.1}Agrupamento Hier\IeC {\'a}rquico pelo indicador IndProdArt }{54}{subsubsection.4.4.2.1}}
\@writefile{lof}{\contentsline {figure}{\numberline {4.11}{\ignorespaces Resultado da execu\IeC {\c c}\IeC {\~a}o do \emph  {ScriptComp} com corte na hierarquia, para o indicador IndProdArt \relax }}{55}{figure.caption.29}}
\newlabel{fig:IndProdArt}{{4.11}{55}{Resultado da execução do \emph {ScriptComp} com corte na hierarquia, para o indicador IndProdArt \relax }{figure.caption.29}{}}
\@writefile{lot}{\contentsline {table}{\numberline {4.4}{\ignorespaces An\IeC {\'a}lise dos programas ap\IeC {\'o}s o agrupamento hier\IeC {\'a}rquico - IndProdArt\relax }}{56}{table.caption.30}}
\newlabel{tab:indProdArtAnalise}{{4.4}{56}{Análise dos programas após o agrupamento hierárquico - IndProdArt\relax }{table.caption.30}{}}
\@writefile{toc}{\contentsline {subsubsection}{\numberline {4.4.2.2}Agrupamento Hier\IeC {\'a}rquico pelo indicador IndProdArtSUP }{56}{subsubsection.4.4.2.2}}
\@writefile{lof}{\contentsline {figure}{\numberline {4.12}{\ignorespaces Resultado da execu\IeC {\c c}\IeC {\~a}o do \emph  {ScriptComp} com corte na hierarquia para o indicador IndProdArtSUP\relax }}{57}{figure.caption.31}}
\newlabel{fig:IndProdArtSUP}{{4.12}{57}{Resultado da execução do \emph {ScriptComp} com corte na hierarquia para o indicador IndProdArtSUP\relax }{figure.caption.31}{}}
\@writefile{lot}{\contentsline {table}{\numberline {4.5}{\ignorespaces An\IeC {\'a}lise dos programas ap\IeC {\'o}s o agrupamento hier\IeC {\'a}rquico - IndProdArtSUP \relax }}{58}{table.caption.32}}
\newlabel{tab:indProdSUPAnalise}{{4.5}{58}{Análise dos programas após o agrupamento hierárquico - IndProdArtSUP \relax }{table.caption.32}{}}
\@writefile{toc}{\contentsline {subsubsection}{\numberline {4.4.2.3}Agrupamento Hier\IeC {\'a}rquico pelo indicador IndProdOrient }{58}{subsubsection.4.4.2.3}}
\@writefile{lof}{\contentsline {figure}{\numberline {4.13}{\ignorespaces Resultado da execu\IeC {\c c}\IeC {\~a}o do \emph  {ScriptComp} com corte na hierarquia, para o indicador IndProdOrient\relax }}{59}{figure.caption.33}}
\newlabel{fig:IndProdOrient}{{4.13}{59}{Resultado da execução do \emph {ScriptComp} com corte na hierarquia, para o indicador IndProdOrient\relax }{figure.caption.33}{}}
\@writefile{toc}{\contentsline {subsubsection}{\numberline {4.4.2.4}Agrupamento Hier\IeC {\'a}rquico pelo indicador IndProd}{59}{subsubsection.4.4.2.4}}
\@writefile{lof}{\contentsline {figure}{\numberline {4.14}{\ignorespaces Resultado da execu\IeC {\c c}\IeC {\~a}o do ScriptComp com corte na hierarquia, para o indicador IndProd\relax }}{61}{figure.caption.34}}
\newlabel{fig:IndProd}{{4.14}{61}{Resultado da execução do ScriptComp com corte na hierarquia, para o indicador IndProd\relax }{figure.caption.34}{}}
\@writefile{lot}{\contentsline {table}{\numberline {4.6}{\ignorespaces An\IeC {\'a}lise dos programas ap\IeC {\'o}s o agrupamento hier\IeC {\'a}rquico - IndProd \relax }}{61}{table.caption.35}}
\newlabel{tab:indProdAnalise}{{4.6}{61}{Análise dos programas após o agrupamento hierárquico - IndProd \relax }{table.caption.35}{}}
\@setckpt{aplicacao}{
\setcounter{page}{63}
\setcounter{equation}{7}
\setcounter{enumi}{4}
\setcounter{enumii}{4}
\setcounter{enumiii}{0}
\setcounter{enumiv}{0}
\setcounter{footnote}{0}
\setcounter{mpfootnote}{0}
\setcounter{part}{0}
\setcounter{chapter}{4}
\setcounter{section}{4}
\setcounter{subsection}{2}
\setcounter{subsubsection}{4}
\setcounter{paragraph}{0}
\setcounter{subparagraph}{0}
\setcounter{figure}{14}
\setcounter{table}{6}
\setcounter{lstnumber}{1}
\setcounter{btxromaniannumeral}{0}
\setcounter{ContinuedFloat}{0}
\setcounter{Item}{60}
\setcounter{Hfootnote}{2}
\setcounter{bookmark@seq@number}{41}
\setcounter{ABCIaux}{0}
\setcounter{ABCImax}{0}
\setcounter{parentequation}{0}
\setcounter{lofdepth}{1}
\setcounter{lotdepth}{1}
\setcounter{definition}{0}
\setcounter{proposition}{0}
\setcounter{algorithms}{0}
\setcounter{theorem}{0}
\setcounter{float@type}{16}
\setcounter{subfigure}{0}
\setcounter{subtable}{0}
\setcounter{algorithm}{1}
\setcounter{ALG@line}{20}
\setcounter{ALG@rem}{0}
\setcounter{ALG@nested}{0}
\setcounter{ALG@Lnr}{2}
\setcounter{ALG@blocknr}{10}
\setcounter{ALG@storecount}{0}
\setcounter{ALG@tmpcounter}{0}
\setcounter{lstlisting}{0}
\setcounter{section@level}{0}
}
