\relax 
\providecommand\hyper@newdestlabel[2]{}
\@writefile{lot}{\contentsline {table}{\numberline {1.4}{\ignorespaces Agrupamento $3.6$ ap\IeC {\'o}s corte na hierarquia\relax }}{34}{table.caption.22}}
\newlabel{tab:programasagrupados1}{{1.4}{34}{Agrupamento $3.6$ após corte na hierarquia\relax }{table.caption.22}{}}
\@writefile{lot}{\contentsline {table}{\numberline {1.5}{\ignorespaces Agrupamento $2.5$ ap\IeC {\'o}s corte na hierarquia\relax }}{34}{table.caption.23}}
\newlabel{tab:programasagrupados2}{{1.5}{34}{Agrupamento $2.5$ após corte na hierarquia\relax }{table.caption.23}{}}
\@writefile{lot}{\contentsline {table}{\numberline {1.6}{\ignorespaces Agrupamento $1.7$ ap\IeC {\'o}s corte na hierarquia\relax }}{34}{table.caption.24}}
\newlabel{tab:programasagrupados3}{{1.6}{34}{Agrupamento $1.7$ após corte na hierarquia\relax }{table.caption.24}{}}
\@writefile{lot}{\contentsline {table}{\numberline {1.7}{\ignorespaces Agrupamento $0.9$ ap\IeC {\'o}s corte na hierarquia\relax }}{35}{table.caption.25}}
\newlabel{tab:programasagrupados4}{{1.7}{35}{Agrupamento $0.9$ após corte na hierarquia\relax }{table.caption.25}{}}
\@writefile{lot}{\contentsline {table}{\numberline {1.8}{\ignorespaces Programas \IeC {\'a}rea interdisciplinar com conceito CAPES $2$\relax }}{35}{table.caption.26}}
\newlabel{tab:classificacao2}{{1.8}{35}{Programas área interdisciplinar com conceito CAPES $2$\relax }{table.caption.26}{}}
\@writefile{lot}{\contentsline {table}{\numberline {1.9}{\ignorespaces Programas \IeC {\'a}rea interdisciplinar com conceito CAPES $3$\relax }}{36}{table.caption.27}}
\newlabel{tab:classificacao3}{{1.9}{36}{Programas área interdisciplinar com conceito CAPES $3$\relax }{table.caption.27}{}}
\@writefile{lot}{\contentsline {table}{\numberline {1.10}{\ignorespaces Programas \IeC {\'a}rea interdisciplinar com conceito CAPES $4$\relax }}{37}{table.caption.28}}
\newlabel{tab:classificacao4}{{1.10}{37}{Programas área interdisciplinar com conceito CAPES $4$\relax }{table.caption.28}{}}
\@writefile{lot}{\contentsline {table}{\numberline {1.11}{\ignorespaces Programa \IeC {\'a}rea interdisciplinar com conceito CAPES $5$\relax }}{37}{table.caption.29}}
\newlabel{tab:classificacao5}{{1.11}{37}{Programa área interdisciplinar com conceito CAPES $5$\relax }{table.caption.29}{}}
\@writefile{lot}{\contentsline {table}{\numberline {1.12}{\ignorespaces Programa \IeC {\'a}rea interdisciplinar com conceito CAPES $6$\relax }}{38}{table.caption.30}}
\newlabel{tab:classificacao6}{{1.12}{38}{Programa área interdisciplinar com conceito CAPES $6$\relax }{table.caption.30}{}}
\@setckpt{anexo}{
\setcounter{page}{39}
\setcounter{equation}{8}
\setcounter{enumi}{4}
\setcounter{enumii}{3}
\setcounter{enumiii}{0}
\setcounter{enumiv}{0}
\setcounter{footnote}{0}
\setcounter{mpfootnote}{0}
\setcounter{part}{0}
\setcounter{chapter}{1}
\setcounter{section}{4}
\setcounter{subsection}{1}
\setcounter{subsubsection}{0}
\setcounter{paragraph}{0}
\setcounter{subparagraph}{0}
\setcounter{figure}{12}
\setcounter{table}{12}
\setcounter{lstnumber}{1}
\setcounter{btxromaniannumeral}{0}
\setcounter{ContinuedFloat}{0}
\setcounter{Item}{10}
\setcounter{Hfootnote}{0}
\setcounter{bookmark@seq@number}{16}
\setcounter{ABCIaux}{0}
\setcounter{ABCImax}{0}
\setcounter{parentequation}{0}
\setcounter{lofdepth}{1}
\setcounter{lotdepth}{1}
\setcounter{definition}{0}
\setcounter{proposition}{0}
\setcounter{theorem}{0}
\setcounter{float@type}{16}
\setcounter{algorithm}{1}
\setcounter{ALG@line}{23}
\setcounter{ALG@rem}{0}
\setcounter{ALG@nested}{0}
\setcounter{ALG@Lnr}{2}
\setcounter{ALG@blocknr}{10}
\setcounter{ALG@storecount}{0}
\setcounter{ALG@tmpcounter}{0}
\setcounter{lstlisting}{0}
\setcounter{section@level}{0}
}
