\relax 
\providecommand\hyper@newdestlabel[2]{}
\@writefile{toc}{\contentsline {chapter}{\numberline {1}Aplica\IeC {\c c}\IeC {\~o}es e resultados}{11}{chapter.1}}
\@writefile{lof}{\addvspace {10\p@ }}
\@writefile{lot}{\addvspace {10\p@ }}
\@writefile{toc}{\contentsline {section}{\numberline {1.1}Hierarquia de curr\IeC {\'\i }culos}{11}{section.1.1}}
\@writefile{lof}{\contentsline {figure}{\numberline {1.1}{\ignorespaces Processo para construir hierarquia de curr\IeC {\'\i }culos\relax }}{11}{figure.caption.5}}
\providecommand*\caption@xref[2]{\@setref\relax\@undefined{#1}}
\newlabel{fig:scripthierarquico}{{1.1}{11}{Processo para construir hierarquia de currículos\relax }{figure.caption.5}{}}
\@writefile{toc}{\contentsline {subsection}{\numberline {1.1.1}Parametriza\IeC {\c c}\IeC {\~a}o da hierarquia}{12}{subsection.1.1.1}}
\newlabel{tab:config.txt}{{\caption@xref {tab:config.txt}{ on input line 82}}{13}{Parametrização da hierarquia}{figure.caption.6}{}}
\@writefile{lof}{\contentsline {figure}{\numberline {1.2}{\ignorespaces Processo para construir hierarquia de curr\IeC {\'\i }culos\relax }}{13}{figure.caption.6}}
\@writefile{lot}{\contentsline {table}{\numberline {1.1}{\ignorespaces Estrutura do arquivo \emph  {curriculos.csv}\relax }}{14}{table.caption.7}}
\newlabel{tab:curriculo.csv}{{1.1}{14}{Estrutura do arquivo \emph {curriculos.csv}\relax }{table.caption.7}{}}
\@writefile{toc}{\contentsline {subsection}{\numberline {1.1.2}Gera\IeC {\c c}\IeC {\~a}o de Scripts}{14}{subsection.1.1.2}}
\@writefile{loa}{\contentsline {algorithm}{\numberline {1}{\ignorespaces Algoritmo para gera\IeC {\c c}\IeC {\~a}o dos arquivos de entrada do ScriptLattes, para cada curr\IeC {\'\i }culos dos grupos\relax }}{15}{algorithm.1}}
\newlabel{alg:algorithm-gerarEntradaScriptLattes}{{1}{15}{Algoritmo para geração dos arquivos de entrada do ScriptLattes, para cada currículos dos grupos\relax }{algorithm.1}{}}
\@writefile{toc}{\contentsline {subsection}{\numberline {1.1.3}Gera\IeC {\c c}\IeC {\~a}o de relat\IeC {\'o}rios}{16}{subsection.1.1.3}}
\@writefile{toc}{\contentsline {section}{\numberline {1.2}Aplica\IeC {\c c}\IeC {\~a}o para cadastro da plataforma Sucupira}{16}{section.1.2}}
\@writefile{lof}{\contentsline {figure}{\numberline {1.3}{\ignorespaces Processo para construir hierarquia de curr\IeC {\'\i }culos\relax }}{17}{figure.caption.8}}
\newlabel{fig:hierarquiaScriptSucupira}{{1.3}{17}{Processo para construir hierarquia de currículos\relax }{figure.caption.8}{}}
\@writefile{toc}{\contentsline {subsection}{\numberline {1.2.1}Adapta\IeC {\c c}\IeC {\~a}o na parametriza\IeC {\c c}\IeC {\~a}o da hierarquia para o ScriptSucupira}{17}{subsection.1.2.1}}
\@writefile{lof}{\contentsline {figure}{\numberline {1.4}{\ignorespaces Processo de execu\IeC {\c c}\IeC {\~a}o ScriptSucupira\relax }}{18}{figure.caption.9}}
\newlabel{fig:ScriptSucupira}{{1.4}{18}{Processo de execução ScriptSucupira\relax }{figure.caption.9}{}}
\newlabel{tab:parametros}{{\caption@xref {tab:parametros}{ on input line 280}}{20}{Adaptação na parametrização da hierarquia para o ScriptSucupira}{figure.caption.10}{}}
\@writefile{lof}{\contentsline {figure}{\numberline {1.5}{\ignorespaces Processo para construir hierarquia de curr\IeC {\'\i }culos do ScriptSucupira\relax }}{20}{figure.caption.10}}
\citation{nigro2015uso}
\citation{nigro2017prestaccao}
\citation{ferraz2014use}
\citation{catani2002educaccao}
\@writefile{toc}{\contentsline {subsection}{\numberline {1.2.2}Resultados utilizando aplica\IeC {\c c}\IeC {\~a}o ScriptSucupira}{21}{subsection.1.2.2}}
\@writefile{brf}{\backcite{nigro2015uso}{{21}{1.2.2}{subsection.1.2.2}}}
\@writefile{brf}{\backcite{nigro2017prestaccao}{{21}{1.2.2}{subsection.1.2.2}}}
\@writefile{brf}{\backcite{ferraz2014use}{{21}{1.2.2}{subsection.1.2.2}}}
\@writefile{toc}{\contentsline {section}{\numberline {1.3}Aplica\IeC {\c c}\IeC {\~a}o para cadastro da plataforma e-Mec}{21}{section.1.3}}
\@writefile{brf}{\backcite{catani2002educaccao}{{21}{1.3}{section.1.3}}}
\citation{juliano2017}
\@writefile{lof}{\contentsline {figure}{\numberline {1.6}{\ignorespaces Exemplo da \IeC {\'a}rvore de hierarquias\relax }}{22}{figure.caption.11}}
\newlabel{fig:hierarquiaScriptEMEC}{{1.6}{22}{Exemplo da árvore de hierarquias\relax }{figure.caption.11}{}}
\citation{marcos2017}
\citation{maccari2009gestao}
\@writefile{toc}{\contentsline {subsection}{\numberline {1.3.1}Resultados utilizando as ferramentas ScriptSucupira e ScriptEMec}{23}{subsection.1.3.1}}
\@writefile{brf}{\backcite{juliano2017}{{23}{1.3.1}{subsection.1.3.1}}}
\@writefile{brf}{\backcite{marcos2017}{{23}{1.3.1}{subsection.1.3.1}}}
\@writefile{toc}{\contentsline {section}{\numberline {1.4}ScriptComp}{23}{section.1.4}}
\@writefile{brf}{\backcite{maccari2009gestao}{{23}{1.4}{section.1.4}}}
\@writefile{lot}{\contentsline {table}{\numberline {1.2}{\ignorespaces Exemplo de c\IeC {\'a}lculo dos programas para o indicador IndProdOrient\relax }}{26}{table.caption.12}}
\newlabel{tab:scriptCompEx}{{1.2}{26}{Exemplo de cálculo dos programas para o indicador IndProdOrient\relax }{table.caption.12}{}}
\@writefile{lof}{\contentsline {figure}{\numberline {1.7}{\ignorespaces Processo de execu\IeC {\c c}\IeC {\~a}o ScriptComp\relax }}{27}{figure.caption.13}}
\newlabel{fig:ScriptCompExDend}{{1.7}{27}{Processo de execução ScriptComp\relax }{figure.caption.13}{}}
\@writefile{lof}{\contentsline {figure}{\numberline {1.8}{\ignorespaces Processo de execu\IeC {\c c}\IeC {\~a}o ScriptComp\relax }}{27}{figure.caption.14}}
\newlabel{fig:ScriptComp}{{1.8}{27}{Processo de execução ScriptComp\relax }{figure.caption.14}{}}
\@writefile{toc}{\contentsline {subsection}{\numberline {1.4.1}Resultados utilizando a ferramenta ScriptComp}{28}{subsection.1.4.1}}
\@writefile{lof}{\contentsline {figure}{\numberline {1.9}{\ignorespaces Quantidades de Programas por nota Capes\relax }}{28}{figure.caption.15}}
\newlabel{fig:cursosQualis}{{1.9}{28}{Quantidades de Programas por nota Capes\relax }{figure.caption.15}{}}
\@writefile{lot}{\contentsline {table}{\numberline {1.3}{\ignorespaces Programas n\IeC {\~a}o extra\IeC {\'\i }dos\relax }}{29}{table.caption.16}}
\newlabel{tab:registrosnaoencontrados}{{1.3}{29}{Programas não extraídos\relax }{table.caption.16}{}}
\@writefile{lof}{\contentsline {figure}{\numberline {1.10}{\ignorespaces Resultado da execu\IeC {\c c}\IeC {\~a}o do ScriptComp, utilizando o indicador IndProdArt para o ano de 2016.\relax }}{30}{figure.caption.17}}
\newlabel{fig:indProdArt2016}{{1.10}{30}{Resultado da execução do ScriptComp, utilizando o indicador IndProdArt para o ano de 2016.\relax }{figure.caption.17}{}}
\@writefile{lof}{\contentsline {figure}{\numberline {1.11}{\ignorespaces Resultado da execu\IeC {\c c}\IeC {\~a}o do ScriptComp com corte na hierarquia\relax }}{31}{figure.caption.18}}
\newlabel{fig:indProdArt2016_TS}{{1.11}{31}{Resultado da execução do ScriptComp com corte na hierarquia\relax }{figure.caption.18}{}}
\@writefile{lof}{\contentsline {figure}{\numberline {1.12}{\ignorespaces C\IeC {\'a}lculo da m\IeC {\'e}dia pelas notas CAPES dos agrupamentos\relax }}{32}{figure.caption.19}}
\newlabel{fig:mediaAgrupamento}{{1.12}{32}{Cálculo da média pelas notas CAPES dos agrupamentos\relax }{figure.caption.19}{}}
\@setckpt{aplicacao}{
\setcounter{page}{33}
\setcounter{equation}{8}
\setcounter{enumi}{4}
\setcounter{enumii}{3}
\setcounter{enumiii}{0}
\setcounter{enumiv}{0}
\setcounter{footnote}{0}
\setcounter{mpfootnote}{0}
\setcounter{part}{0}
\setcounter{chapter}{1}
\setcounter{section}{4}
\setcounter{subsection}{1}
\setcounter{subsubsection}{0}
\setcounter{paragraph}{0}
\setcounter{subparagraph}{0}
\setcounter{figure}{12}
\setcounter{table}{3}
\setcounter{lstnumber}{1}
\setcounter{btxromaniannumeral}{0}
\setcounter{ContinuedFloat}{0}
\setcounter{Item}{10}
\setcounter{Hfootnote}{0}
\setcounter{bookmark@seq@number}{15}
\setcounter{ABCIaux}{0}
\setcounter{ABCImax}{0}
\setcounter{parentequation}{0}
\setcounter{lofdepth}{1}
\setcounter{lotdepth}{1}
\setcounter{definition}{0}
\setcounter{proposition}{0}
\setcounter{theorem}{0}
\setcounter{float@type}{16}
\setcounter{algorithm}{1}
\setcounter{ALG@line}{23}
\setcounter{ALG@rem}{0}
\setcounter{ALG@nested}{0}
\setcounter{ALG@Lnr}{2}
\setcounter{ALG@blocknr}{10}
\setcounter{ALG@storecount}{0}
\setcounter{ALG@tmpcounter}{0}
\setcounter{lstlisting}{0}
\setcounter{section@level}{0}
}
