\relax 
\providecommand\hyper@newdestlabel[2]{}
\catcode `"\active 
\providecommand\HyperFirstAtBeginDocument{\AtBeginDocument}
\HyperFirstAtBeginDocument{\ifx\hyper@anchor\@undefined
\global\let\oldcontentsline\contentsline
\gdef\contentsline#1#2#3#4{\oldcontentsline{#1}{#2}{#3}}
\global\let\oldnewlabel\newlabel
\gdef\newlabel#1#2{\newlabelxx{#1}#2}
\gdef\newlabelxx#1#2#3#4#5#6{\oldnewlabel{#1}{{#2}{#3}}}
\AtEndDocument{\ifx\hyper@anchor\@undefined
\let\contentsline\oldcontentsline
\let\newlabel\oldnewlabel
\fi}
\fi}
\global\let\hyper@last\relax 
\gdef\HyperFirstAtBeginDocument#1{#1}
\providecommand\HyField@AuxAddToFields[1]{}
\providecommand\HyField@AuxAddToCoFields[2]{}
\citation{abnt-url-package=url}
\select@language{brazil}
\@writefile{toc}{\select@language{brazil}}
\@writefile{lof}{\select@language{brazil}}
\@writefile{lot}{\select@language{brazil}}
\@input{folhaDeAprovacao.aux}
\@input{resumo.aux}
\@input{abstract.aux}
\@writefile{toc}{\contentsline {chapter}{Lista de Figuras}{7}{chapter*.2}}
\@writefile{toc}{\contentsline {chapter}{Lista de Tabelas}{8}{chapter*.3}}
\@writefile{toc}{\contentsline {chapter}{Lista de S\IeC {\'\i }mbolos}{9}{chapter*.4}}
\@input{aplicacao.aux}
\bibdata{abntex2-options,refs-bib}
\bibcite{juliano2017}{Bavaresco 2017}
\bibciteEXPL{juliano2017}{Bavaresco}
\bibciteIMPL{juliano2017}{BAVARESCO}
\bibciteYEAR{juliano2017}{2017}
\bibcite{catani2002educaccao}{Catani e OLIVEIRA 2002}
\bibciteEXPL{catani2002educaccao}{Catani e OLIVEIRA}
\bibciteIMPL{catani2002educaccao}{CATANI; OLIVEIRA}
\bibciteYEAR{catani2002educaccao}{2002}
\bibcite{ferraz2014use}{Ferraz, Quoniam e Maccari 2014}
\bibciteEXPL{ferraz2014use}{Ferraz, Quoniam e Maccari}
\bibciteIMPL{ferraz2014use}{FERRAZ; QUONIAM; MACCARI}
\bibciteYEAR{ferraz2014use}{2014}
\bibcite{maccari2009gestao}{Maccari et al. 2009}
\bibciteEXPL{maccari2009gestao}{Maccari et al.}
\bibciteIMPL{maccari2009gestao}{MACCARI et al.}
\bibciteYEAR{maccari2009gestao}{2009}
\bibcite{nigro2015uso}{NIGRO et al. 2015}
\bibciteEXPL{nigro2015uso}{NIGRO et al.}
\bibciteIMPL{nigro2015uso}{NIGRO et al.}
\bibciteYEAR{nigro2015uso}{2015}
\bibcite{nigro2017prestaccao}{Nigro et al. 2017}
\bibciteEXPL{nigro2017prestaccao}{Nigro et al.}
\bibciteIMPL{nigro2017prestaccao}{NIGRO et al.}
\bibciteYEAR{nigro2017prestaccao}{2017}
\bibcite{marcos2017}{Silva 2017}
\bibciteEXPL{marcos2017}{Silva}
\bibciteIMPL{marcos2017}{SILVA}
\bibciteYEAR{marcos2017}{2017}
\@writefile{toc}{\contentsline {chapter}{Refer\^encias Bibliogr\'aficas}{33}{chapter*.20}}
\@input{anexo.aux}
\bibstyle{abntex2-alf}
\ttl@finishall
