\BOOKMARK [0][]{chapter*.2}{Lista de Figuras}{}% 1
\BOOKMARK [0][]{chapter*.3}{Lista de Tabelas}{}% 2
\BOOKMARK [0][]{chapter*.4}{Lista de S\355mbolos}{}% 3
\BOOKMARK [0][]{chapter.1}{Aplica\347\365es e resultados}{}% 4
\BOOKMARK [1][]{section.1.1}{Hierarquia de curr\355culos}{chapter.1}% 5
\BOOKMARK [2][]{subsection.1.1.1}{Parametriza\347\343o da hierarquia}{section.1.1}% 6
\BOOKMARK [2][]{subsection.1.1.2}{Gera\347\343o de Scripts}{section.1.1}% 7
\BOOKMARK [2][]{subsection.1.1.3}{Gera\347\343o de relat\363rios}{section.1.1}% 8
\BOOKMARK [1][]{section.1.2}{Aplica\347\343o para cadastro da plataforma Sucupira}{chapter.1}% 9
\BOOKMARK [2][]{subsection.1.2.1}{Adapta\347\343o na parametriza\347\343o da hierarquia para o ScriptSucupira}{section.1.2}% 10
\BOOKMARK [2][]{subsection.1.2.2}{Resultados utilizando aplica\347\343o ScriptSucupira}{section.1.2}% 11
\BOOKMARK [1][]{section.1.3}{Aplica\347\343o para cadastro da plataforma e-Mec}{chapter.1}% 12
\BOOKMARK [2][]{subsection.1.3.1}{Resultados utilizando as ferramentas ScriptSucupira e ScriptEMec}{section.1.3}% 13
\BOOKMARK [1][]{section.1.4}{ScriptComp}{chapter.1}% 14
\BOOKMARK [2][]{subsection.1.4.1}{Resultados utilizando a ferramenta ScriptComp}{section.1.4}% 15
\BOOKMARK [0][]{chapter*.20}{Refer\352ncias Bibliogr\341ficas}{}% 16
