\relax 
\providecommand\hyper@newdestlabel[2]{}
\citation{bishop2006pattern}
\citation{monard2003conceitos}
\citation{mena2013prospecccao}
\citation{Duda:2000}
\citation{friedman}
\@writefile{toc}{\contentsline {chapter}{\numberline {3}Agrupamentos hier\IeC {\'a}rquicos a partir de relat\IeC {\'o}rios gerados pelo ScriptLattes}{28}{chapter.3}}
\@writefile{lof}{\addvspace {10\p@ }}
\@writefile{lot}{\addvspace {10\p@ }}
\@writefile{brf}{\backcite{bishop2006pattern}{{28}{3}{chapter.3}}}
\@writefile{brf}{\backcite{monard2003conceitos}{{28}{3}{chapter.3}}}
\@writefile{brf}{\backcite{mena2013prospecccao}{{28}{3}{chapter.3}}}
\@writefile{toc}{\contentsline {section}{\numberline {3.1}Agrupamento Hier\IeC {\'a}rquico}{28}{section.3.1}}
\@writefile{brf}{\backcite{Duda:2000,friedman}{{28}{3.1}{section.3.1}}}
\@writefile{brf}{\backcite{Duda:2000,friedman}{{28}{3.1}{section.3.1}}}
\citation{Duda:2000}
\citation{friedman}
\@writefile{brf}{\backcite{Duda:2000,friedman}{{29}{3.1}{section.3.1}}}
\@writefile{brf}{\backcite{Duda:2000,friedman}{{29}{3.1}{section.3.1}}}
\@writefile{toc}{\contentsline {section}{\numberline {3.2}Agrupamento Hier\IeC {\'a}rquico de curr\IeC {\'\i }culos Lattes}{29}{section.3.2}}
\citation{brualdi2012introductory}
\citation{newman1992elements}
\@writefile{brf}{\backcite{brualdi2012introductory,newman1992elements}{{30}{3.2}{equation.3.2.7}}}
\@writefile{brf}{\backcite{brualdi2012introductory,newman1992elements}{{30}{3.2}{equation.3.2.7}}}
\@writefile{lof}{\contentsline {figure}{\numberline {3.1}{\ignorespaces Exemplo: ramifica\IeC {\c c}\IeC {\~o}es do diagrama Hasse $(\mathcal  {T}, \preceq )$.\relax }}{30}{figure.caption.12}}
\newlabel{fig:hasse}{{3.1}{30}{Exemplo: ramificações do diagrama Hasse $(\mathcal {T}, \preceq )$.\relax }{figure.caption.12}{}}
\newlabel{sec:proposedMethod}{{3.2}{30}{Agrupamento Hierárquico de currículos Lattes}{figure.caption.12}{}}
\@writefile{lot}{\contentsline {table}{\numberline {3.1}{\ignorespaces Estrutura do conjunto de dados\relax }}{31}{table.caption.13}}
\newlabel{tab:dataset}{{3.1}{31}{Estrutura do conjunto de dados\relax }{table.caption.13}{}}
\@writefile{lof}{\contentsline {figure}{\numberline {3.2}{\ignorespaces Dendrograma do Agrupamento Hier\IeC {\'a}rquico\relax }}{32}{figure.caption.14}}
\newlabel{fig:dendrogram}{{3.2}{32}{Dendrograma do Agrupamento Hierárquico\relax }{figure.caption.14}{}}
\@setckpt{agrupamentoHierarquico}{
\setcounter{page}{33}
\setcounter{equation}{9}
\setcounter{enumi}{3}
\setcounter{enumii}{0}
\setcounter{enumiii}{0}
\setcounter{enumiv}{0}
\setcounter{footnote}{0}
\setcounter{mpfootnote}{0}
\setcounter{part}{0}
\setcounter{chapter}{3}
\setcounter{section}{2}
\setcounter{subsection}{0}
\setcounter{subsubsection}{0}
\setcounter{paragraph}{0}
\setcounter{subparagraph}{0}
\setcounter{figure}{2}
\setcounter{table}{1}
\setcounter{lstnumber}{1}
\setcounter{btxromaniannumeral}{0}
\setcounter{ContinuedFloat}{0}
\setcounter{Item}{12}
\setcounter{Hfootnote}{1}
\setcounter{bookmark@seq@number}{22}
\setcounter{ABCIaux}{0}
\setcounter{ABCImax}{0}
\setcounter{parentequation}{0}
\setcounter{lofdepth}{1}
\setcounter{lotdepth}{1}
\setcounter{definition}{0}
\setcounter{proposition}{0}
\setcounter{algorithm}{0}
\setcounter{theorem}{0}
\setcounter{float@type}{8}
\setcounter{lstlisting}{0}
\setcounter{section@level}{0}
}
