\relax 
\providecommand\hyper@newdestlabel[2]{}
\@writefile{toc}{\contentsline {chapter}{\numberline {4}Aplica\IeC {\c c}\IeC {\~o}es e resultados}{33}{chapter.4}}
\@writefile{lof}{\addvspace {10\p@ }}
\@writefile{lot}{\addvspace {10\p@ }}
\@writefile{toc}{\contentsline {section}{\numberline {4.1}ScriptSucupira}{33}{section.4.1}}
\@writefile{lof}{\contentsline {figure}{\numberline {4.1}{\ignorespaces Exemplos de agrupamentos hier\IeC {\'a}rquicos\relax }}{34}{figure.caption.15}}
\newlabel{fig:exemploAH}{{4.1}{34}{Exemplos de agrupamentos hierárquicos\relax }{figure.caption.15}{}}
\@writefile{lof}{\contentsline {figure}{\numberline {4.2}{\ignorespaces Exemplo da \IeC {\'a}rvore de hierarquias\relax }}{34}{figure.caption.16}}
\newlabel{fig:exemploHierarquia}{{4.2}{34}{Exemplo da árvore de hierarquias\relax }{figure.caption.16}{}}
\@writefile{lot}{\contentsline {table}{\numberline {4.1}{\ignorespaces Par\IeC {\^a}metros de configura\IeC {\c c}\IeC {\~o}es do ScriptSucupira\relax }}{35}{table.caption.17}}
\newlabel{tab:parametros}{{4.1}{35}{Parâmetros de configurações do ScriptSucupira\relax }{table.caption.17}{}}
\@writefile{lof}{\contentsline {figure}{\numberline {4.3}{\ignorespaces Processo de execu\IeC {\c c}\IeC {\~a}o ScriptSucupira\relax }}{37}{figure.caption.18}}
\newlabel{fig:ScriptSucupira}{{4.3}{37}{Processo de execução ScriptSucupira\relax }{figure.caption.18}{}}
\@writefile{toc}{\contentsline {subsection}{\numberline {4.1.1}Resultados utilizando o ScriptSucupira}{37}{subsection.4.1.1}}
\@writefile{lof}{\contentsline {figure}{\numberline {4.4}{\ignorespaces Quadri\IeC {\^e}nio completo dos programa de p\IeC {\'o}s-gradua\IeC {\c c}\IeC {\~a}o \emph  {stricto sensu} Universidade Nove de Julho-UNINOVE\relax }}{38}{figure.caption.19}}
\newlabel{fig:ScriptSucupiraResultadoSaudeT2013T2016}{{4.4}{38}{Quadriênio completo dos programa de pós-graduação \emph {stricto sensu} Universidade Nove de Julho-UNINOVE\relax }{figure.caption.19}{}}
\@writefile{lof}{\contentsline {figure}{\numberline {4.5}{\ignorespaces Agrupamento hier\IeC {\'a}rquico do per\IeC {\'\i }odo quadrienal $\mathcal  {T}^{2013-2016}$, do programa de p\IeC {\'o}s-gradua\IeC {\c c}\IeC {\~a}o \emph  {stricto sensu} em Sa\IeC {\'u}de da Universidade Nove de Julho-UNINOVE\relax }}{38}{figure.caption.20}}
\newlabel{fig:ScriptSucupiraResultadoSaudeCompleto}{{4.5}{38}{Agrupamento hierárquico do período quadrienal $\mathcal {T}^{2013-2016}$, do programa de pós-graduação \emph {stricto sensu} em Saúde da Universidade Nove de Julho-UNINOVE\relax }{figure.caption.20}{}}
\@writefile{lof}{\contentsline {figure}{\numberline {4.6}{\ignorespaces Relat\IeC {\'o}rio consolidado gerado pelo ScriptLattes do agrupamento hier\IeC {\'a}rquico no quadri\IeC {\^e}nio Julho-UNINOVE $\mathcal  {T}^{2013-2016}$, do programa de p\IeC {\'o}s-gradua\IeC {\c c}\IeC {\~a}o \emph  {stricto sensu} em Sa\IeC {\'u}de da Universidade Nove de Julho-UNINOVE\relax }}{39}{figure.caption.21}}
\newlabel{fig:ScriptSucupiraResultadoIndividual}{{4.6}{39}{Relatório consolidado gerado pelo ScriptLattes do agrupamento hierárquico no quadriênio Julho-UNINOVE $\mathcal {T}^{2013-2016}$, do programa de pós-graduação \emph {stricto sensu} em Saúde da Universidade Nove de Julho-UNINOVE\relax }{figure.caption.21}{}}
\@writefile{lof}{\contentsline {figure}{\numberline {4.7}{\ignorespaces Relat\IeC {\'o}rio consolidado gerado pelo ScriptLattes do agrupamento hier\IeC {\'a}rquico no quadri\IeC {\^e}nio $\mathcal  {T}^{2013-2016}$, do programa de p\IeC {\'o}s-gradua\IeC {\c c}\IeC {\~a}o \emph  {stricto sensu} em Sa\IeC {\'u}de da Universidade Nove de Julho-UNINOVE\relax }}{39}{figure.caption.22}}
\newlabel{fig:ScriptSucupiraResultadoSaudeScritpLattesConsolidado}{{4.7}{39}{Relatório consolidado gerado pelo ScriptLattes do agrupamento hierárquico no quadriênio $\mathcal {T}^{2013-2016}$, do programa de pós-graduação \emph {stricto sensu} em Saúde da Universidade Nove de Julho-UNINOVE\relax }{figure.caption.22}{}}
\@writefile{lof}{\contentsline {figure}{\numberline {4.8}{\ignorespaces Quadri\IeC {\^e}nio completo do programa de p\IeC {\'o}s-gradua\IeC {\c c}\IeC {\~a}o \emph  {stricto sensu} em Inform\IeC {\'a}tica e Gest\IeC {\~a}o do Conhecimento da Universidade Nove de Julho-UNINOVE\relax }}{40}{figure.caption.23}}
\newlabel{fig:ScriptSucupiraResultadoPPGIT2013T2016}{{4.8}{40}{Quadriênio completo do programa de pós-graduação \emph {stricto sensu} em Informática e Gestão do Conhecimento da Universidade Nove de Julho-UNINOVE\relax }{figure.caption.23}{}}
\@writefile{lof}{\contentsline {figure}{\numberline {4.9}{\ignorespaces Agrupamento hier\IeC {\'a}rquico do per\IeC {\'\i }odo quadrienal $\mathcal  {T}^{2013-2016}$, do programa de p\IeC {\'o}s-gradua\IeC {\c c}\IeC {\~a}o \emph  {stricto sensu} em Inform\IeC {\'a}tica e Gest\IeC {\~a}o do Conhecimento da Universidade Nove de Julho-UNINOVE\relax }}{41}{figure.caption.24}}
\newlabel{fig:ScriptSucupiraResultadoPPGICompleto}{{4.9}{41}{Agrupamento hierárquico do período quadrienal $\mathcal {T}^{2013-2016}$, do programa de pós-graduação \emph {stricto sensu} em Informática e Gestão do Conhecimento da Universidade Nove de Julho-UNINOVE\relax }{figure.caption.24}{}}
\@writefile{lof}{\contentsline {figure}{\numberline {4.10}{\ignorespaces Relat\IeC {\'o}rio consolidado gerado pelo ScriptLattes do agrupamento hier\IeC {\'a}rquico no quadri\IeC {\^e}nio Julho-UNINOVE $\mathcal  {T}^{2013-2016}$, do programa de p\IeC {\'o}s-gradua\IeC {\c c}\IeC {\~a}o \emph  {stricto sensu} em Inform\IeC {\'a}tica e Gest\IeC {\~a}o do Conhecimento da Universidade Nove de Julho-UNINOVE\relax }}{42}{figure.caption.25}}
\newlabel{fig:ScriptSucupiraResultadoIndividual}{{4.10}{42}{Relatório consolidado gerado pelo ScriptLattes do agrupamento hierárquico no quadriênio Julho-UNINOVE $\mathcal {T}^{2013-2016}$, do programa de pós-graduação \emph {stricto sensu} em Informática e Gestão do Conhecimento da Universidade Nove de Julho-UNINOVE\relax }{figure.caption.25}{}}
\@writefile{lof}{\contentsline {figure}{\numberline {4.11}{\ignorespaces Relat\IeC {\'o}rio consolidado gerado pelo ScriptLattes do agrupamento hier\IeC {\'a}rquico no quadri\IeC {\^e}nio $\mathcal  {T}^{2013-2016}$, do programa de p\IeC {\'o}s-gradua\IeC {\c c}\IeC {\~a}o \emph  {stricto sensu} em Inform\IeC {\'a}tica e Gest\IeC {\~a}o do Conhecimento da Universidade Nove de Julho-UNINOVE\relax }}{42}{figure.caption.26}}
\newlabel{fig:ScriptSucupiraResultadoSaudeScritpLattesConsolidado}{{4.11}{42}{Relatório consolidado gerado pelo ScriptLattes do agrupamento hierárquico no quadriênio $\mathcal {T}^{2013-2016}$, do programa de pós-graduação \emph {stricto sensu} em Informática e Gestão do Conhecimento da Universidade Nove de Julho-UNINOVE\relax }{figure.caption.26}{}}
\citation{catani2002educaccao}
\@writefile{lof}{\contentsline {figure}{\numberline {4.12}{\ignorespaces Quadri\IeC {\^e}nio completo dos programa de p\IeC {\'o}s-gradua\IeC {\c c}\IeC {\~a}o \emph  {stricto sensu} Universidade Nove de Julho-UNINOVE\relax }}{43}{figure.caption.27}}
\newlabel{fig:ScriptSucupiraResultadoUNINOVECOMPLETO}{{4.12}{43}{Quadriênio completo dos programa de pós-graduação \emph {stricto sensu} Universidade Nove de Julho-UNINOVE\relax }{figure.caption.27}{}}
\@writefile{toc}{\contentsline {section}{\numberline {4.2}ScriptEMec}{43}{section.4.2}}
\@writefile{brf}{\backcite{catani2002educaccao}{{44}{4.2}{section.4.2}}}
\@writefile{lof}{\contentsline {figure}{\numberline {4.13}{\ignorespaces Exemplo da \IeC {\'a}rvore de hierarquias\relax }}{45}{figure.caption.28}}
\newlabel{fig:hierarquiaScriptEMEC}{{4.13}{45}{Exemplo da árvore de hierarquias\relax }{figure.caption.28}{}}
\@writefile{lof}{\contentsline {figure}{\numberline {4.14}{\ignorespaces Processo de execu\IeC {\c c}\IeC {\~a}o ScriptEMec\relax }}{45}{figure.caption.29}}
\newlabel{fig:ScriptEMec}{{4.14}{45}{Processo de execução ScriptEMec\relax }{figure.caption.29}{}}
\@writefile{toc}{\contentsline {subsection}{\numberline {4.2.1}Resultados utilizando a ferramenta ScriptEMec}{46}{subsection.4.2.1}}
\@writefile{lof}{\contentsline {figure}{\numberline {4.15}{\ignorespaces Agrupamento hier\IeC {\'a}rquico para os cursos de gradua\IeC {\c c}\IeC {\~a}o da Instituto de Desenvolvimento Educacional do Alto Uruguai-IDEAU.\relax }}{46}{figure.caption.30}}
\newlabel{fig:scriptEMecResultadosIdeau1}{{4.15}{46}{Agrupamento hierárquico para os cursos de graduação da Instituto de Desenvolvimento Educacional do Alto Uruguai-IDEAU.\relax }{figure.caption.30}{}}
\@writefile{lof}{\contentsline {figure}{\numberline {4.16}{\ignorespaces Relat\IeC {\'o}rio gerado pelo ScriptLattes do agrupamento hier\IeC {\'a}rquico para os cursos de gradua\IeC {\c c}\IeC {\~a}o da Instituto de Desenvolvimento Educacional do Alto Uruguai-IDEAU.\relax }}{47}{figure.caption.31}}
\newlabel{fig:scriptEMecResultadosIdeau11}{{4.16}{47}{Relatório gerado pelo ScriptLattes do agrupamento hierárquico para os cursos de graduação da Instituto de Desenvolvimento Educacional do Alto Uruguai-IDEAU.\relax }{figure.caption.31}{}}
\@writefile{lof}{\contentsline {figure}{\numberline {4.17}{\ignorespaces Relat\IeC {\'o}rio gerado pelo ScriptLattes, do agrupamento hier\IeC {\'a}rquico do tri\IeC {\^e}nio de $\mathcal  {T}^{2014}$ at\IeC {\'e} $\mathcal  {T}^{2016}$, para os cursos de gradua\IeC {\c c}\IeC {\~a}o da Instituto de Desenvolvimento Educacional do Alto Uruguai-IDEAU.\relax }}{48}{figure.caption.32}}
\newlabel{fig:scriptEMecResultadosIdeau2}{{4.17}{48}{Relatório gerado pelo ScriptLattes, do agrupamento hierárquico do triênio de $\mathcal {T}^{2014}$ até $\mathcal {T}^{2016}$, para os cursos de graduação da Instituto de Desenvolvimento Educacional do Alto Uruguai-IDEAU.\relax }{figure.caption.32}{}}
\@writefile{lof}{\contentsline {figure}{\numberline {4.18}{\ignorespaces Agrupamento hier\IeC {\'a}rquico do per\IeC {\'\i }odo de $\mathcal  {T}^{1989}$ at\IeC {\'e} $\mathcal  {T}^{2017}$ para os cursos de gradua\IeC {\c c}\IeC {\~a}o da Faculdade Albert Einstein.\relax }}{49}{figure.caption.33}}
\newlabel{fig:scriptEMecResultadosFAE1}{{4.18}{49}{Agrupamento hierárquico do período de $\mathcal {T}^{1989}$ até $\mathcal {T}^{2017}$ para os cursos de graduação da Faculdade Albert Einstein.\relax }{figure.caption.33}{}}
\@writefile{lof}{\contentsline {figure}{\numberline {4.19}{\ignorespaces Relat\IeC {\'o}rio gerado pelo ScriptLattes do agrupamento hier\IeC {\'a}rquico do per\IeC {\'\i }odo de $\mathcal  {T}^{1989}$ at\IeC {\'e} $\mathcal  {T}^{2017}$ para os cursos de gradua\IeC {\c c}\IeC {\~a}o da Faculdade Albert Einstein.\relax }}{50}{figure.caption.34}}
\newlabel{fig:scriptEMecResultadosFAE11}{{4.19}{50}{Relatório gerado pelo ScriptLattes do agrupamento hierárquico do período de $\mathcal {T}^{1989}$ até $\mathcal {T}^{2017}$ para os cursos de graduação da Faculdade Albert Einstein.\relax }{figure.caption.34}{}}
\citation{maccari2009gestao}
\@writefile{lof}{\contentsline {figure}{\numberline {4.20}{\ignorespaces Relat\IeC {\'o}rio gerado pelo ScriptLattes do agrupamento hier\IeC {\'a}rquico do per\IeC {\'\i }odo de $\mathcal  {T}^{1989}$ at\IeC {\'e} $\mathcal  {T}^{2017}$ para os cursos de gradua\IeC {\c c}\IeC {\~a}o da Faculdade Albert Einstein.\relax }}{51}{figure.caption.35}}
\newlabel{fig:scriptEMecResultadosFAE22}{{4.20}{51}{Relatório gerado pelo ScriptLattes do agrupamento hierárquico do período de $\mathcal {T}^{1989}$ até $\mathcal {T}^{2017}$ para os cursos de graduação da Faculdade Albert Einstein.\relax }{figure.caption.35}{}}
\@writefile{toc}{\contentsline {section}{\numberline {4.3}ScriptComp}{51}{section.4.3}}
\@writefile{brf}{\backcite{maccari2009gestao}{{51}{4.3}{section.4.3}}}
\@writefile{lot}{\contentsline {table}{\numberline {4.2}{\ignorespaces Exemplo de c\IeC {\'a}lculo dos programas para o indicador IndProdOrient\relax }}{54}{table.caption.36}}
\newlabel{tab:scriptCompEx}{{4.2}{54}{Exemplo de cálculo dos programas para o indicador IndProdOrient\relax }{table.caption.36}{}}
\@writefile{lof}{\contentsline {figure}{\numberline {4.21}{\ignorespaces Processo de execu\IeC {\c c}\IeC {\~a}o ScriptComp\relax }}{55}{figure.caption.37}}
\newlabel{fig:ScriptCompExDend}{{4.21}{55}{Processo de execução ScriptComp\relax }{figure.caption.37}{}}
\@writefile{lof}{\contentsline {figure}{\numberline {4.22}{\ignorespaces Processo de execu\IeC {\c c}\IeC {\~a}o ScriptComp\relax }}{55}{figure.caption.38}}
\newlabel{fig:ScriptComp}{{4.22}{55}{Processo de execução ScriptComp\relax }{figure.caption.38}{}}
\@writefile{toc}{\contentsline {subsection}{\numberline {4.3.1}Resultados utilizando a ferramenta ScriptComp}{56}{subsection.4.3.1}}
\@writefile{lof}{\contentsline {figure}{\numberline {4.23}{\ignorespaces Quantidades de Programas por nota Capes\relax }}{56}{figure.caption.39}}
\newlabel{fig:cursosQualis}{{4.23}{56}{Quantidades de Programas por nota Capes\relax }{figure.caption.39}{}}
\@writefile{lot}{\contentsline {table}{\numberline {4.3}{\ignorespaces Programas n\IeC {\~a}o extra\IeC {\'\i }dos\relax }}{57}{table.caption.40}}
\newlabel{tab:registrosnaoencontrados}{{4.3}{57}{Programas não extraídos\relax }{table.caption.40}{}}
\@writefile{lof}{\contentsline {figure}{\numberline {4.24}{\ignorespaces Resultado da execu\IeC {\c c}\IeC {\~a}o do ScriptComp, utilizando o indicador IndProdArt para o ano de 2016.\relax }}{58}{figure.caption.41}}
\newlabel{fig:indProdArt2016}{{4.24}{58}{Resultado da execução do ScriptComp, utilizando o indicador IndProdArt para o ano de 2016.\relax }{figure.caption.41}{}}
\@writefile{lof}{\contentsline {figure}{\numberline {4.25}{\ignorespaces Resultado da execu\IeC {\c c}\IeC {\~a}o do ScriptComp com corte na hierarquia\relax }}{59}{figure.caption.42}}
\newlabel{fig:indProdArt2016_TS}{{4.25}{59}{Resultado da execução do ScriptComp com corte na hierarquia\relax }{figure.caption.42}{}}
\@writefile{lof}{\contentsline {figure}{\numberline {4.26}{\ignorespaces C\IeC {\'a}lculo da m\IeC {\'e}dia pelas notas CAPES dos agrupamentos\relax }}{60}{figure.caption.43}}
\newlabel{fig:mediaAgrupamento}{{4.26}{60}{Cálculo da média pelas notas CAPES dos agrupamentos\relax }{figure.caption.43}{}}
\@setckpt{aplicacao}{
\setcounter{page}{61}
\setcounter{equation}{8}
\setcounter{enumi}{4}
\setcounter{enumii}{3}
\setcounter{enumiii}{0}
\setcounter{enumiv}{0}
\setcounter{footnote}{0}
\setcounter{mpfootnote}{0}
\setcounter{part}{0}
\setcounter{chapter}{4}
\setcounter{section}{3}
\setcounter{subsection}{1}
\setcounter{subsubsection}{0}
\setcounter{paragraph}{0}
\setcounter{subparagraph}{0}
\setcounter{figure}{26}
\setcounter{table}{3}
\setcounter{lstnumber}{1}
\setcounter{btxromaniannumeral}{0}
\setcounter{ContinuedFloat}{0}
\setcounter{Item}{29}
\setcounter{Hfootnote}{1}
\setcounter{bookmark@seq@number}{29}
\setcounter{ABCIaux}{0}
\setcounter{ABCImax}{0}
\setcounter{parentequation}{0}
\setcounter{lofdepth}{1}
\setcounter{lotdepth}{1}
\setcounter{definition}{0}
\setcounter{proposition}{0}
\setcounter{algorithm}{0}
\setcounter{theorem}{0}
\setcounter{float@type}{8}
\setcounter{lstlisting}{0}
\setcounter{section@level}{0}
}
