\relax 
\providecommand\hyper@newdestlabel[2]{}
\@writefile{toc}{\contentsline {chapter}{\numberline {5}Conclus\IeC {\~a}o}{61}{chapter.5}}
\@writefile{lof}{\addvspace {10\p@ }}
\@writefile{lot}{\addvspace {10\p@ }}
\@writefile{toc}{\contentsline {section}{\numberline {5.1}Conclus\IeC {\~a}o}{61}{section.5.1}}
\@writefile{toc}{\contentsline {section}{\numberline {5.2}Trabalhos Futuros}{61}{section.5.2}}
\@writefile{lot}{\contentsline {table}{\numberline {5.1}{\ignorespaces Agrupamento $3.6$ ap\IeC {\'o}s corte na hierarquia\relax }}{62}{table.caption.44}}
\newlabel{tab:programasagrupados1}{{5.1}{62}{Agrupamento $3.6$ após corte na hierarquia\relax }{table.caption.44}{}}
\@writefile{lot}{\contentsline {table}{\numberline {5.2}{\ignorespaces Agrupamento $2.5$ ap\IeC {\'o}s corte na hierarquia\relax }}{62}{table.caption.45}}
\newlabel{tab:programasagrupados2}{{5.2}{62}{Agrupamento $2.5$ após corte na hierarquia\relax }{table.caption.45}{}}
\@writefile{lot}{\contentsline {table}{\numberline {5.3}{\ignorespaces Agrupamento $1.7$ ap\IeC {\'o}s corte na hierarquia\relax }}{62}{table.caption.46}}
\newlabel{tab:programasagrupados3}{{5.3}{62}{Agrupamento $1.7$ após corte na hierarquia\relax }{table.caption.46}{}}
\@writefile{lot}{\contentsline {table}{\numberline {5.4}{\ignorespaces Agrupamento $0.9$ ap\IeC {\'o}s corte na hierarquia\relax }}{63}{table.caption.47}}
\newlabel{tab:programasagrupados4}{{5.4}{63}{Agrupamento $0.9$ após corte na hierarquia\relax }{table.caption.47}{}}
\@writefile{lot}{\contentsline {table}{\numberline {5.5}{\ignorespaces Programas \IeC {\'a}rea interdisciplinar com conceito CAPES $2$\relax }}{63}{table.caption.48}}
\newlabel{tab:classificacao2}{{5.5}{63}{Programas área interdisciplinar com conceito CAPES $2$\relax }{table.caption.48}{}}
\@writefile{lot}{\contentsline {table}{\numberline {5.6}{\ignorespaces Programas \IeC {\'a}rea interdisciplinar com conceito CAPES $3$\relax }}{64}{table.caption.49}}
\newlabel{tab:classificacao3}{{5.6}{64}{Programas área interdisciplinar com conceito CAPES $3$\relax }{table.caption.49}{}}
\@writefile{lot}{\contentsline {table}{\numberline {5.7}{\ignorespaces Programas \IeC {\'a}rea interdisciplinar com conceito CAPES $4$\relax }}{65}{table.caption.50}}
\newlabel{tab:classificacao4}{{5.7}{65}{Programas área interdisciplinar com conceito CAPES $4$\relax }{table.caption.50}{}}
\@writefile{lot}{\contentsline {table}{\numberline {5.8}{\ignorespaces Programa \IeC {\'a}rea interdisciplinar com conceito CAPES $5$\relax }}{65}{table.caption.51}}
\newlabel{tab:classificacao5}{{5.8}{65}{Programa área interdisciplinar com conceito CAPES $5$\relax }{table.caption.51}{}}
\@writefile{lot}{\contentsline {table}{\numberline {5.9}{\ignorespaces Programa \IeC {\'a}rea interdisciplinar com conceito CAPES $6$\relax }}{66}{table.caption.52}}
\newlabel{tab:classificacao6}{{5.9}{66}{Programa área interdisciplinar com conceito CAPES $6$\relax }{table.caption.52}{}}
\@setckpt{conclusao}{
\setcounter{page}{67}
\setcounter{equation}{0}
\setcounter{enumi}{4}
\setcounter{enumii}{3}
\setcounter{enumiii}{0}
\setcounter{enumiv}{0}
\setcounter{footnote}{0}
\setcounter{mpfootnote}{0}
\setcounter{part}{0}
\setcounter{chapter}{5}
\setcounter{section}{2}
\setcounter{subsection}{0}
\setcounter{subsubsection}{0}
\setcounter{paragraph}{0}
\setcounter{subparagraph}{0}
\setcounter{figure}{0}
\setcounter{table}{9}
\setcounter{lstnumber}{1}
\setcounter{btxromaniannumeral}{0}
\setcounter{ContinuedFloat}{0}
\setcounter{Item}{29}
\setcounter{Hfootnote}{1}
\setcounter{bookmark@seq@number}{32}
\setcounter{ABCIaux}{0}
\setcounter{ABCImax}{0}
\setcounter{parentequation}{0}
\setcounter{lofdepth}{1}
\setcounter{lotdepth}{1}
\setcounter{definition}{0}
\setcounter{proposition}{0}
\setcounter{algorithm}{0}
\setcounter{theorem}{0}
\setcounter{float@type}{8}
\setcounter{lstlisting}{0}
\setcounter{section@level}{0}
}
