\relax 
\providecommand\hyper@newdestlabel[2]{}
\citation{ferraz2014analise}
\citation{mirtaheri2013brief}
\citation{genvlandwwww}
\citation{mirtaheri2013brief}
\citation{kausar2013web}
\citation{Infoseek:2017}
\citation{Lycos:2017}
\citation{altavista:2017}
\citation{excite:2017}
\citation{dogpile:2017}
\citation{ask:2017}
\citation{google:2017}
\citation{brin2006pagerank}
\@writefile{toc}{\contentsline {chapter}{\numberline {2}Web-Crawlers para extra\IeC {\c c}\IeC {\~a}o de dados na plataforma Lattes}{17}{chapter.2}}
\@writefile{lof}{\addvspace {10\p@ }}
\@writefile{lot}{\addvspace {10\p@ }}
\@writefile{brf}{\backcite{ferraz2014analise}{{17}{2}{chapter.2}}}
\@writefile{toc}{\contentsline {section}{\numberline {2.1}Web-Crawlers}{17}{section.2.1}}
\@writefile{brf}{\backcite{mirtaheri2013brief}{{17}{2.1}{section.2.1}}}
\@writefile{brf}{\backcite{genvlandwwww}{{17}{2.1}{section.2.1}}}
\@writefile{brf}{\backcite{mirtaheri2013brief}{{17}{2.1}{section.2.1}}}
\@writefile{brf}{\backcite{kausar2013web}{{17}{2.1}{section.2.1}}}
\@writefile{brf}{\backcite{Infoseek:2017}{{17}{2.1}{section.2.1}}}
\@writefile{brf}{\backcite{Lycos:2017}{{17}{2.1}{section.2.1}}}
\@writefile{brf}{\backcite{altavista:2017}{{17}{2.1}{section.2.1}}}
\@writefile{brf}{\backcite{excite:2017}{{17}{2.1}{section.2.1}}}
\@writefile{brf}{\backcite{dogpile:2017}{{17}{2.1}{section.2.1}}}
\@writefile{brf}{\backcite{ask:2017}{{17}{2.1}{section.2.1}}}
\citation{santos2014mineraccao}
\citation{rocha2012ferramenta}
\citation{machado2016web}
\citation{rodrigues2010ferramenta}
\citation{elishar2012organizational}
\citation{santos2010prototipo}
\citation{Mena-Chalco2009}
\citation{alves2016hierarchical}
\citation{lane2010let}
\citation{bonifacio2002ontologias}
\citation{horrocks2002daml+oil}
\citation{bonifacio2002ontologias}
\@writefile{brf}{\backcite{google:2017}{{18}{2.1}{section.2.1}}}
\@writefile{brf}{\backcite{brin2006pagerank}{{18}{2.1}{section.2.1}}}
\@writefile{brf}{\backcite{santos2014mineraccao}{{18}{2.1}{section.2.1}}}
\@writefile{brf}{\backcite{rocha2012ferramenta, machado2016web}{{18}{2.1}{section.2.1}}}
\@writefile{brf}{\backcite{rocha2012ferramenta, machado2016web}{{18}{2.1}{section.2.1}}}
\@writefile{brf}{\backcite{rodrigues2010ferramenta}{{18}{2.1}{section.2.1}}}
\@writefile{brf}{\backcite{elishar2012organizational,santos2010prototipo,Mena-Chalco2009, alves2016hierarchical}{{18}{2.1}{section.2.1}}}
\@writefile{brf}{\backcite{elishar2012organizational,santos2010prototipo,Mena-Chalco2009, alves2016hierarchical}{{18}{2.1}{section.2.1}}}
\@writefile{brf}{\backcite{elishar2012organizational,santos2010prototipo,Mena-Chalco2009, alves2016hierarchical}{{18}{2.1}{section.2.1}}}
\@writefile{brf}{\backcite{elishar2012organizational,santos2010prototipo,Mena-Chalco2009, alves2016hierarchical}{{18}{2.1}{section.2.1}}}
\@writefile{toc}{\contentsline {section}{\numberline {2.2}Ferramentas para extra\IeC {\c c}\IeC {\~o}es de dados na plataforma Lattes e Web-Crawlers}{18}{section.2.2}}
\@writefile{brf}{\backcite{lane2010let}{{18}{2.2}{section.2.2}}}
\@writefile{toc}{\contentsline {subsection}{\numberline {2.2.1}OntoLattes}{18}{subsection.2.2.1}}
\@writefile{brf}{\backcite{bonifacio2002ontologias}{{18}{2.2.1}{subsection.2.2.1}}}
\@writefile{brf}{\backcite{horrocks2002daml+oil}{{18}{2.2.1}{subsection.2.2.1}}}
\@writefile{brf}{\backcite{bonifacio2002ontologias}{{18}{2.2.1}{subsection.2.2.1}}}
\citation{oliveira2004geralattes}
\citation{da2009semantic}
\citation{bechhofer2009owl}
\@writefile{lof}{\contentsline {figure}{\numberline {2.1}{\ignorespaces Processo da ferramenta OntoLattes\relax }}{19}{figure.caption.6}}
\newlabel{fig:ontolates}{{2.1}{19}{Processo da ferramenta OntoLattes\relax }{figure.caption.6}{}}
\@writefile{toc}{\contentsline {subsection}{\numberline {2.2.2}GeraLattes}{19}{subsection.2.2.2}}
\@writefile{brf}{\backcite{oliveira2004geralattes}{{19}{2.2.2}{subsection.2.2.2}}}
\@writefile{toc}{\contentsline {subsection}{\numberline {2.2.3}SemanticLattes}{19}{subsection.2.2.3}}
\@writefile{brf}{\backcite{da2009semantic}{{19}{2.2.3}{subsection.2.2.3}}}
\@writefile{brf}{\backcite{bechhofer2009owl}{{19}{2.2.3}{subsection.2.2.3}}}
\citation{alves2011lattesminer}
\@writefile{lof}{\contentsline {figure}{\numberline {2.2}{\ignorespaces Passos para utiliza\IeC {\c c}\IeC {\~a}o da ferramenta SemanticLattes\relax }}{20}{figure.caption.7}}
\newlabel{fig:SemanticLattes}{{2.2}{20}{Passos para utilização da ferramenta SemanticLattes\relax }{figure.caption.7}{}}
\@writefile{toc}{\contentsline {subsection}{\numberline {2.2.4}LattesMiner}{20}{subsection.2.2.4}}
\@writefile{brf}{\backcite{alves2011lattesminer}{{20}{2.2.4}{subsection.2.2.4}}}
\citation{stela2002lattes}
\citation{(}
\@writefile{lof}{\contentsline {figure}{\numberline {2.3}{\ignorespaces Passos para utiliza\IeC {\c c}\IeC {\~a}o do LattesMiner\relax }}{21}{figure.caption.8}}
\newlabel{fig:lattesMiner}{{2.3}{21}{Passos para utilização do LattesMiner\relax }{figure.caption.8}{}}
\@writefile{toc}{\contentsline {subsection}{\numberline {2.2.5}Lattes Extrator}{21}{subsection.2.2.5}}
\@writefile{brf}{\backcite{stela2002lattes}{{21}{2.2.5}{subsection.2.2.5}}}
\@writefile{toc}{\contentsline {subsection}{\numberline {2.2.6}ScriptLattes}{21}{subsection.2.2.6}}
\@writefile{brf}{\backcite{(}{{21}{2.2.6}{subsection.2.2.6}}}
\citation{aboutPgScriptLattes:2017}
\@writefile{brf}{\backcite{aboutPgScriptLattes:2017}{{22}{2}{Item.2}}}
\citation{mena2012caracterizando}
\@writefile{brf}{\backcite{mena2012caracterizando}{{23}{3}{Item.3}}}
\@writefile{lof}{\contentsline {figure}{\numberline {2.4}{\ignorespaces Grafo de colabora\IeC {\c c}\IeC {\~a}o do ScriptLattes\relax }}{23}{figure.caption.9}}
\newlabel{fig:grafoDeColaboracoes}{{2.4}{23}{Grafo de colaboração do ScriptLattes\relax }{figure.caption.9}{}}
\citation{statisticsScriptlattes:2017}
\@writefile{brf}{\backcite{statisticsScriptlattes:2017}{{24}{2.2.6}{Item.6}}}
\@writefile{lof}{\contentsline {figure}{\numberline {2.5}{\ignorespaces Utiliza\IeC {\c c}\IeC {\~a}o do Scritlattes por regi\IeC {\~a}o.\relax }}{24}{figure.caption.10}}
\newlabel{fig:scriptlattesNumeros}{{2.5}{24}{Utilização do Scritlattes por região.\relax }{figure.caption.10}{}}
\citation{ferraz2017utilizaccao}
\citation{frigeri2015qualis}
\@writefile{toc}{\contentsline {section}{\numberline {2.3}Utilizando ScriptLattes para a extra\IeC {\c c}\IeC {\~o}es de curr\IeC {\'\i }culos e minera\IeC {\c c}\IeC {\~o}es de informa\IeC {\c c}\IeC {\~o}es}{25}{section.2.3}}
\@writefile{brf}{\backcite{ferraz2017utilizaccao}{{25}{2.3}{section.2.3}}}
\@writefile{brf}{\backcite{frigeri2015qualis}{{25}{2.3}{section.2.3}}}
\citation{fernandez2012semantic}
\citation{ferraz2014use}
\citation{giordano2015uso}
\citation{nigro2015uso}
\@writefile{lof}{\contentsline {figure}{\numberline {2.6}{\ignorespaces Processo de utiliza\IeC {\c c}\IeC {\~a}o do ScriptLattes\relax }}{26}{figure.caption.11}}
\newlabel{fig:ScriptLattes}{{2.6}{26}{Processo de utilização do ScriptLattes\relax }{figure.caption.11}{}}
\@writefile{toc}{\contentsline {subsection}{\numberline {2.3.1}Trabalhos que utilizam o ScriptLattes}{26}{subsection.2.3.1}}
\@writefile{brf}{\backcite{fernandez2012semantic}{{26}{2.3.1}{subsection.2.3.1}}}
\@writefile{brf}{\backcite{ferraz2014use}{{26}{2.3.1}{subsection.2.3.1}}}
\@writefile{brf}{\backcite{giordano2015uso}{{26}{2.3.1}{subsection.2.3.1}}}
\@writefile{brf}{\backcite{nigro2015uso}{{26}{2.3.1}{subsection.2.3.1}}}
\citation{nigro2017prestaccao}
\citation{mena2013prospecccao}
\citation{nigro2016uso}
\@writefile{brf}{\backcite{nigro2017prestaccao}{{27}{2.3.1}{subsection.2.3.1}}}
\@writefile{brf}{\backcite{mena2013prospecccao}{{27}{2.3.1}{subsection.2.3.1}}}
\@writefile{brf}{\backcite{nigro2016uso}{{27}{2.3.1}{subsection.2.3.1}}}
\@setckpt{conceitos}{
\setcounter{page}{28}
\setcounter{equation}{0}
\setcounter{enumi}{6}
\setcounter{enumii}{0}
\setcounter{enumiii}{0}
\setcounter{enumiv}{0}
\setcounter{footnote}{0}
\setcounter{mpfootnote}{0}
\setcounter{part}{0}
\setcounter{chapter}{2}
\setcounter{section}{3}
\setcounter{subsection}{1}
\setcounter{subsubsection}{0}
\setcounter{paragraph}{0}
\setcounter{subparagraph}{0}
\setcounter{figure}{6}
\setcounter{table}{0}
\setcounter{lstnumber}{1}
\setcounter{btxromaniannumeral}{0}
\setcounter{ContinuedFloat}{0}
\setcounter{Item}{6}
\setcounter{Hfootnote}{1}
\setcounter{bookmark@seq@number}{19}
\setcounter{ABCIaux}{0}
\setcounter{ABCImax}{0}
\setcounter{parentequation}{0}
\setcounter{lofdepth}{1}
\setcounter{lotdepth}{1}
\setcounter{definition}{0}
\setcounter{proposition}{0}
\setcounter{algorithm}{0}
\setcounter{theorem}{0}
\setcounter{float@type}{8}
\setcounter{lstlisting}{0}
\setcounter{section@level}{0}
}
