\select@language {brazil}
\addvspace {10\p@ }
\addvspace {10\p@ }
\addvspace {10\p@ }
\contentsline {table}{\numberline {3.1}{\ignorespaces Estrutura do conjunto de dados\relax }}{31}{table.caption.13}
\addvspace {10\p@ }
\contentsline {table}{\numberline {4.1}{\ignorespaces Par\IeC {\^a}metros de configura\IeC {\c c}\IeC {\~o}es do ScriptSucupira\relax }}{35}{table.caption.17}
\contentsline {table}{\numberline {4.2}{\ignorespaces Exemplo de c\IeC {\'a}lculo dos programas para o indicador IndProdOrient\relax }}{54}{table.caption.36}
\contentsline {table}{\numberline {4.3}{\ignorespaces Programas n\IeC {\~a}o extra\IeC {\'\i }dos\relax }}{57}{table.caption.40}
\addvspace {10\p@ }
\contentsline {table}{\numberline {5.1}{\ignorespaces Agrupamento $3.6$ ap\IeC {\'o}s corte na hierarquia\relax }}{62}{table.caption.44}
\contentsline {table}{\numberline {5.2}{\ignorespaces Agrupamento $2.5$ ap\IeC {\'o}s corte na hierarquia\relax }}{62}{table.caption.45}
\contentsline {table}{\numberline {5.3}{\ignorespaces Agrupamento $1.7$ ap\IeC {\'o}s corte na hierarquia\relax }}{62}{table.caption.46}
\contentsline {table}{\numberline {5.4}{\ignorespaces Agrupamento $0.9$ ap\IeC {\'o}s corte na hierarquia\relax }}{63}{table.caption.47}
\contentsline {table}{\numberline {5.5}{\ignorespaces Programas \IeC {\'a}rea interdisciplinar com conceito CAPES $2$\relax }}{63}{table.caption.48}
\contentsline {table}{\numberline {5.6}{\ignorespaces Programas \IeC {\'a}rea interdisciplinar com conceito CAPES $3$\relax }}{64}{table.caption.49}
\contentsline {table}{\numberline {5.7}{\ignorespaces Programas \IeC {\'a}rea interdisciplinar com conceito CAPES $4$\relax }}{65}{table.caption.50}
\contentsline {table}{\numberline {5.8}{\ignorespaces Programa \IeC {\'a}rea interdisciplinar com conceito CAPES $5$\relax }}{65}{table.caption.51}
\contentsline {table}{\numberline {5.9}{\ignorespaces Programa \IeC {\'a}rea interdisciplinar com conceito CAPES $6$\relax }}{66}{table.caption.52}
\contentsfinish 
