\providecommand{\abntreprintinfo}[1]{%
 \citeonline{#1}}
\setlength{\labelsep}{0pt}\begin{thebibliography}{}
\newcommand{\titleset}[1]{\textbf{#1}}
\providecommand{\abntrefinfo}[3]{}
\providecommand{\abntbstabout}[1]{}
\abntbstabout{v-1.9.5 }

\bibitem[altavista 2017]{altavista:2017}
\abntrefinfo{altavista}{ALTAVISTA}{2017}
{ALTAVISTA. 2017. \url{http://www.altavista.com}.
Acessado em: 2017-10-24.}

\bibitem[Alves, Yanasse e Soma 2011]{alves2011lattesminer}
\abntrefinfo{Alves, Yanasse e Soma}{ALVES; YANASSE; SOMA}{2011}
{ALVES, A.~D.; YANASSE, H.~H.; SOMA, N.~Y. \titleset{LattesMiner: a
  multilingual DSL for information extraction from lattes platform}. In:  ACM.
  \emph{Proceedings of the compilation of the co-located workshops on DSM'11,
  TMC'11, AGERE! 2011, AOOPES'11, NEAT'11, \& VMIL'11}. [S.l.], 2011. p.
  85--92.}

\bibitem[Alves, Santos e Schimit 2016]{alves2016hierarchical}
\abntrefinfo{Alves, Santos e Schimit}{ALVES; SANTOS; SCHIMIT}{2016}
{ALVES, W.~A.; SANTOS, S.~D.; SCHIMIT, P.~H. \titleset{Hierarchical Clustering
  Based on Reports Generated by Scriptlattes}. In:  SPRINGER. \emph{IFIP
  International Conference on Advances in Production Management Systems}.
  [S.l.], 2016. p. 28--35.}

\bibitem[Andretta et al. 2012]{silveira2012analise}
\abntrefinfo{Andretta et al.}{ANDRETTA et al.}{2012}
{ANDRETTA, P.~I. S. et al. \titleset{Uma an{\'a}lise sobre a
  produ{\c{c}}{\~a}o, produtividade e colabora{\c{c}}{\~a}o na Ci{\^e}ncia da
  Informa{\c{c}}{\~a}o no Brasil entre os anos 2007 a 2009}.
\emph{Palabra clave}, SciELO Argentina, v.~1, n.~2, p. 48--52, 2012.}

\bibitem[ask 2017]{ask:2017}
\abntrefinfo{ask}{ASK}{2017}
{ASK. 2017. \url{http://www.ask.com}.
Acessado em: 2017-10-09.}

\bibitem[Bavaresco 2017]{juliano2017}
\abntrefinfo{Bavaresco}{BAVARESCO}{2017}
{BAVARESCO, J.
\emph{\titleset{Utiliza{\c{c}}{\~a}o e valida{\c{c}}{\~a}o da ferramenta
  computacional SCRIPTEMEC como estrat{\'e}gia inovadora no gerenciamento da
  produtividade acad{\^e}mica de uma institui{\c{c}}{\~a}o privada de ensino
  superior}}.
Disserta\c{c}\~{a}o (Mestrado), 2017.}

\bibitem[Bechhofer 2009]{bechhofer2009owl}
\abntrefinfo{Bechhofer}{BECHHOFER}{2009}
{BECHHOFER, S. \titleset{OWL: Web ontology language}. In:  \emph{Encyclopedia
  of Database Systems}. [S.l.]: Springer, 2009. p. 2008--2009.}

\bibitem[Bonifacio 2002]{bonifacio2002ontologias}
\abntrefinfo{Bonifacio}{BONIFACIO}{2002}
{BONIFACIO, A.~S.
\emph{\titleset{Ontologias e consulta sem{\^a}ntica: Uma aplica{\c{c}}ao ao
  caso Lattes}}.
Tese (Doutorado) --- UNIVERSIDADE FEDERAL DO RIO GRANDE DO SUL, 2002.}

\bibitem[Bras 2003]{bras2003organizaccao1}
\abntrefinfo{Bras}{BRAS}{2003}
{BRAS, P.~O. \titleset{Organiza{\c{c}}{\~a}o do curr{\'\i}culo--plataforma
  Lattes Curriculum vitae organization--the Lattes software platform}.
\emph{Pesqui Odontol Bras}, SciELO Brasil, v.~17, n. Supl 1, p. 18--22, 2003.}

\bibitem[Brin e Page 2006]{brin2006pagerank}
\abntrefinfo{Brin e Page}{BRIN; PAGE}{2006}
{BRIN, S.; PAGE, L. The pagerank citation ranking: bringing order to the web.
2006.}

\bibitem[Brualdi 2012]{brualdi2012introductory}
\abntrefinfo{Brualdi}{BRUALDI}{2012}
{BRUALDI, R. \emph{\titleset{Introductory Combinatorics}}. Pearson Education
  International, 2012.  (Pearson Education).
ISBN 9780132791717. Dispon{\'\i}vel em:
  \url{https://books.google.ca/books?id=7aeWuQAACAAJ}.}

\bibitem[Burns, Lana e Budd 2013]{burns2013institutional}
\abntrefinfo{Burns, Lana e Budd}{BURNS; LANA; BUDD}{2013}
{BURNS, C.~S.; LANA, A.; BUDD, J. \titleset{Institutional repositories:
  exploration of costs and value}.
\emph{D-Lib Magazine}, Corporation for National Research Initiatives, v.~19,
  n.~1, p.~1, 2013.}

\bibitem[Catani e OLIVEIRA 2002]{catani2002educaccao}
\abntrefinfo{Catani e OLIVEIRA}{CATANI; OLIVEIRA}{2002}
{CATANI, A.~M.; OLIVEIRA, J.~d. \titleset{A educa{\c{c}}{\~a}o superior}.
\emph{A organiza{\c{c}}{\~a}o do ensino no Brasil: n{\'\i}veis e modalidades na
  Constitui{\c{c}}{\~a}o federal e na LDB. S{\~a}o Paulo: Editora Xam{\~a}},
  2002.}

\bibitem[CNPq 2017]{aboutPlataform:2017}
\abntrefinfo{CNPq}{CNPQ}{2017}
{CNPQ. \emph{Plataforma Lattes}. 2017. \url{http://lattes.cnpq.br/}.
Acessado em: 2017-10-20.}

\bibitem[Costa e Yamate 2009]{da2009semantic}
\abntrefinfo{Costa e Yamate}{COSTA; YAMATE}{2009}
{COSTA, A.~P. da; YAMATE, F.~S. \titleset{Semantic Lattes: uma ferramenta de
  consulta de informa{\c{c}}oes acad{\^e}micas da base Lattes baseada em
  ontologias}.
\emph{Trabalho de Conclusao de Curso, Escola Polit{\'e}cnica da Universidade de
  Sao Paulo, Sao Paulo, SP}, 2009.}

\bibitem[dogpile 2017]{dogpile:2017}
\abntrefinfo{dogpile}{DOGPILE}{2017}
{DOGPILE. 2017. \url{http://www.dogpile.com}.
Acessado em: 2017-10-09.}

\bibitem[DOI 2017]{doi:2017}
\abntrefinfo{DOI}{DOI}{2017}
{DOI. 2017. \url{https://www.doi.org/}.
Acessado em: 2017-10-28.}

\bibitem[Duda, Hart e Stork 2000]{Duda:2000}
\abntrefinfo{Duda, Hart e Stork}{DUDA; HART; STORK}{2000}
{DUDA, R.~O.; HART, P.~E.; STORK, D.~G. \emph{\titleset{Pattern
  Classification}}. [S.l.: s.n.], 2000.}

\bibitem[Edgar e Willinsky 2010]{edgar2010survey}
\abntrefinfo{Edgar e Willinsky}{EDGAR; WILLINSKY}{2010}
{EDGAR, B.~D.; WILLINSKY, J. \titleset{A survey of scholarly journals using
  Open Journal Systems}.
\emph{Scholarly and Research Communication}, v.~1, n.~2, 2010.}

\bibitem[Elishar et al. 2012]{elishar2012organizational}
\abntrefinfo{Elishar et al.}{ELISHAR et al.}{2012}
{ELISHAR, A. et al. \titleset{Organizational intrusion: Organization mining
  using socialbots}. In:  IEEE. \emph{Social Informatics (SocialInformatics),
  2012 International Conference on}. [S.l.], 2012. p. 7--12.}

\bibitem[excite 2017]{excite:2017}
\abntrefinfo{excite}{EXCITE}{2017}
{EXCITE. 2017. \url{http://www.excite.com}.
Acessado em: 2017-10-09.}

\bibitem[Fern{\'a}ndez-Breis et al. 2012]{fernandez2012semantic}
\abntrefinfo{Fern{\'a}ndez-Breis et al.}{FERN{\'A}NDEZ-BREIS et al.}{2012}
{FERN{\'A}NDEZ-BREIS, J.~T. et al. \titleset{A semantic platform for the
  management of the educative curriculum}.
\emph{Expert Systems with Applications}, Elsevier, v.~39, n.~5, p. 6011--6019,
  2012.}

\bibitem[Ferraz e Quoniam 2017]{ferraz2017utilizaccao}
\abntrefinfo{Ferraz e Quoniam}{FERRAZ; QUONIAM}{2017}
{FERRAZ, R. R.~N.; QUONIAM, L.~M. \titleset{A utiliza{\c{c}}{\~a}o da
  ferramenta computacional Scriptlattes para avalia{\c{c}}{\~a}o das
  compet{\^e}ncias em pesquisa no Brasil}.
\emph{Prisma. com}, n.~21, 2017.}

\bibitem[Ferraz, Quoniam e Maccari 2014]{ferraz2014use}
\abntrefinfo{Ferraz, Quoniam e Maccari}{FERRAZ; QUONIAM; MACCARI}{2014}
{FERRAZ, R. R.~N.; QUONIAM, L.~M.; MACCARI, E.~A. \titleset{The use of
  Scriptlattes tool for extraction and on line availability of academic
  production from a department of Stricto Sensu in Management}. In:  \emph{11th
  International Conference on Information Systems and Technology
  Management--CONTECSI}. [S.l.: s.n.], 2014. v.~17.}

\bibitem[Friedman, Hastie e Tibshirani 2001]{friedman}
\abntrefinfo{Friedman, Hastie e Tibshirani}{FRIEDMAN; HASTIE; TIBSHIRANI}{2001}
{FRIEDMAN, J.; HASTIE, T.; TIBSHIRANI, R. \emph{\titleset{The elements of
  statistical learning}}. [S.l.]: Springer series in statistics Springer,
  Berlin, 2001. v.~1.}

\bibitem[Giordano, Bruning e Bordin 2015]{giordano2015uso}
\abntrefinfo{Giordano, Bruning e Bordin}{GIORDANO; BRUNING; BORDIN}{2015}
{GIORDANO, D.~M.; BRUNING, E.; BORDIN, A.~S. \titleset{Uso do scriptlattes e
  gephi na an{\'a}lise da colabora{\c{c}}{\~a}o cient{\'\i}fica}.
\emph{Anais do Computer on the Beach}, p. 239--248, 2015.}

\bibitem[google 2017]{google:2017}
\abntrefinfo{google}{GOOGLE}{2017}
{GOOGLE. 2017. \url{https://www.google.com/intl/en/about/our-story/}.
Acessado em: 2017-10-09.}

\bibitem[Horrocks et al. 2002]{horrocks2002daml+oil}
\abntrefinfo{Horrocks et al.}{HORROCKS et al.}{2002}
{HORROCKS, I. et al. \titleset{DAML+OIL: A Description Logic for the Semantic
  Web}.
\emph{IEEE Data Eng. Bull.}, v.~25, n.~1, p.~4--9, 2002.}

\bibitem[Infoseek 2017]{Infoseek:2017}
\abntrefinfo{Infoseek}{INFOSEEK}{2017}
{INFOSEEK. 2017. \url{http://www.infoseek.co.jp}.
Acessado em: 2017-010-29.}

\bibitem[Kadriu 2013]{kadriu2013discovering}
\abntrefinfo{Kadriu}{KADRIU}{2013}
{KADRIU, A. \titleset{Discovering value in academic social networks: A case
  study in ResearchGate}. In:  IEEE. \emph{Information Technology Interfaces
  (ITI), Proceedings of the ITI 2013 35th International Conference on}. [S.l.],
  2013. p. 57--62.}

\bibitem[Kausar, Dhaka e Singh 2013]{kausar2013web}
\abntrefinfo{Kausar, Dhaka e Singh}{KAUSAR; DHAKA; SINGH}{2013}
{KAUSAR, M.~A.; DHAKA, V.; SINGH, S.~K. \titleset{Web crawler: a review}.
\emph{International Journal of Computer Applications}, Foundation of Computer
  Science, v.~63, n.~2, 2013.}

\bibitem[Lane 2010]{lane2010let}
\abntrefinfo{Lane}{LANE}{2010}
{LANE, J. \titleset{Let's make science metrics more scientific}.
\emph{Nature}, Nature Publishing Group, v.~464, n.~7288, p. 488--489, 2010.}

\bibitem[Lycos 2017]{Lycos:2017}
\abntrefinfo{Lycos}{LYCOS}{2017}
{LYCOS. 2017. \url{http://www.lycos.com}.
Acessado em: 2017-10-19.}

\bibitem[Lynch 2003]{lynch2003institutional}
\abntrefinfo{Lynch}{LYNCH}{2003}
{LYNCH, C.~A. \titleset{Institutional repositories: essential infrastructure
  for scholarship in the digital age}.
\emph{portal: Libraries and the Academy}, The Johns Hopkins University Press,
  v.~3, n.~2, p. 327--336, 2003.}

\bibitem[Maccari et al. 2009]{maccari2009gestao}
\abntrefinfo{Maccari et al.}{MACCARI et al.}{2009}
{MACCARI, E.~A. et al. \titleset{A gest{\~a}o dos programas de
  p{\'o}s-gradua{\c{c}}{\~a}o em administra{\c{c}}{\~a}o com base no sistema de
  avalia{\c{c}}{\~a}o da Capes}.
\emph{REGE. Revista de Gest{\~a}o}, REGE, Revista de Gest{\~a}o, v.~16, n.~4,
  p.~1, 2009.}

\bibitem[Machado et al. 2016]{machado2016web}
\abntrefinfo{Machado et al.}{MACHADO et al.}{2016}
{MACHADO, C.~C. et al. \titleset{Um Web Crawler para Proje{\c{c}}{\~o}es e
  An{\'a}lise de Vulnerabilidades de Seguran{\c{c}}a e Consist{\^e}ncia
  Estrutural de P{\'a}ginas Web}.
\emph{Revista de Empreendedorismo, Inova{\c{c}}{\~a}o e Tecnologia}, v.~2,
  n.~2, p. 3--12, 2016.}

\bibitem[Mena-Chalco 2017]{statisticsScriptlattes:2017}
\abntrefinfo{Mena-Chalco}{MENA-CHALCO}{2017}
{MENA-CHALCO, J.~P. \emph{\titleset{Statistics - Scriptlattes}}. 2017.
  \url{http://scriptlattes.sourceforge.net/links.html}.
Acessado em: 2017-10-17.}

\bibitem[Mena-Chalco, Digiampietri e Cesar-Jr 2012]{mena2012caracterizando}
\abntrefinfo{Mena-Chalco, Digiampietri e Cesar-Jr}{MENA-CHALCO; DIGIAMPIETRI;
  CESAR-JR}{2012}
{MENA-CHALCO, J.~P.; DIGIAMPIETRI, L.~A.; CESAR-JR, R.~M.
  \titleset{Caracterizando as redes de coautoria de curr{\'\i}culos Lattes}.
  In:  \emph{Brazilian Workshop on Social Network Analysis and Mining
  (BraSNAM)}. [S.l.: s.n.], 2012. p. 1--12.}

\bibitem[Mena-Chalco e JUNIOR 2013]{mena2013prospecccao}
\abntrefinfo{Mena-Chalco e JUNIOR}{MENA-CHALCO; JUNIOR}{2013}
{MENA-CHALCO, J.~P.; JUNIOR, C. \titleset{Prospec{\c{c}}{\~a}o de dados
  acad{\^e}micos de curr{\'\i}culos Lattes atrav{\'e}s de Scriptlattes}.
\emph{Bibliometria e Cientometria: reflex{\~o}es te{\'o}ricas e interfaces.
  S{\~a}o Carlos: Pedro \& Jo{\~a}o}, 2013.}

\bibitem[Mena-Chalco e Junior 2009]{Mena-Chalco2009}
\abntrefinfo{Mena-Chalco e Junior}{MENA-CHALCO; JUNIOR}{2009}
{MENA-CHALCO, J.~P.; JUNIOR, R. M.~C. \titleset{scriptLattes: an open-source
  knowledge extraction system from the Lattes platform}.
\emph{Journal of the Brazilian Computer Society}, v.~15, n.~4, p. 31--39, 2009.
ISSN 0104-6500.
Dispon{\'\i}vel em: \url{http://link.springer.com/10.1007/BF03194511}.}

\bibitem[Mena-Chalco e Junior 2017]{aboutPgScriptLattes:2017}
\abntrefinfo{Mena-Chalco e Junior}{MENA-CHALCO; JUNIOR}{2017}
{MENA-CHALCO, J.~P.; JUNIOR, R. M.~C. \emph{\titleset{scriptlattes}}. 2017.
  \url{http://scriptlattes.sourceforge.net/}.
Acessado em: 2017-11-07.}

\bibitem[Mirtaheri et al. 2013]{mirtaheri2013brief}
\abntrefinfo{Mirtaheri et al.}{MIRTAHERI et al.}{2013}
{MIRTAHERI, S.~M. et al. \titleset{A brief history of web crawlers}. In:  IBM
  CORP. \emph{Proceedings of the 2013 Conference of the Center for Advanced
  Studies on Collaborative Research}. [S.l.], 2013. p. 40--54.}

\bibitem[NetDraw 2017]{netdrawsoftware:2017}
\abntrefinfo{NetDraw}{NETDRAW}{2017}
{NETDRAW. 2017. \url{https://sites.google.com/site/netdrawsoftware/home}.
Acessado em: 2017-10-28.}

\bibitem[Newman 1992]{newman1992elements}
\abntrefinfo{Newman}{NEWMAN}{1992}
{NEWMAN, M. H.~A. \emph{\titleset{Elements of the topology of plane sets of
  points}}. [S.l.]: Dover Publications, 1992.}

\bibitem[NIGRO et al. 2015]{nigro2015uso}
\abntrefinfo{NIGRO et al.}{NIGRO et al.}{2015}
{NIGRO, C.~A. et al. \titleset{USO DA FERRAMENTA COMPUTACIONAL
  SCRIPTLATTES-SCRIPTSUCUPIRA NA PRESTA{\c{C}}{\~A}O DE CONTAS ANUAL E
  QUADRIENAL A CAPES POR UM PROGRAMA DE P{\'O}S-GRADUA{\c{C}}{\~A}O STRICTO
  SENSU EM DIREITO}.
2015.}

\bibitem[Nigro et al. 2017]{nigro2017prestaccao}
\abntrefinfo{Nigro et al.}{NIGRO et al.}{2017}
{NIGRO, C.~A. et al. \titleset{Presta{\c{c}}{\~a}o de contas anual e quadrienal
  {\`a} Capes por um programa de P{\'o}s-Gradua{\c{c}}{\~a}o stricto sensu em
  Engenharia de Produ{\c{c}}{\~a}o: utiliza{\c{c}}{\~a}o da ferramenta
  computacional Scriptlattes-Scriptsucupira}.
\emph{PRISMA. COM}, n.~29, 2017.}

\bibitem[Nigro et al. 2016]{nigro2016uso}
\abntrefinfo{Nigro et al.}{NIGRO et al.}{2016}
{NIGRO, C.~A. et al. \titleset{Uso das ferramentas computacionais Scriptlattes,
  ScriptGP e Patent2net para an{\'a}lise da produ{\c{c}}{\~a}o
  bibliogr{\'a}fica e tecnol{\'o}gica sobre a dengue}.
Universidade Nove de Julho, 2016.}

\bibitem[O.A 1994]{genvlandwwww}
\abntrefinfo{O.A}{O.A}{1994}
{O.A, M. \titleset{Genvl and wwww:Toolsfortam- ing the web}.
\emph{In Proceedings of the First Interna- tional World Wide Web Conference},
  p. pp. 79– 90, 1994.}

\bibitem[OLIVEIRA, BERMEJO e Kern 2004]{oliveira2004geralattes}
\abntrefinfo{OLIVEIRA, BERMEJO e Kern}{OLIVEIRA; BERMEJO; KERN}{2004}
{OLIVEIRA, E.; BERMEJO, P. d.~S.; KERN, V.~M. \titleset{GeraLattes:
  extra{\c{c}}{\~a}o de informa{\c{c}}{\~a}o gerencial de curr{\'\i}culos de
  pesquisadores usando XML}. In:  \emph{Workshop de Computa{\c{c}}{\~a}o da
  Regi{\~a}o Sul (WorkCompSul 2004)}. [S.l.: s.n.], 2004. v.~1.}

\bibitem[Oliveira, Silva e Hayashi 2014]{de2014redes}
\abntrefinfo{Oliveira, Silva e Hayashi}{OLIVEIRA; SILVA; HAYASHI}{2014}
{OLIVEIRA, W.~A. de; SILVA, F.~F. da; HAYASHI, C. R.~M. \titleset{REDES DE
  COAUTORIA EM EDUCA{\c{C}}{\~A}O: UMA AN{\'A}LISE A PARTIR DE ARTIGOS
  CIENT{\'I}FICOS PRODUZIDOS NOS PROGRAMAS DE P{\'O}S-GRADUA{\c{C}}{\~A}O}. In:
   \emph{XVIII Semin{\'a}rio Nacional de Bibliotecas Universit{\'a}rias}.
  [S.l.: s.n.], 2014.}

\bibitem[Rocha, Kreutz e Turchetti 2012]{rocha2012ferramenta}
\abntrefinfo{Rocha, Kreutz e Turchetti}{ROCHA; KREUTZ; TURCHETTI}{2012}
{ROCHA, D.; KREUTZ, D.; TURCHETTI, R. \titleset{Uma Ferramenta Livre e
  Extens{\'\i}vel Para Detec{\c{c}}{\~a}o de Vulnerabilidades em Sistemas Web}.
\emph{Computer Science and Engineering July}, v.~14, 2012.}

\bibitem[Rodrigues et al. 2010]{rodrigues2010ferramenta}
\abntrefinfo{Rodrigues et al.}{RODRIGUES et al.}{2010}
{RODRIGUES, T.~G. et al. \titleset{Uma Ferramenta de Suporte a
  Recupera{\c{c}}{\~a}o de Informa{\c{c}}{\~a}o na Web focada em
  Vulnerabilidades e Anomalias Internet}.
\emph{X Simp{\'o}sio Brasileiro em Seguran{\c{c}}a da Informa{\c{c}}{\~a}o e de
  Sistemas Computacionais (SBSeg)}, p. 227--240, 2010.}

\bibitem[Santos 2014]{santos2014mineraccao}
\abntrefinfo{Santos}{SANTOS}{2014}
{SANTOS, F. L.~d. \titleset{Minera{\c{c}}{\~a}o de opini{\~a}o em textos
  opinativos utilizando algoritmos de classifica{\c{c}}{\~a}o}.
2014.}

\bibitem[Santos 2010]{santos2010prototipo}
\abntrefinfo{Santos}{SANTOS}{2010}
{SANTOS, L.~M. \titleset{Prot{\'o}tipo para minera{\c{c}}{\~a}o de opini{\~a}o
  em redes sociais: estudo de casos selecionados usando o twitter}.
2010.}

\bibitem[Sguissardi 2006]{sguissardi2006avaliaccao}
\abntrefinfo{Sguissardi}{SGUISSARDI}{2006}
{SGUISSARDI, V. \titleset{A avalia{\c{c}}{\~a}o defensiva no “modelo CAPES de
  avalia{\c{c}}{\~a}o": {\'E} poss{\'\i}vel conciliar avalia{\c{c}}{\~a}o
  educativa com processos de regula{\c{c}}{\~a}o e controle do Estado?}
\emph{Perspectiva}, v.~24, n.~1, p. 49--88, 2006.}

\bibitem[SILVA 2007]{silva2007organizaccao}
\abntrefinfo{SILVA}{SILVA}{2007}
{SILVA, F.~M.
\emph{\titleset{Organiza{\c{c}}{\~a}o da Informa{\c{c}}{\~a}o em sistemas
  eletr{\^o}nicos abertos de Informa{\c{c}}{\~a}o Cient{\'\i}fica \&
  Tecnol{\'o}gica: An{\'a}lise da Plataforma Lattes.}}
Tese (Doutorado) --- Tese (Doutorado em Ci{\^e}ncia da
  Informa{\c{c}}{\~a}o)-Departamento de Biblioteconomia e
  Documenta{\c{c}}{\~a}o, Universidade de S{\~a}o Paulo, S{\~a}o Paulo, 2007.}

\bibitem[Silva 2017]{marcos2017}
\abntrefinfo{Silva}{SILVA}{2017}
{SILVA, M. V.~C.
\emph{\titleset{Avalia{\c{c}}{\~a}o cont{\'i}nua e automatizada da
  produtividade academ{\^i}ca dos cursos de gradua{\c{c}}{\~a}o de uma
  institui{\c{c}}{\~a}o privada de ensino superior}}.
Disserta\c{c}\~{a}o (Mestrado), 2017.}

\bibitem[STELA 2002]{stela2002lattes}
\abntrefinfo{STELA}{STELA}{2002}
{STELA, G. \emph{\titleset{Lattes extrator}}. [S.l.]: Florian{\'o}polis:
  Universidade Federal de Santa Catarina, 2002.}

\bibitem[UCINETSoftware 2017]{ucinetsoftware:2017}
\abntrefinfo{UCINETSoftware}{UCINETSOFTWARE}{2017}
{UCINETSOFTWARE. 2017. \url{https://sites.google.com/site/ucinetsoftware/home}.
Acessado em: 2017-10-28.}

\bibitem[VantagePoint 2017]{thevantagepoint:2017}
\abntrefinfo{VantagePoint}{VANTAGEPOINT}{2017}
{VANTAGEPOINT, T. 2017. \url{https://www.thevantagepoint.com/}.
Acessado em: 2017-10-28.}

\end{thebibliography}
