This is BibTeX, Version 0.99d (TeX Live 2015)
Capacity: max_strings=35307, hash_size=35307, hash_prime=30011
The top-level auxiliary file: main.aux
A level-1 auxiliary file: folhaDeAprovacao.aux
A level-1 auxiliary file: resumo.aux
A level-1 auxiliary file: abstract.aux
A level-1 auxiliary file: introducao.aux
A level-1 auxiliary file: conceitos.aux
A level-1 auxiliary file: agrupamentoHierarquico.aux
A level-1 auxiliary file: aplicacao.aux
A level-1 auxiliary file: conclusao.aux
A level-1 auxiliary file: anexo.aux
The style file: abntex2-alf.bst
Reallocated singl_function (elt_size=4) to 100 items from 50.
Reallocated singl_function (elt_size=4) to 100 items from 50.
Reallocated singl_function (elt_size=4) to 100 items from 50.
Reallocated singl_function (elt_size=4) to 100 items from 50.
Reallocated wiz_functions (elt_size=4) to 6000 items from 3000.
Reallocated singl_function (elt_size=4) to 100 items from 50.
Reallocated singl_function (elt_size=4) to 100 items from 50.
Reallocated singl_function (elt_size=4) to 100 items from 50.
Reallocated wiz_functions (elt_size=4) to 9000 items from 6000.
Database file #1: abntex2-options.bib
Database file #2: refs-bib.bib
I was expecting a `,' or a `}'---line 263 of file refs-bib.bib
 :  
 :  pages={109--128}
(Error may have been on previous line)
I'm skipping whatever remains of this entry
I was expecting a `,' or a `}'---line 549 of file refs-bib.bib
 :  
 :  year={2013},
(Error may have been on previous line)
I'm skipping whatever remains of this entry
Warning--entry type for "aboutPlataform:2017" isn't style-file defined
--line 605 of file refs-bib.bib
Warning--entry type for "aboutPgScriptLattes:2017" isn't style-file defined
--line 621 of file refs-bib.bib
I was expecting a `,' or a `}'---line 745 of file refs-bib.bib
 :  
 :  isbn = {0471056693},
(Error may have been on previous line)
I'm skipping whatever remains of this entry
Warning--entry type for "statisticsScriptlattes:2017" isn't style-file defined
--line 925 of file refs-bib.bib
I was expecting a `,' or a `}'---line 1013 of file refs-bib.bib
 :  
 :  volume={1}
(Error may have been on previous line)
I'm skipping whatever remains of this entry
Warning--entry type for "Infoseek:2017" isn't style-file defined
--line 1163 of file refs-bib.bib
Warning--entry type for "Lycos:2017" isn't style-file defined
--line 1177 of file refs-bib.bib
Warning--entry type for "altavista:2017" isn't style-file defined
--line 1191 of file refs-bib.bib
Warning--entry type for "excite:2017" isn't style-file defined
--line 1205 of file refs-bib.bib
Warning--entry type for "dogpile:2017" isn't style-file defined
--line 1219 of file refs-bib.bib
Warning--entry type for "ask:2017" isn't style-file defined
--line 1233 of file refs-bib.bib
Warning--entry type for "google:2017" isn't style-file defined
--line 1247 of file refs-bib.bib
Warning--entry type for "thevantagepoint:2017" isn't style-file defined
--line 1781 of file refs-bib.bib
Warning--entry type for "ucinetsoftware:2017" isn't style-file defined
--line 1795 of file refs-bib.bib
Warning--entry type for "netdrawsoftware:2017" isn't style-file defined
--line 1811 of file refs-bib.bib
Repeated entry---line 1825 of file refs-bib.bib
 : @inproceedings{de2014redes
 :                           ,
I'm skipping whatever remains of this entry
Warning--entry type for "doi:2017" isn't style-file defined
--line 1839 of file refs-bib.bib
Reallocated singl_function (elt_size=4) to 100 items from 50.
Reallocated glb_str_ptr (elt_size=4) to 20 items from 10.
Reallocated global_strs (elt_size=20001) to 20 items from 10.
Reallocated glb_str_end (elt_size=4) to 20 items from 10.
Warning--faltando school em juliano2017
Warning--faltando school em marcos2017
+---------------------------------------------------------+
| Estilo bibliográfico abntex2-alf.bst versão v-1.9.5           |
| Em caso de dúvidas ou problemas com este estilo procure |
| http://www.abntex.net.br/                               |
+---------------------------------------------------------+
You've used 61 entries,
            6714 wiz_defined-function locations,
            1511 strings with 21732 characters,
and the built_in function-call counts, 48013 in all, are:
= -- 3670
> -- 1753
< -- 160
+ -- 774
- -- 533
* -- 3422
:= -- 6495
add.period$ -- 227
call.type$ -- 61
change.case$ -- 632
chr.to.int$ -- 112
cite$ -- 62
duplicate$ -- 2494
empty$ -- 3526
format.name$ -- 2526
if$ -- 11193
int.to.chr$ -- 0
int.to.str$ -- 0
missing$ -- 1077
newline$ -- 301
num.names$ -- 300
pop$ -- 1464
preamble$ -- 2
purify$ -- 235
quote$ -- 0
skip$ -- 2728
stack$ -- 1
substring$ -- 1735
swap$ -- 1104
text.length$ -- 55
text.prefix$ -- 0
top$ -- 0
type$ -- 17
warning$ -- 2
while$ -- 421
width$ -- 0
write$ -- 931
(There were 5 error messages)
